%YAML 1.1
%TAG !u! tag:unity3d.com,2011:
--- !u!74 &7400000
AnimationClip:
  m_ObjectHideFlags: 0
  m_PrefabParentObject: {fileID: 0}
  m_PrefabInternal: {fileID: 0}
  m_Name: move
  serializedVersion: 6
  m_Legacy: 0
  m_Compressed: 0
  m_UseHighQualityCurve: 1
  m_RotationCurves: []
  m_CompressedRotationCurves: []
  m_EulerCurves:
  - curve:
      serializedVersion: 2
      m_Curve:
      - time: 0
        value: {x: -0, y: 0, z: 0.114599995}
        inSlope: {x: 0, y: 0, z: -0.6250909}
        outSlope: {x: 0, y: 0, z: -0.6250909}
        tangentMode: 0
      - time: 0.18333334
        value: {x: -0, y: 0, z: 0}
        inSlope: {x: 0, y: 0, z: 4.2407875}
        outSlope: {x: 0, y: 0, z: 4.2407875}
        tangentMode: 0
      - time: 0.33333334
        value: {x: 0, y: 0, z: 1.3659999}
        inSlope: {x: 0, y: 0, z: -0.0000009536743}
        outSlope: {x: 0, y: 0, z: -0.0000009536743}
        tangentMode: 0
      - time: 0.48333332
        value: {x: -0, y: 0, z: 0}
        inSlope: {x: 0, y: 0, z: -4.5533338}
        outSlope: {x: 0, y: 0, z: -4.5533338}
        tangentMode: 0
      - time: 0.56666666
        value: {x: 0, y: 0, z: 0}
        inSlope: {x: 0, y: 0, z: 0.4911428}
        outSlope: {x: 0, y: 0, z: 0.4911428}
        tangentMode: 0
      - time: 0.68333334
        value: {x: -0, y: 0, z: 0.114599995}
        inSlope: {x: -0, y: 0, z: 0.9822856}
        outSlope: {x: -0, y: 0, z: 0.9822856}
        tangentMode: 0
      m_PreInfinity: 2
      m_PostInfinity: 2
      m_RotationOrder: 4
    path: "\u043A\u0443\u043B\u0430 \u043A\u043E\u0448\u043A\u0430_0"
  - curve:
      serializedVersion: 2
      m_Curve:
      - time: 0
        value: {x: -0, y: 0, z: 0.114599995}
        inSlope: {x: 0, y: 0, z: -0.6250909}
        outSlope: {x: 0, y: 0, z: -0.6250909}
        tangentMode: 0
      - time: 0.18333334
        value: {x: -0, y: 0, z: 0}
        inSlope: {x: 0, y: 0, z: -0.31254545}
        outSlope: {x: 0, y: 0, z: -0.31254545}
        tangentMode: 0
      - time: 0.33333334
        value: {x: 0, y: 0, z: 0}
        inSlope: {x: 0, y: 0, z: 0}
        outSlope: {x: 0, y: 0, z: 0}
        tangentMode: 0
      - time: 0.48333332
        value: {x: -0, y: 0, z: 0}
        inSlope: {x: 0, y: 0, z: 0}
        outSlope: {x: 0, y: 0, z: 0}
        tangentMode: 0
      - time: 0.56666666
        value: {x: 0, y: 0, z: 0}
        inSlope: {x: 0, y: 0, z: 0.4911428}
        outSlope: {x: 0, y: 0, z: 0.4911428}
        tangentMode: 0
      - time: 0.68333334
        value: {x: -0, y: 0, z: 0.114599995}
        inSlope: {x: -0, y: 0, z: 0.9822856}
        outSlope: {x: -0, y: 0, z: 0.9822856}
        tangentMode: 0
      m_PreInfinity: 2
      m_PostInfinity: 2
      m_RotationOrder: 4
    path: "\u043A\u0443\u043B\u0430 \u043A\u043E\u0448\u043A\u0430_4"
  - curve:
      serializedVersion: 2
      m_Curve:
      - time: 0
        value: {x: -0, y: 0, z: 0.114599995}
        inSlope: {x: 0, y: 0, z: -0.6250909}
        outSlope: {x: 0, y: 0, z: -0.6250909}
        tangentMode: 0
      - time: 0.18333334
        value: {x: -0, y: 0, z: 0}
        inSlope: {x: 0, y: 0, z: -0.31254545}
        outSlope: {x: 0, y: 0, z: -0.31254545}
        tangentMode: 0
      - time: 0.33333334
        value: {x: 0, y: 0, z: 0}
        inSlope: {x: 0, y: 0, z: 0}
        outSlope: {x: 0, y: 0, z: 0}
        tangentMode: 0
      - time: 0.48333332
        value: {x: -0, y: 0, z: 0}
        inSlope: {x: 0, y: 0, z: 0}
        outSlope: {x: 0, y: 0, z: 0}
        tangentMode: 0
      - time: 0.56666666
        value: {x: 0, y: 0, z: 0}
        inSlope: {x: 0, y: 0, z: 0.4911428}
        outSlope: {x: 0, y: 0, z: 0.4911428}
        tangentMode: 0
      - time: 0.68333334
        value: {x: -0, y: 0, z: 0.114599995}
        inSlope: {x: -0, y: 0, z: 0.9822856}
        outSlope: {x: -0, y: 0, z: 0.9822856}
        tangentMode: 0
      m_PreInfinity: 2
      m_PostInfinity: 2
      m_RotationOrder: 4
    path: "\u043A\u0443\u043B\u0430 \u043A\u043E\u0448\u043A\u0430_1"
  - curve:
      serializedVersion: 2
      m_Curve:
      - time: 0
        value: {x: -0, y: 0, z: 9.6538}
        inSlope: {x: 0, y: 0, z: 0}
        outSlope: {x: 0, y: 0, z: 0}
        tangentMode: 0
      - time: 0.18333334
        value: {x: -0, y: 0, z: 9.6538}
        inSlope: {x: 0, y: 0, z: 0}
        outSlope: {x: 0, y: 0, z: 0}
        tangentMode: 0
      - time: 0.33333334
        value: {x: -0, y: 0, z: 9.6538}
        inSlope: {x: 0, y: 0, z: 0}
        outSlope: {x: 0, y: 0, z: 0}
        tangentMode: 0
      - time: 0.48333332
        value: {x: -0, y: 0, z: 9.6538}
        inSlope: {x: 0, y: 0, z: 0}
        outSlope: {x: 0, y: 0, z: 0}
        tangentMode: 0
      - time: 0.56666666
        value: {x: -0, y: 0, z: 9.6538}
        inSlope: {x: 0, y: 0, z: 0}
        outSlope: {x: 0, y: 0, z: 0}
        tangentMode: 0
      - time: 0.68333334
        value: {x: -0, y: 0, z: 9.6538}
        inSlope: {x: 0, y: 0, z: 0}
        outSlope: {x: 0, y: 0, z: 0}
        tangentMode: 0
      m_PreInfinity: 2
      m_PostInfinity: 2
      m_RotationOrder: 4
    path: "\u043A\u0443\u043B\u0430 \u043A\u043E\u0448\u043A\u0430_5"
  m_PositionCurves:
  - curve:
      serializedVersion: 2
      m_Curve:
      - time: 0
        value: {x: 3.91, y: -0.13, z: 0}
        inSlope: {x: -0.16363621, y: -0.054545484, z: 0}
        outSlope: {x: -0.16363621, y: -0.054545484, z: 0}
        tangentMode: 0
      - time: 0.18333334
        value: {x: 3.88, y: -0.14, z: 0}
        inSlope: {x: -0.081818104, y: 0.13939391, z: 0}
        outSlope: {x: -0.081818104, y: 0.13939391, z: 0}
        tangentMode: 0
      - time: 0.33333334
        value: {x: 3.88, y: -0.09, z: 0}
        inSlope: {x: -0.06666741, y: 0.03333333, z: 0}
        outSlope: {x: -0.06666741, y: 0.03333333, z: 0}
        tangentMode: 0
      - time: 0.48333332
        value: {x: 3.86, y: -0.13, z: 0}
        inSlope: {x: -0.06666741, y: -0.13333333, z: 0}
        outSlope: {x: -0.06666741, y: -0.13333333, z: 0}
        tangentMode: 0
      - time: 0.56666666
        value: {x: 3.86, y: -0.13, z: 0}
        inSlope: {x: 0.21428652, y: 0, z: 0}
        outSlope: {x: 0.21428652, y: 0, z: 0}
        tangentMode: 0
      - time: 0.68333334
        value: {x: 3.91, y: -0.13, z: 0}
        inSlope: {x: 0.42857304, y: 0, z: 0}
        outSlope: {x: 0.42857304, y: 0, z: 0}
        tangentMode: 0
      m_PreInfinity: 2
      m_PostInfinity: 2
      m_RotationOrder: 4
    path: "\u043A\u0443\u043B\u0430 \u043A\u043E\u0448\u043A\u0430_4"
  - curve:
      serializedVersion: 2
      m_Curve:
      - time: 0
        value: {x: 6.6, y: -0.1, z: 0}
        inSlope: {x: -2.7818167, y: -0.054545444, z: 0}
        outSlope: {x: -2.7818167, y: -0.054545444, z: 0}
        tangentMode: 0
      - time: 0.18333334
        value: {x: 6.09, y: -0.11, z: 0}
        inSlope: {x: -1.6575748, y: 0.13939394, z: 0}
        outSlope: {x: -1.6575748, y: 0.13939394, z: 0}
        tangentMode: 0
      - time: 0.33333334
        value: {x: 6.01, y: -0.06, z: 0}
        inSlope: {x: 0.9333327, y: 0.033333287, z: 0}
        outSlope: {x: 0.9333327, y: 0.033333287, z: 0}
        tangentMode: 0
      - time: 0.48333332
        value: {x: 6.37, y: -0.1, z: 0}
        inSlope: {x: 1.5599988, y: -0.13333337, z: 0}
        outSlope: {x: 1.5599988, y: -0.13333337, z: 0}
        tangentMode: 0
      - time: 0.56666666
        value: {x: 6.43, y: -0.1, z: 0}
        inSlope: {x: 1.0885713, y: 0, z: 0}
        outSlope: {x: 1.0885713, y: 0, z: 0}
        tangentMode: 0
      - time: 0.68333334
        value: {x: 6.6, y: -0.1, z: 0}
        inSlope: {x: 1.4571434, y: 0, z: 0}
        outSlope: {x: 1.4571434, y: 0, z: 0}
        tangentMode: 0
      m_PreInfinity: 2
      m_PostInfinity: 2
      m_RotationOrder: 4
    path: "\u043A\u0443\u043B\u0430 \u043A\u043E\u0448\u043A\u0430_1"
  - curve:
      serializedVersion: 2
      m_Curve:
      - time: 0
        value: {x: 1.25, y: -0.4, z: 0}
        inSlope: {x: 0.49090925, y: 0, z: 0}
        outSlope: {x: 0.49090925, y: 0, z: 0}
        tangentMode: 0
      - time: 0.18333334
        value: {x: 1.34, y: -0.4, z: 0}
        inSlope: {x: 0.57878804, y: 0, z: 0}
        outSlope: {x: 0.57878804, y: 0, z: 0}
        tangentMode: 0
      - time: 0.33333334
        value: {x: 1.44, y: -0.4, z: 0}
        inSlope: {x: 0.2999997, y: 0.10000002, z: 0}
        outSlope: {x: 0.2999997, y: 0.10000002, z: 0}
        tangentMode: 0
      - time: 0.48333332
        value: {x: 1.43, y: -0.37, z: 0}
        inSlope: {x: -0.7533337, y: 0.10000002, z: 0}
        outSlope: {x: -0.7533337, y: 0.10000002, z: 0}
        tangentMode: 0
      - time: 0.56666666
        value: {x: 1.31, y: -0.37, z: 0}
        inSlope: {x: -0.9771426, y: -0.12857142, z: 0}
        outSlope: {x: -0.9771426, y: -0.12857142, z: 0}
        tangentMode: 0
      - time: 0.68333334
        value: {x: 1.25, y: -0.4, z: 0}
        inSlope: {x: -0.5142852, y: -0.25714284, z: 0}
        outSlope: {x: -0.5142852, y: -0.25714284, z: 0}
        tangentMode: 0
      m_PreInfinity: 2
      m_PostInfinity: 2
      m_RotationOrder: 4
    path: "\u043A\u0443\u043B\u0430 \u043A\u043E\u0448\u043A\u0430_5 (1)"
  - curve:
      serializedVersion: 2
      m_Curve:
      - time: 0
        value: {x: 2.02, y: 0.14, z: 0}
        inSlope: {x: -0.21818161, y: -0.16363637, z: 0}
        outSlope: {x: -0.21818161, y: -0.16363637, z: 0}
        tangentMode: 0
      - time: 0.18333334
        value: {x: 1.98, y: 0.11, z: 0}
        inSlope: {x: -0.17575741, y: -0.06848485, z: 0}
        outSlope: {x: -0.17575741, y: -0.06848485, z: 0}
        tangentMode: 0
      - time: 0.33333334
        value: {x: 1.96, y: 0.114, z: 0}
        inSlope: {x: 0.000000007450581, y: 0.06666666, z: 0}
        outSlope: {x: 0.000000007450581, y: 0.06666666, z: 0}
        tangentMode: 0
      - time: 0.48333332
        value: {x: 1.98, y: 0.13, z: 0}
        inSlope: {x: 0.06666661, y: 0.053333327, z: 0}
        outSlope: {x: 0.06666661, y: 0.053333327, z: 0}
        tangentMode: 0
      - time: 0.56666666
        value: {x: 1.98, y: 0.13, z: 0}
        inSlope: {x: 0.1714284, y: 0.042857163, z: 0}
        outSlope: {x: 0.1714284, y: 0.042857163, z: 0}
        tangentMode: 0
      - time: 0.68333334
        value: {x: 2.02, y: 0.14, z: 0}
        inSlope: {x: 0.3428568, y: 0.085714325, z: 0}
        outSlope: {x: 0.3428568, y: 0.085714325, z: 0}
        tangentMode: 0
      m_PreInfinity: 2
      m_PostInfinity: 2
      m_RotationOrder: 4
    path: "\u043A\u0443\u043B\u0430 \u043A\u043E\u0448\u043A\u0430_0"
  - curve:
      serializedVersion: 2
      m_Curve:
      - time: 0
        value: {x: 2.46, y: -0.6692985, z: 0}
        inSlope: {x: -0.38181782, y: -0.112917095, z: 0}
        outSlope: {x: -0.38181782, y: -0.112917095, z: 0}
        tangentMode: 0
      - time: 0.18333334
        value: {x: 2.39, y: -0.69, z: 0}
        inSlope: {x: -0.2575763, y: -0.023125246, z: 0}
        outSlope: {x: -0.2575763, y: -0.023125246, z: 0}
        tangentMode: 0
      - time: 0.33333334
        value: {x: 2.37, y: -0.68, z: 0}
        inSlope: {x: -0.06666739, y: 0.0666666, z: 0}
        outSlope: {x: -0.06666739, y: 0.0666666, z: 0}
        tangentMode: 0
      - time: 0.48333332
        value: {x: 2.37, y: -0.67, z: 0}
        inSlope: {x: 0.24000117, y: 0.033333305, z: 0}
        outSlope: {x: 0.24000117, y: 0.033333305, z: 0}
        tangentMode: 0
      - time: 0.56666666
        value: {x: 2.41, y: -0.67, z: 0}
        inSlope: {x: 0.45428666, y: 0.0030063728, z: 0}
        outSlope: {x: 0.45428666, y: 0.0030063728, z: 0}
        tangentMode: 0
      - time: 0.68333334
        value: {x: 2.46, y: -0.6692985, z: 0}
        inSlope: {x: 0.428571, y: 0.0060127457, z: 0}
        outSlope: {x: 0.428571, y: 0.0060127457, z: 0}
        tangentMode: 0
      m_PreInfinity: 2
      m_PostInfinity: 2
      m_RotationOrder: 4
    path: "\u043A\u0443\u043B\u0430 \u043A\u043E\u0448\u043A\u0430_5"
  m_ScaleCurves:
  - curve:
      serializedVersion: 2
      m_Curve:
      - time: 0
        value: {x: -1.495134, y: 0.6874261, z: 1}
        inSlope: {x: 0.011120276, y: 0.04667076, z: 0}
        outSlope: {x: 0.011120276, y: 0.04667076, z: 0}
        tangentMode: 0
      - time: 0.18333334
        value: {x: -1.4930953, y: 0.6959824, z: 1}
        inSlope: {x: 0.005560138, y: 0.077853166, z: 0}
        outSlope: {x: 0.005560138, y: 0.077853166, z: 0}
        tangentMode: 0
      - time: 0.33333334
        value: {x: -1.4930953, y: 0.71233773, z: 1}
        inSlope: {x: 0, y: -0.028521039, z: 0}
        outSlope: {x: 0, y: -0.028521039, z: 0}
        tangentMode: 0
      - time: 0.48333332
        value: {x: -1.4930953, y: 0.6874261, z: 1}
        inSlope: {x: 0, y: -0.08303882, z: 0}
        outSlope: {x: 0, y: -0.08303882, z: 0}
        tangentMode: 0
      - time: 0.56666666
        value: {x: -1.4930953, y: 0.6874261, z: 1}
        inSlope: {x: -0.008737359, y: 0, z: 0}
        outSlope: {x: -0.008737359, y: 0, z: 0}
        tangentMode: 0
      - time: 0.68333334
        value: {x: -1.495134, y: 0.6874261, z: 1}
        inSlope: {x: -0.017474718, y: 0, z: 0}
        outSlope: {x: -0.017474718, y: 0, z: 0}
        tangentMode: 0
      m_PreInfinity: 2
      m_PostInfinity: 2
      m_RotationOrder: 4
    path: "\u043A\u0443\u043B\u0430 \u043A\u043E\u0448\u043A\u0430_5 (1)"
  - curve:
      serializedVersion: 2
      m_Curve:
      - time: 0
        value: {x: 0.9615763, y: 1.0403264, z: 1}
        inSlope: {x: 0.20958391, y: -0.15206987, z: 0}
        outSlope: {x: 0.20958391, y: -0.15206987, z: 0}
        tangentMode: 0
      - time: 0.18333334
        value: {x: 1, y: 1.0124469, z: 1}
        inSlope: {x: 0.104791954, y: -0.16507593, z: 0}
        outSlope: {x: 0.104791954, y: -0.16507593, z: 0}
        tangentMode: 0
      - time: 0.33333334
        value: {x: 1, y: 0.9857346, z: 1}
        inSlope: {x: 0, y: -0.041489594, z: 0}
        outSlope: {x: 0, y: -0.041489594, z: 0}
        tangentMode: 0
      - time: 0.48333332
        value: {x: 1, y: 1, z: 1}
        inSlope: {x: 0, y: 0.0475514, z: 0}
        outSlope: {x: 0, y: 0.0475514, z: 0}
        tangentMode: 0
      - time: 0.56666666
        value: {x: 1, y: 1, z: 1}
        inSlope: {x: -0.16467306, y: 0.17282723, z: 0}
        outSlope: {x: -0.16467306, y: 0.17282723, z: 0}
        tangentMode: 0
      - time: 0.68333334
        value: {x: 0.9615763, y: 1.0403264, z: 1}
        inSlope: {x: -0.32934612, y: 0.34565446, z: 0}
        outSlope: {x: -0.32934612, y: 0.34565446, z: 0}
        tangentMode: 0
      m_PreInfinity: 2
      m_PostInfinity: 2
      m_RotationOrder: 4
    path: "\u043A\u0443\u043B\u0430 \u043A\u043E\u0448\u043A\u0430_0"
  - curve:
      serializedVersion: 2
      m_Curve:
      - time: 0
        value: {x: 1.1046084, y: 1, z: 1}
        inSlope: {x: -1.2503421, y: 0.067892075, z: 0}
        outSlope: {x: -1.2503421, y: 0.067892075, z: 0}
        tangentMode: 0
      - time: 0.18333334
        value: {x: 0.875379, y: 1.0124469, z: 1}
        inSlope: {x: -0.62517107, y: -0.07059415, z: 0}
        outSlope: {x: -0.62517107, y: -0.07059415, z: 0}
        tangentMode: 0
      - time: 0.33333334
        value: {x: 0.875379, y: 0.9810848, z: 1}
        inSlope: {x: 0.4154033, y: -0.041489586, z: 0}
        outSlope: {x: 0.4154033, y: -0.041489586, z: 0}
        tangentMode: 0
      - time: 0.48333332
        value: {x: 1, y: 1, z: 1}
        inSlope: {x: 0.4154033, y: 0.0630506, z: 0}
        outSlope: {x: 0.4154033, y: 0.0630506, z: 0}
        tangentMode: 0
      - time: 0.56666666
        value: {x: 1, y: 1, z: 1}
        inSlope: {x: 0.44832176, y: 0, z: 0}
        outSlope: {x: 0.44832176, y: 0, z: 0}
        tangentMode: 0
      - time: 0.68333334
        value: {x: 1.1046084, y: 1, z: 1}
        inSlope: {x: 0.8966435, y: 0, z: 0}
        outSlope: {x: 0.8966435, y: 0, z: 0}
        tangentMode: 0
      m_PreInfinity: 2
      m_PostInfinity: 2
      m_RotationOrder: 4
    path: "\u043A\u0443\u043B\u0430 \u043A\u043E\u0448\u043A\u0430_4"
  - curve:
      serializedVersion: 2
      m_Curve:
      - time: 0
        value: {x: 0.6550956, y: 1.0566714, z: 1}
        inSlope: {x: 1.8812968, y: -0.24122454, z: 0}
        outSlope: {x: 1.8812968, y: -0.24122454, z: 0}
        tangentMode: 0
      - time: 0.18333334
        value: {x: 1, y: 1.0124469, z: 1}
        inSlope: {x: -0.409903, y: -0.22515246, z: 0}
        outSlope: {x: -0.409903, y: -0.22515246, z: 0}
        tangentMode: 0
      - time: 0.33333334
        value: {x: 0.59483457, y: 0.9810848, z: 1}
        inSlope: {x: 0.00000023841858, y: -0.041489586, z: 0}
        outSlope: {x: 0.00000023841858, y: -0.041489586, z: 0}
        tangentMode: 0
      - time: 0.48333332
        value: {x: 1, y: 1, z: 1}
        inSlope: {x: 3.1586564, y: 0.0630506, z: 0}
        outSlope: {x: 3.1586564, y: 0.0630506, z: 0}
        tangentMode: 0
      - time: 0.56666666
        value: {x: 1.3013508, y: 1, z: 1}
        inSlope: {x: -0.9615605, y: 0.24287733, z: 0}
        outSlope: {x: -0.9615605, y: 0.24287733, z: 0}
        tangentMode: 0
      - time: 0.68333334
        value: {x: 0.6550956, y: 1.0566714, z: 1}
        inSlope: {x: -5.5393305, y: 0.48575467, z: 0}
        outSlope: {x: -5.5393305, y: 0.48575467, z: 0}
        tangentMode: 0
      m_PreInfinity: 2
      m_PostInfinity: 2
      m_RotationOrder: 4
    path: "\u043A\u0443\u043B\u0430 \u043A\u043E\u0448\u043A\u0430_1"
  - curve:
      serializedVersion: 2
      m_Curve:
      - time: 0
        value: {x: 1.0013654, y: 0.9187156, z: 1}
        inSlope: {x: 0, y: 0.99231845, z: 0}
        outSlope: {x: 0, y: 0.99231845, z: 0}
        tangentMode: 0
      - time: 0.18333334
        value: {x: 1.0013654, y: 1.1006407, z: 1}
        inSlope: {x: 0, y: 0.24694943, z: 0}
        outSlope: {x: 0, y: 0.24694943, z: 0}
        tangentMode: 0
      - time: 0.33333334
        value: {x: 1.0013654, y: 1.0258777, z: 1}
        inSlope: {x: 0, y: -0.3307764, z: 0}
        outSlope: {x: 0, y: -0.3307764, z: 0}
        tangentMode: 0
      - time: 0.48333332
        value: {x: 1.0013654, y: 1.0014077, z: 1}
        inSlope: {x: 0, y: 0.064840525, z: 0}
        outSlope: {x: 0, y: 0.064840525, z: 0}
        tangentMode: 0
      - time: 0.56666666
        value: {x: 1.0013654, y: 1.0258089, z: 1}
        inSlope: {x: 0, y: -0.3125643, z: 0}
        outSlope: {x: 0, y: -0.3125643, z: 0}
        tangentMode: 0
      - time: 0.68333334
        value: {x: 1.0013654, y: 0.9187156, z: 1}
        inSlope: {x: 0, y: -0.9179428, z: 0}
        outSlope: {x: 0, y: -0.9179428, z: 0}
        tangentMode: 0
      m_PreInfinity: 2
      m_PostInfinity: 2
      m_RotationOrder: 4
    path: "\u043A\u0443\u043B\u0430 \u043A\u043E\u0448\u043A\u0430_5"
  m_FloatCurves: []
  m_PPtrCurves: []
  m_SampleRate: 60
  m_WrapMode: 0
  m_Bounds:
    m_Center: {x: 0, y: 0, z: 0}
    m_Extent: {x: 0, y: 0, z: 0}
  m_ClipBindingConstant:
    genericBindings:
    - path: 4193076134
      attribute: 1
      script: {fileID: 0}
      classID: 4
      customType: 0
      isPPtrCurve: 0
    - path: 2307372841
      attribute: 1
      script: {fileID: 0}
      classID: 4
      customType: 0
      isPPtrCurve: 0
    - path: 1003119437
      attribute: 1
      script: {fileID: 0}
      classID: 4
      customType: 0
      isPPtrCurve: 0
    - path: 4269836223
      attribute: 1
      script: {fileID: 0}
      classID: 4
      customType: 0
      isPPtrCurve: 0
    - path: 2397729584
      attribute: 1
      script: {fileID: 0}
      classID: 4
      customType: 0
      isPPtrCurve: 0
    - path: 4269836223
      attribute: 4
      script: {fileID: 0}
      classID: 4
      customType: 14
      isPPtrCurve: 0
    - path: 4193076134
      attribute: 4
      script: {fileID: 0}
      classID: 4
      customType: 14
      isPPtrCurve: 0
    - path: 2307372841
      attribute: 4
      script: {fileID: 0}
      classID: 4
      customType: 14
      isPPtrCurve: 0
    - path: 1003119437
      attribute: 3
      script: {fileID: 0}
      classID: 4
      customType: 0
      isPPtrCurve: 0
    - path: 4269836223
      attribute: 3
      script: {fileID: 0}
      classID: 4
      customType: 0
      isPPtrCurve: 0
    - path: 4193076134
      attribute: 3
      script: {fileID: 0}
      classID: 4
      customType: 0
      isPPtrCurve: 0
    - path: 2307372841
      attribute: 3
      script: {fileID: 0}
      classID: 4
      customType: 0
      isPPtrCurve: 0
    - path: 2397729584
      attribute: 3
      script: {fileID: 0}
      classID: 4
      customType: 0
      isPPtrCurve: 0
    - path: 2397729584
      attribute: 4
      script: {fileID: 0}
      classID: 4
      customType: 14
      isPPtrCurve: 0
    pptrCurveMapping: []
  m_AnimationClipSettings:
    serializedVersion: 2
    m_AdditiveReferencePoseClip: {fileID: 0}
    m_AdditiveReferencePoseTime: 0
    m_StartTime: 0
    m_StopTime: 0.68333334
    m_OrientationOffsetY: 0
    m_Level: 0
    m_CycleOffset: 0
    m_HasAdditiveReferencePose: 0
    m_LoopTime: 1
    m_LoopBlend: 0
    m_LoopBlendOrientation: 0
    m_LoopBlendPositionY: 0
    m_LoopBlendPositionXZ: 0
    m_KeepOriginalOrientation: 0
    m_KeepOriginalPositionY: 1
    m_KeepOriginalPositionXZ: 0
    m_HeightFromFeet: 0
    m_Mirror: 0
  m_EditorCurves:
  - curve:
      serializedVersion: 2
      m_Curve:
      - time: 0
        value: -1.495134
        inSlope: 0.011120276
        outSlope: 0.011120276
        tangentMode: 10
      - time: 0.18333334
        value: -1.4930953
        inSlope: 0.005560138
        outSlope: 0.005560138
        tangentMode: 10
      - time: 0.33333334
        value: -1.4930953
        inSlope: 0
        outSlope: 0
        tangentMode: 10
      - time: 0.48333332
        value: -1.4930953
        inSlope: 0
        outSlope: 0
        tangentMode: 10
      - time: 0.56666666
        value: -1.4930953
        inSlope: -0.008737359
        outSlope: -0.008737359
        tangentMode: 10
      - time: 0.68333334
        value: -1.495134
        inSlope: -0.017474718
        outSlope: -0.017474718
        tangentMode: 10
      m_PreInfinity: 2
      m_PostInfinity: 2
      m_RotationOrder: 4
    attribute: m_LocalScale.x
    path: "\u043A\u0443\u043B\u0430 \u043A\u043E\u0448\u043A\u0430_5 (1)"
    classID: 4
    script: {fileID: 0}
  - curve:
      serializedVersion: 2
      m_Curve:
      - time: 0
        value: 0.6874261
        inSlope: 0.04667076
        outSlope: 0.04667076
        tangentMode: 10
      - time: 0.18333334
        value: 0.6959824
        inSlope: 0.077853166
        outSlope: 0.077853166
        tangentMode: 10
      - time: 0.33333334
        value: 0.71233773
        inSlope: -0.028521039
        outSlope: -0.028521039
        tangentMode: 10
      - time: 0.48333332
        value: 0.6874261
        inSlope: -0.08303882
        outSlope: -0.08303882
        tangentMode: 10
      - time: 0.56666666
        value: 0.6874261
        inSlope: 0
        outSlope: 0
        tangentMode: 10
      - time: 0.68333334
        value: 0.6874261
        inSlope: 0
        outSlope: 0
        tangentMode: 10
      m_PreInfinity: 2
      m_PostInfinity: 2
      m_RotationOrder: 4
    attribute: m_LocalScale.y
    path: "\u043A\u0443\u043B\u0430 \u043A\u043E\u0448\u043A\u0430_5 (1)"
    classID: 4
    script: {fileID: 0}
  - curve:
      serializedVersion: 2
      m_Curve:
      - time: 0
        value: 1
        inSlope: 0
        outSlope: 0
        tangentMode: 10
      - time: 0.18333334
        value: 1
        inSlope: 0
        outSlope: 0
        tangentMode: 10
      - time: 0.33333334
        value: 1
        inSlope: 0
        outSlope: 0
        tangentMode: 10
      - time: 0.48333332
        value: 1
        inSlope: 0
        outSlope: 0
        tangentMode: 10
      - time: 0.56666666
        value: 1
        inSlope: 0
        outSlope: 0
        tangentMode: 10
      - time: 0.68333334
        value: 1
        inSlope: 0
        outSlope: 0
        tangentMode: 10
      m_PreInfinity: 2
      m_PostInfinity: 2
      m_RotationOrder: 4
    attribute: m_LocalScale.z
    path: "\u043A\u0443\u043B\u0430 \u043A\u043E\u0448\u043A\u0430_5 (1)"
    classID: 4
    script: {fileID: 0}
  - curve:
      serializedVersion: 2
      m_Curve:
      - time: 0
        value: 0.9615763
        inSlope: 0.20958391
        outSlope: 0.20958391
        tangentMode: 10
      - time: 0.18333334
        value: 1
        inSlope: 0.104791954
        outSlope: 0.104791954
        tangentMode: 10
      - time: 0.33333334
        value: 1
        inSlope: 0
        outSlope: 0
        tangentMode: 10
      - time: 0.48333332
        value: 1
        inSlope: 0
        outSlope: 0
        tangentMode: 10
      - time: 0.56666666
        value: 1
        inSlope: -0.16467306
        outSlope: -0.16467306
        tangentMode: 10
      - time: 0.68333334
        value: 0.9615763
        inSlope: -0.32934612
        outSlope: -0.32934612
        tangentMode: 10
      m_PreInfinity: 2
      m_PostInfinity: 2
      m_RotationOrder: 4
    attribute: m_LocalScale.x
    path: "\u043A\u0443\u043B\u0430 \u043A\u043E\u0448\u043A\u0430_0"
    classID: 4
    script: {fileID: 0}
  - curve:
      serializedVersion: 2
      m_Curve:
      - time: 0
        value: 1.0403264
        inSlope: -0.15206987
        outSlope: -0.15206987
        tangentMode: 10
      - time: 0.18333334
        value: 1.0124469
        inSlope: -0.16507593
        outSlope: -0.16507593
        tangentMode: 10
      - time: 0.33333334
        value: 0.9857346
        inSlope: -0.041489594
        outSlope: -0.041489594
        tangentMode: 10
      - time: 0.48333332
        value: 1
        inSlope: 0.0475514
        outSlope: 0.0475514
        tangentMode: 10
      - time: 0.56666666
        value: 1
        inSlope: 0.17282723
        outSlope: 0.17282723
        tangentMode: 10
      - time: 0.68333334
        value: 1.0403264
        inSlope: 0.34565446
        outSlope: 0.34565446
        tangentMode: 10
      m_PreInfinity: 2
      m_PostInfinity: 2
      m_RotationOrder: 4
    attribute: m_LocalScale.y
    path: "\u043A\u0443\u043B\u0430 \u043A\u043E\u0448\u043A\u0430_0"
    classID: 4
    script: {fileID: 0}
  - curve:
      serializedVersion: 2
      m_Curve:
      - time: 0
        value: 1
        inSlope: 0
        outSlope: 0
        tangentMode: 10
      - time: 0.18333334
        value: 1
        inSlope: 0
        outSlope: 0
        tangentMode: 10
      - time: 0.33333334
        value: 1
        inSlope: 0
        outSlope: 0
        tangentMode: 10
      - time: 0.48333332
        value: 1
        inSlope: 0
        outSlope: 0
        tangentMode: 10
      - time: 0.56666666
        value: 1
        inSlope: 0
        outSlope: 0
        tangentMode: 10
      - time: 0.68333334
        value: 1
        inSlope: 0
        outSlope: 0
        tangentMode: 10
      m_PreInfinity: 2
      m_PostInfinity: 2
      m_RotationOrder: 4
    attribute: m_LocalScale.z
    path: "\u043A\u0443\u043B\u0430 \u043A\u043E\u0448\u043A\u0430_0"
    classID: 4
    script: {fileID: 0}
  - curve:
      serializedVersion: 2
      m_Curve:
      - time: 0
        value: 3.91
        inSlope: -0.16363621
        outSlope: -0.16363621
        tangentMode: 10
      - time: 0.18333334
        value: 3.88
        inSlope: -0.081818104
        outSlope: -0.081818104
        tangentMode: 10
      - time: 0.33333334
        value: 3.88
        inSlope: -0.06666741
        outSlope: -0.06666741
        tangentMode: 10
      - time: 0.48333332
        value: 3.86
        inSlope: -0.06666741
        outSlope: -0.06666741
        tangentMode: 10
      - time: 0.56666666
        value: 3.86
        inSlope: 0.21428652
        outSlope: 0.21428652
        tangentMode: 10
      - time: 0.68333334
        value: 3.91
        inSlope: 0.42857304
        outSlope: 0.42857304
        tangentMode: 10
      m_PreInfinity: 2
      m_PostInfinity: 2
      m_RotationOrder: 4
    attribute: m_LocalPosition.x
    path: "\u043A\u0443\u043B\u0430 \u043A\u043E\u0448\u043A\u0430_4"
    classID: 4
    script: {fileID: 0}
  - curve:
      serializedVersion: 2
      m_Curve:
      - time: 0
        value: -0.13
        inSlope: -0.054545484
        outSlope: -0.054545484
        tangentMode: 10
      - time: 0.18333334
        value: -0.14
        inSlope: 0.13939391
        outSlope: 0.13939391
        tangentMode: 10
      - time: 0.33333334
        value: -0.09
        inSlope: 0.03333333
        outSlope: 0.03333333
        tangentMode: 10
      - time: 0.48333332
        value: -0.13
        inSlope: -0.13333333
        outSlope: -0.13333333
        tangentMode: 10
      - time: 0.56666666
        value: -0.13
        inSlope: 0
        outSlope: 0
        tangentMode: 10
      - time: 0.68333334
        value: -0.13
        inSlope: 0
        outSlope: 0
        tangentMode: 10
      m_PreInfinity: 2
      m_PostInfinity: 2
      m_RotationOrder: 4
    attribute: m_LocalPosition.y
    path: "\u043A\u0443\u043B\u0430 \u043A\u043E\u0448\u043A\u0430_4"
    classID: 4
    script: {fileID: 0}
  - curve:
      serializedVersion: 2
      m_Curve:
      - time: 0
        value: 0
        inSlope: 0
        outSlope: 0
        tangentMode: 10
      - time: 0.18333334
        value: 0
        inSlope: 0
        outSlope: 0
        tangentMode: 10
      - time: 0.33333334
        value: 0
        inSlope: 0
        outSlope: 0
        tangentMode: 10
      - time: 0.48333332
        value: 0
        inSlope: 0
        outSlope: 0
        tangentMode: 10
      - time: 0.56666666
        value: 0
        inSlope: 0
        outSlope: 0
        tangentMode: 10
      - time: 0.68333334
        value: 0
        inSlope: 0
        outSlope: 0
        tangentMode: 10
      m_PreInfinity: 2
      m_PostInfinity: 2
      m_RotationOrder: 4
    attribute: m_LocalPosition.z
    path: "\u043A\u0443\u043B\u0430 \u043A\u043E\u0448\u043A\u0430_4"
    classID: 4
    script: {fileID: 0}
  - curve:
      serializedVersion: 2
      m_Curve:
      - time: 0
        value: 1.1046084
        inSlope: -1.2503421
        outSlope: -1.2503421
        tangentMode: 10
      - time: 0.18333334
        value: 0.875379
        inSlope: -0.62517107
        outSlope: -0.62517107
        tangentMode: 10
      - time: 0.33333334
        value: 0.875379
        inSlope: 0.4154033
        outSlope: 0.4154033
        tangentMode: 10
      - time: 0.48333332
        value: 1
        inSlope: 0.4154033
        outSlope: 0.4154033
        tangentMode: 10
      - time: 0.56666666
        value: 1
        inSlope: 0.44832176
        outSlope: 0.44832176
        tangentMode: 10
      - time: 0.68333334
        value: 1.1046084
        inSlope: 0.8966435
        outSlope: 0.8966435
        tangentMode: 10
      m_PreInfinity: 2
      m_PostInfinity: 2
      m_RotationOrder: 4
    attribute: m_LocalScale.x
    path: "\u043A\u0443\u043B\u0430 \u043A\u043E\u0448\u043A\u0430_4"
    classID: 4
    script: {fileID: 0}
  - curve:
      serializedVersion: 2
      m_Curve:
      - time: 0
        value: 1
        inSlope: 0.067892075
        outSlope: 0.067892075
        tangentMode: 10
      - time: 0.18333334
        value: 1.0124469
        inSlope: -0.07059415
        outSlope: -0.07059415
        tangentMode: 10
      - time: 0.33333334
        value: 0.9810848
        inSlope: -0.041489586
        outSlope: -0.041489586
        tangentMode: 10
      - time: 0.48333332
        value: 1
        inSlope: 0.0630506
        outSlope: 0.0630506
        tangentMode: 10
      - time: 0.56666666
        value: 1
        inSlope: 0
        outSlope: 0
        tangentMode: 10
      - time: 0.68333334
        value: 1
        inSlope: 0
        outSlope: 0
        tangentMode: 10
      m_PreInfinity: 2
      m_PostInfinity: 2
      m_RotationOrder: 4
    attribute: m_LocalScale.y
    path: "\u043A\u0443\u043B\u0430 \u043A\u043E\u0448\u043A\u0430_4"
    classID: 4
    script: {fileID: 0}
  - curve:
      serializedVersion: 2
      m_Curve:
      - time: 0
        value: 1
        inSlope: 0
        outSlope: 0
        tangentMode: 10
      - time: 0.18333334
        value: 1
        inSlope: 0
        outSlope: 0
        tangentMode: 10
      - time: 0.33333334
        value: 1
        inSlope: 0
        outSlope: 0
        tangentMode: 10
      - time: 0.48333332
        value: 1
        inSlope: 0
        outSlope: 0
        tangentMode: 10
      - time: 0.56666666
        value: 1
        inSlope: 0
        outSlope: 0
        tangentMode: 10
      - time: 0.68333334
        value: 1
        inSlope: 0
        outSlope: 0
        tangentMode: 10
      m_PreInfinity: 2
      m_PostInfinity: 2
      m_RotationOrder: 4
    attribute: m_LocalScale.z
    path: "\u043A\u0443\u043B\u0430 \u043A\u043E\u0448\u043A\u0430_4"
    classID: 4
    script: {fileID: 0}
  - curve:
      serializedVersion: 2
      m_Curve:
      - time: 0
        value: 6.6
        inSlope: -2.7818167
        outSlope: -2.7818167
        tangentMode: 10
      - time: 0.18333334
        value: 6.09
        inSlope: -1.6575748
        outSlope: -1.6575748
        tangentMode: 10
      - time: 0.33333334
        value: 6.01
        inSlope: 0.9333327
        outSlope: 0.9333327
        tangentMode: 10
      - time: 0.48333332
        value: 6.37
        inSlope: 1.5599988
        outSlope: 1.5599988
        tangentMode: 10
      - time: 0.56666666
        value: 6.43
        inSlope: 1.0885713
        outSlope: 1.0885713
        tangentMode: 10
      - time: 0.68333334
        value: 6.6
        inSlope: 1.4571434
        outSlope: 1.4571434
        tangentMode: 10
      m_PreInfinity: 2
      m_PostInfinity: 2
      m_RotationOrder: 4
    attribute: m_LocalPosition.x
    path: "\u043A\u0443\u043B\u0430 \u043A\u043E\u0448\u043A\u0430_1"
    classID: 4
    script: {fileID: 0}
  - curve:
      serializedVersion: 2
      m_Curve:
      - time: 0
        value: -0.1
        inSlope: -0.054545444
        outSlope: -0.054545444
        tangentMode: 10
      - time: 0.18333334
        value: -0.11
        inSlope: 0.13939394
        outSlope: 0.13939394
        tangentMode: 10
      - time: 0.33333334
        value: -0.06
        inSlope: 0.033333287
        outSlope: 0.033333287
        tangentMode: 10
      - time: 0.48333332
        value: -0.1
        inSlope: -0.13333337
        outSlope: -0.13333337
        tangentMode: 10
      - time: 0.56666666
        value: -0.1
        inSlope: 0
        outSlope: 0
        tangentMode: 10
      - time: 0.68333334
        value: -0.1
        inSlope: 0
        outSlope: 0
        tangentMode: 10
      m_PreInfinity: 2
      m_PostInfinity: 2
      m_RotationOrder: 4
    attribute: m_LocalPosition.y
    path: "\u043A\u0443\u043B\u0430 \u043A\u043E\u0448\u043A\u0430_1"
    classID: 4
    script: {fileID: 0}
  - curve:
      serializedVersion: 2
      m_Curve:
      - time: 0
        value: 0
        inSlope: 0
        outSlope: 0
        tangentMode: 10
      - time: 0.18333334
        value: 0
        inSlope: 0
        outSlope: 0
        tangentMode: 10
      - time: 0.33333334
        value: 0
        inSlope: 0
        outSlope: 0
        tangentMode: 10
      - time: 0.48333332
        value: 0
        inSlope: 0
        outSlope: 0
        tangentMode: 10
      - time: 0.56666666
        value: 0
        inSlope: 0
        outSlope: 0
        tangentMode: 10
      - time: 0.68333334
        value: 0
        inSlope: 0
        outSlope: 0
        tangentMode: 10
      m_PreInfinity: 2
      m_PostInfinity: 2
      m_RotationOrder: 4
    attribute: m_LocalPosition.z
    path: "\u043A\u0443\u043B\u0430 \u043A\u043E\u0448\u043A\u0430_1"
    classID: 4
    script: {fileID: 0}
  - curve:
      serializedVersion: 2
      m_Curve:
      - time: 0
        value: 0.6550956
        inSlope: 1.8812968
        outSlope: 1.8812968
        tangentMode: 10
      - time: 0.18333334
        value: 1
        inSlope: -0.409903
        outSlope: -0.409903
        tangentMode: 10
      - time: 0.33333334
        value: 0.59483457
        inSlope: 0.00000023841858
        outSlope: 0.00000023841858
        tangentMode: 10
      - time: 0.48333332
        value: 1
        inSlope: 3.1586564
        outSlope: 3.1586564
        tangentMode: 10
      - time: 0.56666666
        value: 1.3013508
        inSlope: -0.9615605
        outSlope: -0.9615605
        tangentMode: 10
      - time: 0.68333334
        value: 0.6550956
        inSlope: -5.5393305
        outSlope: -5.5393305
        tangentMode: 10
      m_PreInfinity: 2
      m_PostInfinity: 2
      m_RotationOrder: 4
    attribute: m_LocalScale.x
    path: "\u043A\u0443\u043B\u0430 \u043A\u043E\u0448\u043A\u0430_1"
    classID: 4
    script: {fileID: 0}
  - curve:
      serializedVersion: 2
      m_Curve:
      - time: 0
        value: 1.0566714
        inSlope: -0.24122454
        outSlope: -0.24122454
        tangentMode: 10
      - time: 0.18333334
        value: 1.0124469
        inSlope: -0.22515246
        outSlope: -0.22515246
        tangentMode: 10
      - time: 0.33333334
        value: 0.9810848
        inSlope: -0.041489586
        outSlope: -0.041489586
        tangentMode: 10
      - time: 0.48333332
        value: 1
        inSlope: 0.0630506
        outSlope: 0.0630506
        tangentMode: 10
      - time: 0.56666666
        value: 1
        inSlope: 0.24287733
        outSlope: 0.24287733
        tangentMode: 10
      - time: 0.68333334
        value: 1.0566714
        inSlope: 0.48575467
        outSlope: 0.48575467
        tangentMode: 10
      m_PreInfinity: 2
      m_PostInfinity: 2
      m_RotationOrder: 4
    attribute: m_LocalScale.y
    path: "\u043A\u0443\u043B\u0430 \u043A\u043E\u0448\u043A\u0430_1"
    classID: 4
    script: {fileID: 0}
  - curve:
      serializedVersion: 2
      m_Curve:
      - time: 0
        value: 1
        inSlope: 0
        outSlope: 0
        tangentMode: 10
      - time: 0.18333334
        value: 1
        inSlope: 0
        outSlope: 0
        tangentMode: 10
      - time: 0.33333334
        value: 1
        inSlope: 0
        outSlope: 0
        tangentMode: 10
      - time: 0.48333332
        value: 1
        inSlope: 0
        outSlope: 0
        tangentMode: 10
      - time: 0.56666666
        value: 1
        inSlope: 0
        outSlope: 0
        tangentMode: 10
      - time: 0.68333334
        value: 1
        inSlope: 0
        outSlope: 0
        tangentMode: 10
      m_PreInfinity: 2
      m_PostInfinity: 2
      m_RotationOrder: 4
    attribute: m_LocalScale.z
    path: "\u043A\u0443\u043B\u0430 \u043A\u043E\u0448\u043A\u0430_1"
    classID: 4
    script: {fileID: 0}
  - curve:
      serializedVersion: 2
      m_Curve:
      - time: 0
        value: 1.0013654
        inSlope: 0
        outSlope: 0
        tangentMode: 10
      - time: 0.18333334
        value: 1.0013654
        inSlope: 0
        outSlope: 0
        tangentMode: 10
      - time: 0.33333334
        value: 1.0013654
        inSlope: 0
        outSlope: 0
        tangentMode: 10
      - time: 0.48333332
        value: 1.0013654
        inSlope: 0
        outSlope: 0
        tangentMode: 10
      - time: 0.56666666
        value: 1.0013654
        inSlope: 0
        outSlope: 0
        tangentMode: 10
      - time: 0.68333334
        value: 1.0013654
        inSlope: 0
        outSlope: 0
        tangentMode: 10
      m_PreInfinity: 2
      m_PostInfinity: 2
      m_RotationOrder: 4
    attribute: m_LocalScale.x
    path: "\u043A\u0443\u043B\u0430 \u043A\u043E\u0448\u043A\u0430_5"
    classID: 4
    script: {fileID: 0}
  - curve:
      serializedVersion: 2
      m_Curve:
      - time: 0
        value: 0.9187156
        inSlope: 0.99231845
        outSlope: 0.99231845
        tangentMode: 10
      - time: 0.18333334
        value: 1.1006407
        inSlope: 0.24694943
        outSlope: 0.24694943
        tangentMode: 10
      - time: 0.33333334
        value: 1.0258777
        inSlope: -0.3307764
        outSlope: -0.3307764
        tangentMode: 10
      - time: 0.48333332
        value: 1.0014077
        inSlope: 0.064840525
        outSlope: 0.064840525
        tangentMode: 10
      - time: 0.56666666
        value: 1.0258089
        inSlope: -0.3125643
        outSlope: -0.3125643
        tangentMode: 10
      - time: 0.68333334
        value: 0.9187156
        inSlope: -0.9179428
        outSlope: -0.9179428
        tangentMode: 10
      m_PreInfinity: 2
      m_PostInfinity: 2
      m_RotationOrder: 4
    attribute: m_LocalScale.y
    path: "\u043A\u0443\u043B\u0430 \u043A\u043E\u0448\u043A\u0430_5"
    classID: 4
    script: {fileID: 0}
  - curve:
      serializedVersion: 2
      m_Curve:
      - time: 0
        value: 1
        inSlope: 0
        outSlope: 0
        tangentMode: 10
      - time: 0.18333334
        value: 1
        inSlope: 0
        outSlope: 0
        tangentMode: 10
      - time: 0.33333334
        value: 1
        inSlope: 0
        outSlope: 0
        tangentMode: 10
      - time: 0.48333332
        value: 1
        inSlope: 0
        outSlope: 0
        tangentMode: 10
      - time: 0.56666666
        value: 1
        inSlope: 0
        outSlope: 0
        tangentMode: 10
      - time: 0.68333334
        value: 1
        inSlope: 0
        outSlope: 0
        tangentMode: 10
      m_PreInfinity: 2
      m_PostInfinity: 2
      m_RotationOrder: 4
    attribute: m_LocalScale.z
    path: "\u043A\u0443\u043B\u0430 \u043A\u043E\u0448\u043A\u0430_5"
    classID: 4
    script: {fileID: 0}
  - curve:
      serializedVersion: 2
      m_Curve:
      - time: 0
        value: 1.25
        inSlope: 0.49090925
        outSlope: 0.49090925
        tangentMode: 10
      - time: 0.18333334
        value: 1.34
        inSlope: 0.57878804
        outSlope: 0.57878804
        tangentMode: 10
      - time: 0.33333334
        value: 1.44
        inSlope: 0.2999997
        outSlope: 0.2999997
        tangentMode: 10
      - time: 0.48333332
        value: 1.43
        inSlope: -0.7533337
        outSlope: -0.7533337
        tangentMode: 10
      - time: 0.56666666
        value: 1.31
        inSlope: -0.9771426
        outSlope: -0.9771426
        tangentMode: 10
      - time: 0.68333334
        value: 1.25
        inSlope: -0.5142852
        outSlope: -0.5142852
        tangentMode: 10
      m_PreInfinity: 2
      m_PostInfinity: 2
      m_RotationOrder: 4
    attribute: m_LocalPosition.x
    path: "\u043A\u0443\u043B\u0430 \u043A\u043E\u0448\u043A\u0430_5 (1)"
    classID: 4
    script: {fileID: 0}
  - curve:
      serializedVersion: 2
      m_Curve:
      - time: 0
        value: -0.4
        inSlope: 0
        outSlope: 0
        tangentMode: 10
      - time: 0.18333334
        value: -0.4
        inSlope: 0
        outSlope: 0
        tangentMode: 10
      - time: 0.33333334
        value: -0.4
        inSlope: 0.10000002
        outSlope: 0.10000002
        tangentMode: 10
      - time: 0.48333332
        value: -0.37
        inSlope: 0.10000002
        outSlope: 0.10000002
        tangentMode: 10
      - time: 0.56666666
        value: -0.37
        inSlope: -0.12857142
        outSlope: -0.12857142
        tangentMode: 10
      - time: 0.68333334
        value: -0.4
        inSlope: -0.25714284
        outSlope: -0.25714284
        tangentMode: 10
      m_PreInfinity: 2
      m_PostInfinity: 2
      m_RotationOrder: 4
    attribute: m_LocalPosition.y
    path: "\u043A\u0443\u043B\u0430 \u043A\u043E\u0448\u043A\u0430_5 (1)"
    classID: 4
    script: {fileID: 0}
  - curve:
      serializedVersion: 2
      m_Curve:
      - time: 0
        value: 0
        inSlope: 0
        outSlope: 0
        tangentMode: 10
      - time: 0.18333334
        value: 0
        inSlope: 0
        outSlope: 0
        tangentMode: 10
      - time: 0.33333334
        value: 0
        inSlope: 0
        outSlope: 0
        tangentMode: 10
      - time: 0.48333332
        value: 0
        inSlope: 0
        outSlope: 0
        tangentMode: 10
      - time: 0.56666666
        value: 0
        inSlope: 0
        outSlope: 0
        tangentMode: 10
      - time: 0.68333334
        value: 0
        inSlope: 0
        outSlope: 0
        tangentMode: 10
      m_PreInfinity: 2
      m_PostInfinity: 2
      m_RotationOrder: 4
    attribute: m_LocalPosition.z
    path: "\u043A\u0443\u043B\u0430 \u043A\u043E\u0448\u043A\u0430_5 (1)"
    classID: 4
    script: {fileID: 0}
  - curve:
      serializedVersion: 2
      m_Curve:
      - time: 0
        value: 2.02
        inSlope: -0.21818161
        outSlope: -0.21818161
        tangentMode: 10
      - time: 0.18333334
        value: 1.98
        inSlope: -0.17575741
        outSlope: -0.17575741
        tangentMode: 10
      - time: 0.33333334
        value: 1.96
        inSlope: 0.000000007450581
        outSlope: 0.000000007450581
        tangentMode: 10
      - time: 0.48333332
        value: 1.98
        inSlope: 0.06666661
        outSlope: 0.06666661
        tangentMode: 10
      - time: 0.56666666
        value: 1.98
        inSlope: 0.1714284
        outSlope: 0.1714284
        tangentMode: 10
      - time: 0.68333334
        value: 2.02
        inSlope: 0.3428568
        outSlope: 0.3428568
        tangentMode: 10
      m_PreInfinity: 2
      m_PostInfinity: 2
      m_RotationOrder: 4
    attribute: m_LocalPosition.x
    path: "\u043A\u0443\u043B\u0430 \u043A\u043E\u0448\u043A\u0430_0"
    classID: 4
    script: {fileID: 0}
  - curve:
      serializedVersion: 2
      m_Curve:
      - time: 0
        value: 0.14
        inSlope: -0.16363637
        outSlope: -0.16363637
        tangentMode: 10
      - time: 0.18333334
        value: 0.11
        inSlope: -0.06848485
        outSlope: -0.06848485
        tangentMode: 10
      - time: 0.33333334
        value: 0.114
        inSlope: 0.06666666
        outSlope: 0.06666666
        tangentMode: 10
      - time: 0.48333332
        value: 0.13
        inSlope: 0.053333327
        outSlope: 0.053333327
        tangentMode: 10
      - time: 0.56666666
        value: 0.13
        inSlope: 0.042857163
        outSlope: 0.042857163
        tangentMode: 10
      - time: 0.68333334
        value: 0.14
        inSlope: 0.085714325
        outSlope: 0.085714325
        tangentMode: 10
      m_PreInfinity: 2
      m_PostInfinity: 2
      m_RotationOrder: 4
    attribute: m_LocalPosition.y
    path: "\u043A\u0443\u043B\u0430 \u043A\u043E\u0448\u043A\u0430_0"
    classID: 4
    script: {fileID: 0}
  - curve:
      serializedVersion: 2
      m_Curve:
      - time: 0
        value: 0
        inSlope: 0
        outSlope: 0
        tangentMode: 10
      - time: 0.18333334
        value: 0
        inSlope: 0
        outSlope: 0
        tangentMode: 10
      - time: 0.33333334
        value: 0
        inSlope: 0
        outSlope: 0
        tangentMode: 10
      - time: 0.48333332
        value: 0
        inSlope: 0
        outSlope: 0
        tangentMode: 10
      - time: 0.56666666
        value: 0
        inSlope: 0
        outSlope: 0
        tangentMode: 10
      - time: 0.68333334
        value: 0
        inSlope: 0
        outSlope: 0
        tangentMode: 10
      m_PreInfinity: 2
      m_PostInfinity: 2
      m_RotationOrder: 4
    attribute: m_LocalPosition.z
    path: "\u043A\u0443\u043B\u0430 \u043A\u043E\u0448\u043A\u0430_0"
    classID: 4
    script: {fileID: 0}
  - curve:
      serializedVersion: 2
      m_Curve:
      - time: 0
        value: 2.46
        inSlope: -0.38181782
        outSlope: -0.38181782
        tangentMode: 10
      - time: 0.18333334
        value: 2.39
        inSlope: -0.2575763
        outSlope: -0.2575763
        tangentMode: 10
      - time: 0.33333334
        value: 2.37
        inSlope: -0.06666739
        outSlope: -0.06666739
        tangentMode: 10
      - time: 0.48333332
        value: 2.37
        inSlope: 0.24000117
        outSlope: 0.24000117
        tangentMode: 10
      - time: 0.56666666
        value: 2.41
        inSlope: 0.45428666
        outSlope: 0.45428666
        tangentMode: 10
      - time: 0.68333334
        value: 2.46
        inSlope: 0.428571
        outSlope: 0.428571
        tangentMode: 10
      m_PreInfinity: 2
      m_PostInfinity: 2
      m_RotationOrder: 4
    attribute: m_LocalPosition.x
    path: "\u043A\u0443\u043B\u0430 \u043A\u043E\u0448\u043A\u0430_5"
    classID: 4
    script: {fileID: 0}
  - curve:
      serializedVersion: 2
      m_Curve:
      - time: 0
        value: -0.6692985
        inSlope: -0.112917095
        outSlope: -0.112917095
        tangentMode: 10
      - time: 0.18333334
        value: -0.69
        inSlope: -0.023125246
        outSlope: -0.023125246
        tangentMode: 10
      - time: 0.33333334
        value: -0.68
        inSlope: 0.0666666
        outSlope: 0.0666666
        tangentMode: 10
      - time: 0.48333332
        value: -0.67
        inSlope: 0.033333305
        outSlope: 0.033333305
        tangentMode: 10
      - time: 0.56666666
        value: -0.67
        inSlope: 0.0030063728
        outSlope: 0.0030063728
        tangentMode: 10
      - time: 0.68333334
        value: -0.6692985
        inSlope: 0.0060127457
        outSlope: 0.0060127457
        tangentMode: 10
      m_PreInfinity: 2
      m_PostInfinity: 2
      m_RotationOrder: 4
    attribute: m_LocalPosition.y
    path: "\u043A\u0443\u043B\u0430 \u043A\u043E\u0448\u043A\u0430_5"
    classID: 4
    script: {fileID: 0}
  - curve:
      serializedVersion: 2
      m_Curve:
      - time: 0
        value: 0
        inSlope: 0
        outSlope: 0
        tangentMode: 10
      - time: 0.18333334
        value: 0
        inSlope: 0
        outSlope: 0
        tangentMode: 10
      - time: 0.33333334
        value: 0
        inSlope: 0
        outSlope: 0
        tangentMode: 10
      - time: 0.48333332
        value: 0
        inSlope: 0
        outSlope: 0
        tangentMode: 10
      - time: 0.56666666
        value: 0
        inSlope: 0
        outSlope: 0
        tangentMode: 10
      - time: 0.68333334
        value: 0
        inSlope: 0
        outSlope: 0
        tangentMode: 10
      m_PreInfinity: 2
      m_PostInfinity: 2
      m_RotationOrder: 4
    attribute: m_LocalPosition.z
    path: "\u043A\u0443\u043B\u0430 \u043A\u043E\u0448\u043A\u0430_5"
    classID: 4
    script: {fileID: 0}
  - curve:
      serializedVersion: 2
      m_Curve:
      - time: 0
        value: -0
        inSlope: 0
        outSlope: 0
        tangentMode: 10
      - time: 0.18333334
        value: -0
        inSlope: 0
        outSlope: 0
        tangentMode: 10
      - time: 0.33333334
        value: 0
        inSlope: 0
        outSlope: 0
        tangentMode: 10
      - time: 0.48333332
        value: -0
        inSlope: 0
        outSlope: 0
        tangentMode: 10
      - time: 0.56666666
        value: 0
        inSlope: 0
        outSlope: 0
        tangentMode: 10
      - time: 0.68333334
        value: -0
        inSlope: -0
        outSlope: -0
        tangentMode: 10
      m_PreInfinity: 2
      m_PostInfinity: 2
      m_RotationOrder: 4
    attribute: localEulerAnglesRaw.x
    path: "\u043A\u0443\u043B\u0430 \u043A\u043E\u0448\u043A\u0430_0"
    classID: 4
    script: {fileID: 0}
  - curve:
      serializedVersion: 2
      m_Curve:
      - time: 0
        value: 0
        inSlope: 0
        outSlope: 0
        tangentMode: 10
      - time: 0.18333334
        value: 0
        inSlope: 0
        outSlope: 0
        tangentMode: 10
      - time: 0.33333334
        value: 0
        inSlope: 0
        outSlope: 0
        tangentMode: 10
      - time: 0.48333332
        value: 0
        inSlope: 0
        outSlope: 0
        tangentMode: 10
      - time: 0.56666666
        value: 0
        inSlope: 0
        outSlope: 0
        tangentMode: 10
      - time: 0.68333334
        value: 0
        inSlope: 0
        outSlope: 0
        tangentMode: 10
      m_PreInfinity: 2
      m_PostInfinity: 2
      m_RotationOrder: 4
    attribute: localEulerAnglesRaw.y
    path: "\u043A\u0443\u043B\u0430 \u043A\u043E\u0448\u043A\u0430_0"
    classID: 4
    script: {fileID: 0}
  - curve:
      serializedVersion: 2
      m_Curve:
      - time: 0
        value: 0.114599995
        inSlope: -0.6250909
        outSlope: -0.6250909
        tangentMode: 10
      - time: 0.18333334
        value: 0
        inSlope: 4.2407875
        outSlope: 4.2407875
        tangentMode: 10
      - time: 0.33333334
        value: 1.3659999
        inSlope: -0.0000009536743
        outSlope: -0.0000009536743
        tangentMode: 10
      - time: 0.48333332
        value: 0
        inSlope: -4.5533338
        outSlope: -4.5533338
        tangentMode: 10
      - time: 0.56666666
        value: 0
        inSlope: 0.4911428
        outSlope: 0.4911428
        tangentMode: 10
      - time: 0.68333334
        value: 0.114599995
        inSlope: 0.9822856
        outSlope: 0.9822856
        tangentMode: 10
      m_PreInfinity: 2
      m_PostInfinity: 2
      m_RotationOrder: 4
    attribute: localEulerAnglesRaw.z
    path: "\u043A\u0443\u043B\u0430 \u043A\u043E\u0448\u043A\u0430_0"
    classID: 4
    script: {fileID: 0}
  - curve:
      serializedVersion: 2
      m_Curve:
      - time: 0
        value: -0
        inSlope: 0
        outSlope: 0
        tangentMode: 10
      - time: 0.18333334
        value: -0
        inSlope: 0
        outSlope: 0
        tangentMode: 10
      - time: 0.33333334
        value: 0
        inSlope: 0
        outSlope: 0
        tangentMode: 10
      - time: 0.48333332
        value: -0
        inSlope: 0
        outSlope: 0
        tangentMode: 10
      - time: 0.56666666
        value: 0
        inSlope: 0
        outSlope: 0
        tangentMode: 10
      - time: 0.68333334
        value: -0
        inSlope: -0
        outSlope: -0
        tangentMode: 10
      m_PreInfinity: 2
      m_PostInfinity: 2
      m_RotationOrder: 4
    attribute: localEulerAnglesRaw.x
    path: "\u043A\u0443\u043B\u0430 \u043A\u043E\u0448\u043A\u0430_4"
    classID: 4
    script: {fileID: 0}
  - curve:
      serializedVersion: 2
      m_Curve:
      - time: 0
        value: 0
        inSlope: 0
        outSlope: 0
        tangentMode: 10
      - time: 0.18333334
        value: 0
        inSlope: 0
        outSlope: 0
        tangentMode: 10
      - time: 0.33333334
        value: 0
        inSlope: 0
        outSlope: 0
        tangentMode: 10
      - time: 0.48333332
        value: 0
        inSlope: 0
        outSlope: 0
        tangentMode: 10
      - time: 0.56666666
        value: 0
        inSlope: 0
        outSlope: 0
        tangentMode: 10
      - time: 0.68333334
        value: 0
        inSlope: 0
        outSlope: 0
        tangentMode: 10
      m_PreInfinity: 2
      m_PostInfinity: 2
      m_RotationOrder: 4
    attribute: localEulerAnglesRaw.y
    path: "\u043A\u0443\u043B\u0430 \u043A\u043E\u0448\u043A\u0430_4"
    classID: 4
    script: {fileID: 0}
  - curve:
      serializedVersion: 2
      m_Curve:
      - time: 0
        value: 0.114599995
        inSlope: -0.6250909
        outSlope: -0.6250909
        tangentMode: 10
      - time: 0.18333334
        value: 0
        inSlope: -0.31254545
        outSlope: -0.31254545
        tangentMode: 10
      - time: 0.33333334
        value: 0
        inSlope: 0
        outSlope: 0
        tangentMode: 10
      - time: 0.48333332
        value: 0
        inSlope: 0
        outSlope: 0
        tangentMode: 10
      - time: 0.56666666
        value: 0
        inSlope: 0.4911428
        outSlope: 0.4911428
        tangentMode: 10
      - time: 0.68333334
        value: 0.114599995
        inSlope: 0.9822856
        outSlope: 0.9822856
        tangentMode: 10
      m_PreInfinity: 2
      m_PostInfinity: 2
      m_RotationOrder: 4
    attribute: localEulerAnglesRaw.z
    path: "\u043A\u0443\u043B\u0430 \u043A\u043E\u0448\u043A\u0430_4"
    classID: 4
    script: {fileID: 0}
  - curve:
      serializedVersion: 2
      m_Curve:
      - time: 0
        value: -0
        inSlope: 0
        outSlope: 0
        tangentMode: 10
      - time: 0.18333334
        value: -0
        inSlope: 0
        outSlope: 0
        tangentMode: 10
      - time: 0.33333334
        value: 0
        inSlope: 0
        outSlope: 0
        tangentMode: 10
      - time: 0.48333332
        value: -0
        inSlope: 0
        outSlope: 0
        tangentMode: 10
      - time: 0.56666666
        value: 0
        inSlope: 0
        outSlope: 0
        tangentMode: 10
      - time: 0.68333334
        value: -0
        inSlope: -0
        outSlope: -0
        tangentMode: 10
      m_PreInfinity: 2
      m_PostInfinity: 2
      m_RotationOrder: 4
    attribute: localEulerAnglesRaw.x
    path: "\u043A\u0443\u043B\u0430 \u043A\u043E\u0448\u043A\u0430_1"
    classID: 4
    script: {fileID: 0}
  - curve:
      serializedVersion: 2
      m_Curve:
      - time: 0
        value: 0
        inSlope: 0
        outSlope: 0
        tangentMode: 10
      - time: 0.18333334
        value: 0
        inSlope: 0
        outSlope: 0
        tangentMode: 10
      - time: 0.33333334
        value: 0
        inSlope: 0
        outSlope: 0
        tangentMode: 10
      - time: 0.48333332
        value: 0
        inSlope: 0
        outSlope: 0
        tangentMode: 10
      - time: 0.56666666
        value: 0
        inSlope: 0
        outSlope: 0
        tangentMode: 10
      - time: 0.68333334
        value: 0
        inSlope: 0
        outSlope: 0
        tangentMode: 10
      m_PreInfinity: 2
      m_PostInfinity: 2
      m_RotationOrder: 4
    attribute: localEulerAnglesRaw.y
    path: "\u043A\u0443\u043B\u0430 \u043A\u043E\u0448\u043A\u0430_1"
    classID: 4
    script: {fileID: 0}
  - curve:
      serializedVersion: 2
      m_Curve:
      - time: 0
        value: 0.114599995
        inSlope: -0.6250909
        outSlope: -0.6250909
        tangentMode: 10
      - time: 0.18333334
        value: 0
        inSlope: -0.31254545
        outSlope: -0.31254545
        tangentMode: 10
      - time: 0.33333334
        value: 0
        inSlope: 0
        outSlope: 0
        tangentMode: 10
      - time: 0.48333332
        value: 0
        inSlope: 0
        outSlope: 0
        tangentMode: 10
      - time: 0.56666666
        value: 0
        inSlope: 0.4911428
        outSlope: 0.4911428
        tangentMode: 10
      - time: 0.68333334
        value: 0.114599995
        inSlope: 0.9822856
        outSlope: 0.9822856
        tangentMode: 10
      m_PreInfinity: 2
      m_PostInfinity: 2
      m_RotationOrder: 4
    attribute: localEulerAnglesRaw.z
    path: "\u043A\u0443\u043B\u0430 \u043A\u043E\u0448\u043A\u0430_1"
    classID: 4
    script: {fileID: 0}
  - curve:
      serializedVersion: 2
      m_Curve:
      - time: 0
        value: -0
        inSlope: 0
        outSlope: 0
        tangentMode: 10
      - time: 0.18333334
        value: -0
        inSlope: 0
        outSlope: 0
        tangentMode: 10
      - time: 0.33333334
        value: -0
        inSlope: 0
        outSlope: 0
        tangentMode: 10
      - time: 0.48333332
        value: -0
        inSlope: 0
        outSlope: 0
        tangentMode: 10
      - time: 0.56666666
        value: -0
        inSlope: 0
        outSlope: 0
        tangentMode: 10
      - time: 0.68333334
        value: -0
        inSlope: 0
        outSlope: 0
        tangentMode: 10
      m_PreInfinity: 2
      m_PostInfinity: 2
      m_RotationOrder: 4
    attribute: localEulerAnglesRaw.x
    path: "\u043A\u0443\u043B\u0430 \u043A\u043E\u0448\u043A\u0430_5"
    classID: 4
    script: {fileID: 0}
  - curve:
      serializedVersion: 2
      m_Curve:
      - time: 0
        value: 0
        inSlope: 0
        outSlope: 0
        tangentMode: 10
      - time: 0.18333334
        value: 0
        inSlope: 0
        outSlope: 0
        tangentMode: 10
      - time: 0.33333334
        value: 0
        inSlope: 0
        outSlope: 0
        tangentMode: 10
      - time: 0.48333332
        value: 0
        inSlope: 0
        outSlope: 0
        tangentMode: 10
      - time: 0.56666666
        value: 0
        inSlope: 0
        outSlope: 0
        tangentMode: 10
      - time: 0.68333334
        value: 0
        inSlope: 0
        outSlope: 0
        tangentMode: 10
      m_PreInfinity: 2
      m_PostInfinity: 2
      m_RotationOrder: 4
    attribute: localEulerAnglesRaw.y
    path: "\u043A\u0443\u043B\u0430 \u043A\u043E\u0448\u043A\u0430_5"
    classID: 4
    script: {fileID: 0}
  - curve:
      serializedVersion: 2
      m_Curve:
      - time: 0
        value: 9.6538
        inSlope: 0
        outSlope: 0
        tangentMode: 10
      - time: 0.18333334
        value: 9.6538
        inSlope: 0
        outSlope: 0
        tangentMode: 10
      - time: 0.33333334
        value: 9.6538
        inSlope: 0
        outSlope: 0
        tangentMode: 10
      - time: 0.48333332
        value: 9.6538
        inSlope: 0
        outSlope: 0
        tangentMode: 10
      - time: 0.56666666
        value: 9.6538
        inSlope: 0
        outSlope: 0
        tangentMode: 10
      - time: 0.68333334
        value: 9.6538
        inSlope: 0
        outSlope: 0
        tangentMode: 10
      m_PreInfinity: 2
      m_PostInfinity: 2
      m_RotationOrder: 4
    attribute: localEulerAnglesRaw.z
    path: "\u043A\u0443\u043B\u0430 \u043A\u043E\u0448\u043A\u0430_5"
    classID: 4
    script: {fileID: 0}
  m_EulerEditorCurves:
  - curve:
      serializedVersion: 2
      m_Curve: []
      m_PreInfinity: 2
      m_PostInfinity: 2
      m_RotationOrder: 4
    attribute: m_LocalEulerAngles.z
    path: "\u043A\u0443\u043B\u0430 \u043A\u043E\u0448\u043A\u0430_5"
    classID: 4
    script: {fileID: 0}
  - curve:
      serializedVersion: 2
      m_Curve: []
      m_PreInfinity: 2
      m_PostInfinity: 2
      m_RotationOrder: 4
    attribute: m_LocalEulerAngles.y
    path: "\u043A\u0443\u043B\u0430 \u043A\u043E\u0448\u043A\u0430_5"
    classID: 4
    script: {fileID: 0}
  - curve:
      serializedVersion: 2
      m_Curve: []
      m_PreInfinity: 2
      m_PostInfinity: 2
      m_RotationOrder: 4
    attribute: m_LocalEulerAngles.x
    path: "\u043A\u0443\u043B\u0430 \u043A\u043E\u0448\u043A\u0430_5"
    classID: 4
    script: {fileID: 0}
  - curve:
      serializedVersion: 2
      m_Curve: []
      m_PreInfinity: 2
      m_PostInfinity: 2
      m_RotationOrder: 4
    attribute: m_LocalEulerAngles.z
    path: "\u043A\u0443\u043B\u0430 \u043A\u043E\u0448\u043A\u0430_4"
    classID: 4
    script: {fileID: 0}
  - curve:
      serializedVersion: 2
      m_Curve: []
      m_PreInfinity: 2
      m_PostInfinity: 2
      m_RotationOrder: 4
    attribute: m_LocalEulerAngles.y
    path: "\u043A\u0443\u043B\u0430 \u043A\u043E\u0448\u043A\u0430_4"
    classID: 4
    script: {fileID: 0}
  - curve:
      serializedVersion: 2
      m_Curve: []
      m_PreInfinity: 2
      m_PostInfinity: 2
      m_RotationOrder: 4
    attribute: m_LocalEulerAngles.x
    path: "\u043A\u0443\u043B\u0430 \u043A\u043E\u0448\u043A\u0430_4"
    classID: 4
    script: {fileID: 0}
  - curve:
      serializedVersion: 2
      m_Curve: []
      m_PreInfinity: 2
      m_PostInfinity: 2
      m_RotationOrder: 4
    attribute: m_LocalEulerAngles.z
    path: "\u043A\u0443\u043B\u0430 \u043A\u043E\u0448\u043A\u0430_0"
    classID: 4
    script: {fileID: 0}
  - curve:
      serializedVersion: 2
      m_Curve: []
      m_PreInfinity: 2
      m_PostInfinity: 2
      m_RotationOrder: 4
    attribute: m_LocalEulerAngles.y
    path: "\u043A\u0443\u043B\u0430 \u043A\u043E\u0448\u043A\u0430_0"
    classID: 4
    script: {fileID: 0}
  - curve:
      serializedVersion: 2
      m_Curve: []
      m_PreInfinity: 2
      m_PostInfinity: 2
      m_RotationOrder: 4
    attribute: m_LocalEulerAngles.x
    path: "\u043A\u0443\u043B\u0430 \u043A\u043E\u0448\u043A\u0430_0"
    classID: 4
    script: {fileID: 0}
  - curve:
      serializedVersion: 2
      m_Curve: []
      m_PreInfinity: 2
      m_PostInfinity: 2
      m_RotationOrder: 4
    attribute: m_LocalEulerAngles.z
    path: "\u043A\u0443\u043B\u0430 \u043A\u043E\u0448\u043A\u0430_1"
    classID: 4
    script: {fileID: 0}
  - curve:
      serializedVersion: 2
      m_Curve: []
      m_PreInfinity: 2
      m_PostInfinity: 2
      m_RotationOrder: 4
    attribute: m_LocalEulerAngles.y
    path: "\u043A\u0443\u043B\u0430 \u043A\u043E\u0448\u043A\u0430_1"
    classID: 4
    script: {fileID: 0}
  - curve:
      serializedVersion: 2
      m_Curve: []
      m_PreInfinity: 2
      m_PostInfinity: 2
      m_RotationOrder: 4
    attribute: m_LocalEulerAngles.x
    path: "\u043A\u0443\u043B\u0430 \u043A\u043E\u0448\u043A\u0430_1"
    classID: 4
    script: {fileID: 0}
  m_HasGenericRootTransform: 0
  m_HasMotionFloatCurves: 0
  m_GenerateMotionCurves: 0
  m_Events: []
