%YAML 1.1
%TAG !u! tag:unity3d.com,2011:
--- !u!74 &7400000
AnimationClip:
  m_ObjectHideFlags: 0
  m_PrefabParentObject: {fileID: 0}
  m_PrefabInternal: {fileID: 0}
  m_Name: traped
  serializedVersion: 6
  m_Legacy: 0
  m_Compressed: 0
  m_UseHighQualityCurve: 1
  m_RotationCurves: []
  m_CompressedRotationCurves: []
  m_EulerCurves:
  - curve:
      serializedVersion: 2
      m_Curve:
      - time: 0
        value: {x: 0, y: 0, z: 0}
        inSlope: {x: 0, y: 0, z: -46.288494}
        outSlope: {x: 0, y: 0, z: -46.288494}
        tangentMode: 0
      - time: 0.06666667
        value: {x: 0, y: 0, z: -3.0858998}
        inSlope: {x: 0, y: 0, z: 27.772348}
        outSlope: {x: 0, y: 0, z: 27.772348}
        tangentMode: 0
      - time: 0.15
        value: {x: 0, y: 0, z: 5.4002}
        inSlope: {x: 0, y: 0, z: 27.772882}
        outSlope: {x: 0, y: 0, z: 27.772882}
        tangentMode: 0
      - time: 0.26666668
        value: {x: 0, y: 0, z: 0}
        inSlope: {x: 0, y: 0, z: -46.287426}
        outSlope: {x: 0, y: 0, z: -46.287426}
        tangentMode: 0
      m_PreInfinity: 2
      m_PostInfinity: 2
      m_RotationOrder: 4
    path: akula_BLUE1_2
  - curve:
      serializedVersion: 2
      m_Curve:
      - time: 0
        value: {x: 0, y: 0, z: -150.83119}
        inSlope: {x: 0, y: 0, z: -270.52664}
        outSlope: {x: 0, y: 0, z: -270.52664}
        tangentMode: 0
      - time: 0.06666667
        value: {x: 0, y: 0, z: -168.8663}
        inSlope: {x: 0, y: 0, z: -135.26332}
        outSlope: {x: 0, y: 0, z: -135.26332}
        tangentMode: 0
      - time: 0.15
        value: {x: 0, y: 0, z: -168.8663}
        inSlope: {x: 0, y: 0, z: 77.29333}
        outSlope: {x: 0, y: 0, z: 77.29333}
        tangentMode: 0
      - time: 0.26666668
        value: {x: 0, y: 0, z: -150.83119}
        inSlope: {x: 0, y: 0, z: 154.58665}
        outSlope: {x: 0, y: 0, z: 154.58665}
        tangentMode: 0
      m_PreInfinity: 2
      m_PostInfinity: 2
      m_RotationOrder: 4
    path: akula_BLUE1_3 (1)
  - curve:
      serializedVersion: 2
      m_Curve:
      - time: 0
        value: {x: 0, y: 0, z: -57.309097}
        inSlope: {x: 0, y: 0, z: 107.7}
        outSlope: {x: 0, y: 0, z: 107.7}
        tangentMode: 0
      - time: 0.06666667
        value: {x: 0, y: 0, z: -50.129097}
        inSlope: {x: 0, y: 0, z: 256.7034}
        outSlope: {x: 0, y: 0, z: 256.7034}
        tangentMode: 0
      - time: 0.15
        value: {x: 0, y: 0, z: -16.3202}
        inSlope: {x: 0, y: 0, z: 27.186691}
        outSlope: {x: 0, y: 0, z: 27.186691}
        tangentMode: 0
      - time: 0.26666668
        value: {x: 0, y: 0, z: -57.309097}
        inSlope: {x: 0, y: 0, z: -351.3334}
        outSlope: {x: 0, y: 0, z: -351.3334}
        tangentMode: 0
      m_PreInfinity: 2
      m_PostInfinity: 2
      m_RotationOrder: 4
    path: akula_BLUE1_3
  - curve:
      serializedVersion: 2
      m_Curve:
      - time: 0
        value: {x: 0, y: 0, z: 0}
        inSlope: {x: 0, y: 0, z: -164.62648}
        outSlope: {x: 0, y: 0, z: -164.62648}
        tangentMode: 0
      - time: 0.06666667
        value: {x: 0, y: 0, z: -10.9751}
        inSlope: {x: 0, y: 0, z: 58.578148}
        outSlope: {x: 0, y: 0, z: 58.578148}
        tangentMode: 0
      - time: 0.15
        value: {x: 0, y: 0, z: 12.5068}
        inSlope: {x: 0, y: 0, z: 87.29082}
        outSlope: {x: 0, y: 0, z: 87.29082}
        tangentMode: 0
      - time: 0.26666668
        value: {x: 0, y: 0, z: 0}
        inSlope: {x: 0, y: 0, z: -107.20113}
        outSlope: {x: 0, y: 0, z: -107.20113}
        tangentMode: 0
      m_PreInfinity: 2
      m_PostInfinity: 2
      m_RotationOrder: 4
    path: akula_BLUE1_4
  - curve:
      serializedVersion: 2
      m_Curve:
      - time: 0
        value: {x: 0, y: 0, z: -1.3577}
        inSlope: {x: 0, y: 0, z: 146.769}
        outSlope: {x: 0, y: 0, z: 146.769}
        tangentMode: 0
      - time: 0.06666667
        value: {x: 0, y: 0, z: 8.4269}
        inSlope: {x: 0, y: 0, z: -12.904503}
        outSlope: {x: 0, y: 0, z: -12.904503}
        tangentMode: 0
      - time: 0.15
        value: {x: 0, y: 0, z: -5.9546}
        inSlope: {x: 0, y: 0, z: -60.769287}
        outSlope: {x: 0, y: 0, z: -60.769287}
        tangentMode: 0
      - time: 0.26666668
        value: {x: 0, y: 0, z: 0}
        inSlope: {x: 0, y: 0, z: 51.039425}
        outSlope: {x: 0, y: 0, z: 51.039425}
        tangentMode: 0
      m_PreInfinity: 2
      m_PostInfinity: 2
      m_RotationOrder: 4
    path: akula_BLUE1_5
  - curve:
      serializedVersion: 2
      m_Curve:
      - time: 0
        value: {x: 0, y: 0, z: 0}
        inSlope: {x: 0, y: 0, z: 5.8279996}
        outSlope: {x: 0, y: 0, z: 5.8279996}
        tangentMode: 0
      - time: 0.05
        value: {x: 0, y: 0, z: 0.2914}
        inSlope: {x: 0, y: 0, z: 570.4179}
        outSlope: {x: 0, y: 0, z: 570.4179}
        tangentMode: 0
      - time: 0.06666667
        value: {x: 0, y: 0, z: 19.2082}
        inSlope: {x: 0, y: 0, z: 377.9735}
        outSlope: {x: 0, y: 0, z: 377.9735}
        tangentMode: 0
      - time: 0.15
        value: {x: 0, y: 0, z: -12.380199}
        inSlope: {x: 0, y: 0, z: -658.62537}
        outSlope: {x: 0, y: 0, z: -658.62537}
        tangentMode: 0
      - time: 0.16666667
        value: {x: 0, y: 0, z: -28.016699}
        inSlope: {x: 0, y: 0, z: -329.01154}
        outSlope: {x: 0, y: 0, z: -329.01154}
        tangentMode: 0
      - time: 0.26666668
        value: {x: 0, y: 0, z: 0}
        inSlope: {x: 0, y: 0, z: 280.16696}
        outSlope: {x: 0, y: 0, z: 280.16696}
        tangentMode: 0
      m_PreInfinity: 2
      m_PostInfinity: 2
      m_RotationOrder: 4
    path: akula_BLUE1_6
  m_PositionCurves:
  - curve:
      serializedVersion: 2
      m_Curve:
      - time: 0
        value: {x: 3.24, y: 0.46, z: 0}
        inSlope: {x: -0.79999924, y: -6.6000004, z: 0}
        outSlope: {x: -0.79999924, y: -6.6000004, z: 0}
        tangentMode: 0
      - time: 0.05
        value: {x: 3.2, y: 0.13, z: 0}
        inSlope: {x: -5.8000007, y: -4.7999997, z: 0}
        outSlope: {x: -5.8000007, y: -4.7999997, z: 0}
        tangentMode: 0
      - time: 0.06666667
        value: {x: 3.02, y: 0.08, z: 0}
        inSlope: {x: -4.8000016, y: -1.9199996, z: 0}
        outSlope: {x: -4.8000016, y: -1.9199996, z: 0}
        tangentMode: 0
      - time: 0.15
        value: {x: 3.12, y: 0.01, z: 0}
        inSlope: {x: -0.08571416, y: -0.24857143, z: 0}
        outSlope: {x: -0.08571416, y: -0.24857143, z: 0}
        tangentMode: 0
      - time: 0.26666668
        value: {x: 2.96, y: 0.05, z: 0}
        inSlope: {x: -1.3714272, y: 0.34285712, z: 0}
        outSlope: {x: -1.3714272, y: 0.34285712, z: 0}
        tangentMode: 0
      m_PreInfinity: 2
      m_PostInfinity: 2
      m_RotationOrder: 4
    path: akula_BLUE1_2
  - curve:
      serializedVersion: 2
      m_Curve:
      - time: 0
        value: {x: 2.05, y: -0.59, z: 0}
        inSlope: {x: 0.0000035762785, y: -0.0000026822088, z: 0}
        outSlope: {x: 0.0000035762785, y: -0.0000026822088, z: 0}
        tangentMode: 0
      - time: 0.06666667
        value: {x: 2.0500002, y: -0.59000015, z: 0}
        inSlope: {x: 0.0000017881392, y: -0.0000013411044, z: 0}
        outSlope: {x: 0.0000017881392, y: -0.0000013411044, z: 0}
        tangentMode: 0
      - time: 0.15
        value: {x: 2.0500002, y: -0.59000015, z: 0}
        inSlope: {x: -0.0000010217939, y: 0.0000007663454, z: 0}
        outSlope: {x: -0.0000010217939, y: 0.0000007663454, z: 0}
        tangentMode: 0
      - time: 0.26666668
        value: {x: 2.05, y: -0.59, z: 0}
        inSlope: {x: -0.0000020435878, y: 0.0000015326908, z: 0}
        outSlope: {x: -0.0000020435878, y: 0.0000015326908, z: 0}
        tangentMode: 0
      m_PreInfinity: 2
      m_PostInfinity: 2
      m_RotationOrder: 4
    path: akula_BLUE1_3 (1)
  - curve:
      serializedVersion: 2
      m_Curve:
      - time: 0
        value: {x: 2.75, y: -0.75, z: 0}
        inSlope: {x: 0, y: 0.15000342, z: 0}
        outSlope: {x: 0, y: 0.15000342, z: 0}
        tangentMode: 0
      - time: 0.06666667
        value: {x: 2.75, y: -0.7399998, z: 0}
        inSlope: {x: 1.3800001, y: 0.13500023, z: 0}
        outSlope: {x: 1.3800001, y: 0.13500023, z: 0}
        tangentMode: 0
      - time: 0.15
        value: {x: 2.98, y: -0.73, z: 0}
        inSlope: {x: 0.3942858, y: -0.025715686, z: 0}
        outSlope: {x: 0.3942858, y: -0.025715686, z: 0}
        tangentMode: 0
      - time: 0.26666668
        value: {x: 2.75, y: -0.75, z: 0}
        inSlope: {x: -1.9714286, y: -0.1714284, z: 0}
        outSlope: {x: -1.9714286, y: -0.1714284, z: 0}
        tangentMode: 0
      m_PreInfinity: 2
      m_PostInfinity: 2
      m_RotationOrder: 4
    path: akula_BLUE1_3
  - curve:
      serializedVersion: 2
      m_Curve:
      - time: 0
        value: {x: 1.59, y: 0.34, z: 0}
        inSlope: {x: -1.9499998, y: -2.7, z: 0}
        outSlope: {x: -1.9499998, y: -2.7, z: 0}
        tangentMode: 0
      - time: 0.06666667
        value: {x: 1.46, y: 0.16, z: 0}
        inSlope: {x: 0.044999838, y: -4.35, z: 0}
        outSlope: {x: 0.044999838, y: -4.35, z: 0}
        tangentMode: 0
      - time: 0.15
        value: {x: 1.63, y: -0.34, z: 0}
        inSlope: {x: -0.2657143, y: -1.8000001, z: 0}
        outSlope: {x: -0.2657143, y: -1.8000001, z: 0}
        tangentMode: 0
      - time: 0.26666668
        value: {x: 1.33, y: -0.06, z: 0}
        inSlope: {x: -2.571428, y: 2.3999999, z: 0}
        outSlope: {x: -2.571428, y: 2.3999999, z: 0}
        tangentMode: 0
      m_PreInfinity: 2
      m_PostInfinity: 2
      m_RotationOrder: 4
    path: akula_BLUE1_4
  - curve:
      serializedVersion: 2
      m_Curve:
      - time: 0
        value: {x: 4.12, y: 0.32, z: 0}
        inSlope: {x: -3.9999962, y: -6.5999994, z: 0}
        outSlope: {x: -3.9999962, y: -6.5999994, z: 0}
        tangentMode: 0
      - time: 0.05
        value: {x: 3.92, y: -0.01, z: 0}
        inSlope: {x: -7.699999, y: -3.8999996, z: 0}
        outSlope: {x: -7.699999, y: -3.8999996, z: 0}
        tangentMode: 0
      - time: 0.06666667
        value: {x: 3.73, y: -0.03, z: 0}
        inSlope: {x: -4.6200004, y: -1.0199999, z: 0}
        outSlope: {x: -4.6200004, y: -1.0199999, z: 0}
        tangentMode: 0
      - time: 0.15
        value: {x: 3.91, y: -0.1, z: 0}
        inSlope: {x: 1.3800001, y: 0.4800001, z: 0}
        outSlope: {x: 1.3800001, y: 0.4800001, z: 0}
        tangentMode: 0
      - time: 0.16666667
        value: {x: 3.92, y: -0.07, z: 0}
        inSlope: {x: -0.10000104, y: 0.7500001, z: 0}
        outSlope: {x: -0.10000104, y: 0.7500001, z: 0}
        tangentMode: 0
      - time: 0.26666668
        value: {x: 3.84, y: -0.1, z: 0}
        inSlope: {x: -0.80000156, y: -0.29999998, z: 0}
        outSlope: {x: -0.80000156, y: -0.29999998, z: 0}
        tangentMode: 0
      m_PreInfinity: 2
      m_PostInfinity: 2
      m_RotationOrder: 4
    path: akula_BLUE1_5
  - curve:
      serializedVersion: 2
      m_Curve:
      - time: 0
        value: {x: 6.94, y: 0.03, z: 0}
        inSlope: {x: 0.79999924, y: 1.9999999, z: 0}
        outSlope: {x: 0.79999924, y: 1.9999999, z: 0}
        tangentMode: 0
      - time: 0.05
        value: {x: 6.98, y: 0.13, z: 0}
        inSlope: {x: -7.099999, y: 5.2, z: 0}
        outSlope: {x: -7.099999, y: 5.2, z: 0}
        tangentMode: 0
      - time: 0.06666667
        value: {x: 6.73, y: 0.27, z: 0}
        inSlope: {x: -7.3199973, y: -1.0799999, z: 0}
        outSlope: {x: -7.3199973, y: -1.0799999, z: 0}
        tangentMode: 0
      - time: 0.15
        value: {x: 6.76, y: -0.61, z: 0}
        inSlope: {x: -2.5200036, y: -5.879999, z: 0}
        outSlope: {x: -2.5200036, y: -5.879999, z: 0}
        tangentMode: 0
      - time: 0.16666667
        value: {x: 6.67, y: -0.63, z: 0}
        inSlope: {x: -2.9000046, y: 1.2000003, z: 0}
        outSlope: {x: -2.9000046, y: 1.2000003, z: 0}
        tangentMode: 0
      - time: 0.26666668
        value: {x: 6.63, y: -0.27, z: 0}
        inSlope: {x: -0.3999996, y: 3.5999994, z: 0}
        outSlope: {x: -0.3999996, y: 3.5999994, z: 0}
        tangentMode: 0
      m_PreInfinity: 2
      m_PostInfinity: 2
      m_RotationOrder: 4
    path: akula_BLUE1_6
  m_ScaleCurves:
  - curve:
      serializedVersion: 2
      m_Curve:
      - time: 0
        value: {x: 1, y: 1, z: 1}
        inSlope: {x: 0, y: 0, z: 0}
        outSlope: {x: 0, y: 0, z: 0}
        tangentMode: 0
      - time: 0.06666667
        value: {x: 1, y: 1, z: 1}
        inSlope: {x: 0, y: 0.092731476, z: 0}
        outSlope: {x: 0, y: 0.092731476, z: 0}
        tangentMode: 0
      - time: 0.15
        value: {x: 1, y: 1.0154552, z: 1}
        inSlope: {x: 0, y: 0.026494712, z: 0}
        outSlope: {x: 0, y: 0.026494712, z: 0}
        tangentMode: 0
      - time: 0.26666668
        value: {x: 1, y: 1, z: 1}
        inSlope: {x: 0, y: -0.13247353, z: 0}
        outSlope: {x: 0, y: -0.13247353, z: 0}
        tangentMode: 0
      m_PreInfinity: 2
      m_PostInfinity: 2
      m_RotationOrder: 4
    path: akula_BLUE1_2
  - curve:
      serializedVersion: 2
      m_Curve:
      - time: 0
        value: {x: 1.1218846, y: 0.46308652, z: 1}
        inSlope: {x: 0, y: 0, z: 0}
        outSlope: {x: 0, y: 0, z: 0}
        tangentMode: 0
      - time: 0.06666667
        value: {x: 1.1218846, y: 0.46308652, z: 1}
        inSlope: {x: 0, y: 0, z: 0}
        outSlope: {x: 0, y: 0, z: 0}
        tangentMode: 0
      - time: 0.15
        value: {x: 1.1218846, y: 0.46308652, z: 1}
        inSlope: {x: 0, y: 0, z: 0}
        outSlope: {x: 0, y: 0, z: 0}
        tangentMode: 0
      - time: 0.26666668
        value: {x: 1.1218846, y: 0.46308652, z: 1}
        inSlope: {x: 0, y: 0, z: 0}
        outSlope: {x: 0, y: 0, z: 0}
        tangentMode: 0
      m_PreInfinity: 2
      m_PostInfinity: 2
      m_RotationOrder: 4
    path: akula_BLUE1_3 (1)
  - curve:
      serializedVersion: 2
      m_Curve:
      - time: 0
        value: {x: 1.1218846, y: 0.8203156, z: 1}
        inSlope: {x: 0, y: 0, z: 0}
        outSlope: {x: 0, y: 0, z: 0}
        tangentMode: 0
      - time: 0.06666667
        value: {x: 1.1218846, y: 0.8203156, z: 1}
        inSlope: {x: 0, y: 0, z: 0}
        outSlope: {x: 0, y: 0, z: 0}
        tangentMode: 0
      - time: 0.15
        value: {x: 1.1218846, y: 0.8203156, z: 1}
        inSlope: {x: 0, y: 0, z: 0}
        outSlope: {x: 0, y: 0, z: 0}
        tangentMode: 0
      - time: 0.26666668
        value: {x: 1.1218846, y: 0.8203156, z: 1}
        inSlope: {x: 0, y: 0, z: 0}
        outSlope: {x: 0, y: 0, z: 0}
        tangentMode: 0
      m_PreInfinity: 2
      m_PostInfinity: 2
      m_RotationOrder: 4
    path: akula_BLUE1_3
  - curve:
      serializedVersion: 2
      m_Curve:
      - time: 0
        value: {x: 1, y: 1, z: 1}
        inSlope: {x: 0, y: 0, z: 0}
        outSlope: {x: 0, y: 0, z: 0}
        tangentMode: 0
      - time: 0.06666667
        value: {x: 1, y: 1, z: 1}
        inSlope: {x: 0, y: 0, z: 0}
        outSlope: {x: 0, y: 0, z: 0}
        tangentMode: 0
      - time: 0.15
        value: {x: 1, y: 1, z: 1}
        inSlope: {x: 0, y: 0, z: 0}
        outSlope: {x: 0, y: 0, z: 0}
        tangentMode: 0
      - time: 0.26666668
        value: {x: 1, y: 1, z: 1}
        inSlope: {x: 0, y: 0, z: 0}
        outSlope: {x: 0, y: 0, z: 0}
        tangentMode: 0
      m_PreInfinity: 2
      m_PostInfinity: 2
      m_RotationOrder: 4
    path: akula_BLUE1_4
  - curve:
      serializedVersion: 2
      m_Curve:
      - time: 0
        value: {x: 1, y: 0.9713082, z: 1}
        inSlope: {x: 1.6679763, y: 0, z: 0}
        outSlope: {x: 1.6679763, y: 0, z: 0}
        tangentMode: 0
      - time: 0.06666667
        value: {x: 1.1111984, y: 0.9713082, z: 1}
        inSlope: {x: 0.46512574, y: 0, z: 0}
        outSlope: {x: 0.46512574, y: 0, z: 0}
        tangentMode: 0
      - time: 0.15
        value: {x: 1.0497214, y: 0.9713082, z: 1}
        inSlope: {x: -0.5819539, y: 0, z: 0}
        outSlope: {x: -0.5819539, y: 0, z: 0}
        tangentMode: 0
      - time: 0.26666668
        value: {x: 1, y: 0.9713082, z: 1}
        inSlope: {x: -0.42618304, y: 0, z: 0}
        outSlope: {x: -0.42618304, y: 0, z: 0}
        tangentMode: 0
      m_PreInfinity: 2
      m_PostInfinity: 2
      m_RotationOrder: 4
    path: akula_BLUE1_5
  - curve:
      serializedVersion: 2
      m_Curve:
      - time: 0
        value: {x: 1, y: 1, z: 1}
        inSlope: {x: 0, y: 0, z: 0}
        outSlope: {x: 0, y: 0, z: 0}
        tangentMode: 0
      - time: 0.06666667
        value: {x: 1, y: 1, z: 1}
        inSlope: {x: 0, y: 0, z: 0}
        outSlope: {x: 0, y: 0, z: 0}
        tangentMode: 0
      - time: 0.15
        value: {x: 1, y: 1, z: 1}
        inSlope: {x: 0, y: 0, z: 0}
        outSlope: {x: 0, y: 0, z: 0}
        tangentMode: 0
      - time: 0.26666668
        value: {x: 1, y: 1, z: 1}
        inSlope: {x: 0, y: 0, z: 0}
        outSlope: {x: 0, y: 0, z: 0}
        tangentMode: 0
      m_PreInfinity: 2
      m_PostInfinity: 2
      m_RotationOrder: 4
    path: akula_BLUE1_6
  m_FloatCurves: []
  m_PPtrCurves: []
  m_SampleRate: 60
  m_WrapMode: 0
  m_Bounds:
    m_Center: {x: 0, y: 0, z: 0}
    m_Extent: {x: 0, y: 0, z: 0}
  m_ClipBindingConstant:
    genericBindings:
    - path: 554384082
      attribute: 1
      script: {fileID: 0}
      classID: 4
      customType: 0
      isPPtrCurve: 0
    - path: 77269461
      attribute: 1
      script: {fileID: 0}
      classID: 4
      customType: 0
      isPPtrCurve: 0
    - path: 1443629636
      attribute: 1
      script: {fileID: 0}
      classID: 4
      customType: 0
      isPPtrCurve: 0
    - path: 3362299879
      attribute: 1
      script: {fileID: 0}
      classID: 4
      customType: 0
      isPPtrCurve: 0
    - path: 3211767665
      attribute: 1
      script: {fileID: 0}
      classID: 4
      customType: 0
      isPPtrCurve: 0
    - path: 644284107
      attribute: 1
      script: {fileID: 0}
      classID: 4
      customType: 0
      isPPtrCurve: 0
    - path: 554384082
      attribute: 4
      script: {fileID: 0}
      classID: 4
      customType: 14
      isPPtrCurve: 0
    - path: 77269461
      attribute: 4
      script: {fileID: 0}
      classID: 4
      customType: 14
      isPPtrCurve: 0
    - path: 1443629636
      attribute: 4
      script: {fileID: 0}
      classID: 4
      customType: 14
      isPPtrCurve: 0
    - path: 3362299879
      attribute: 4
      script: {fileID: 0}
      classID: 4
      customType: 14
      isPPtrCurve: 0
    - path: 3211767665
      attribute: 4
      script: {fileID: 0}
      classID: 4
      customType: 14
      isPPtrCurve: 0
    - path: 644284107
      attribute: 4
      script: {fileID: 0}
      classID: 4
      customType: 14
      isPPtrCurve: 0
    - path: 554384082
      attribute: 3
      script: {fileID: 0}
      classID: 4
      customType: 0
      isPPtrCurve: 0
    - path: 3211767665
      attribute: 3
      script: {fileID: 0}
      classID: 4
      customType: 0
      isPPtrCurve: 0
    - path: 77269461
      attribute: 3
      script: {fileID: 0}
      classID: 4
      customType: 0
      isPPtrCurve: 0
    - path: 1443629636
      attribute: 3
      script: {fileID: 0}
      classID: 4
      customType: 0
      isPPtrCurve: 0
    - path: 3362299879
      attribute: 3
      script: {fileID: 0}
      classID: 4
      customType: 0
      isPPtrCurve: 0
    - path: 644284107
      attribute: 3
      script: {fileID: 0}
      classID: 4
      customType: 0
      isPPtrCurve: 0
    pptrCurveMapping: []
  m_AnimationClipSettings:
    serializedVersion: 2
    m_AdditiveReferencePoseClip: {fileID: 0}
    m_AdditiveReferencePoseTime: 0
    m_StartTime: 0
    m_StopTime: 0.26666668
    m_OrientationOffsetY: 0
    m_Level: 0
    m_CycleOffset: 0
    m_HasAdditiveReferencePose: 0
    m_LoopTime: 1
    m_LoopBlend: 0
    m_LoopBlendOrientation: 0
    m_LoopBlendPositionY: 0
    m_LoopBlendPositionXZ: 0
    m_KeepOriginalOrientation: 0
    m_KeepOriginalPositionY: 1
    m_KeepOriginalPositionXZ: 0
    m_HeightFromFeet: 0
    m_Mirror: 0
  m_EditorCurves:
  - curve:
      serializedVersion: 2
      m_Curve:
      - time: 0
        value: 3.24
        inSlope: -0.79999924
        outSlope: -0.79999924
        tangentMode: 10
      - time: 0.05
        value: 3.2
        inSlope: -5.8000007
        outSlope: -5.8000007
        tangentMode: 10
      - time: 0.06666667
        value: 3.02
        inSlope: -4.8000016
        outSlope: -4.8000016
        tangentMode: 10
      - time: 0.15
        value: 3.12
        inSlope: -0.08571416
        outSlope: -0.08571416
        tangentMode: 10
      - time: 0.26666668
        value: 2.96
        inSlope: -1.3714272
        outSlope: -1.3714272
        tangentMode: 10
      m_PreInfinity: 2
      m_PostInfinity: 2
      m_RotationOrder: 4
    attribute: m_LocalPosition.x
    path: akula_BLUE1_2
    classID: 4
    script: {fileID: 0}
  - curve:
      serializedVersion: 2
      m_Curve:
      - time: 0
        value: 0.46
        inSlope: -6.6000004
        outSlope: -6.6000004
        tangentMode: 10
      - time: 0.05
        value: 0.13
        inSlope: -4.7999997
        outSlope: -4.7999997
        tangentMode: 10
      - time: 0.06666667
        value: 0.08
        inSlope: -1.9199996
        outSlope: -1.9199996
        tangentMode: 10
      - time: 0.15
        value: 0.01
        inSlope: -0.24857143
        outSlope: -0.24857143
        tangentMode: 10
      - time: 0.26666668
        value: 0.05
        inSlope: 0.34285712
        outSlope: 0.34285712
        tangentMode: 10
      m_PreInfinity: 2
      m_PostInfinity: 2
      m_RotationOrder: 4
    attribute: m_LocalPosition.y
    path: akula_BLUE1_2
    classID: 4
    script: {fileID: 0}
  - curve:
      serializedVersion: 2
      m_Curve:
      - time: 0
        value: 0
        inSlope: 0
        outSlope: 0
        tangentMode: 10
      - time: 0.05
        value: 0
        inSlope: 0
        outSlope: 0
        tangentMode: 10
      - time: 0.06666667
        value: 0
        inSlope: 0
        outSlope: 0
        tangentMode: 10
      - time: 0.15
        value: 0
        inSlope: 0
        outSlope: 0
        tangentMode: 10
      - time: 0.26666668
        value: 0
        inSlope: 0
        outSlope: 0
        tangentMode: 10
      m_PreInfinity: 2
      m_PostInfinity: 2
      m_RotationOrder: 4
    attribute: m_LocalPosition.z
    path: akula_BLUE1_2
    classID: 4
    script: {fileID: 0}
  - curve:
      serializedVersion: 2
      m_Curve:
      - time: 0
        value: 0
        inSlope: 0
        outSlope: 0
        tangentMode: 10
      - time: 0.06666667
        value: 0
        inSlope: 0
        outSlope: 0
        tangentMode: 10
      - time: 0.15
        value: 0
        inSlope: 0
        outSlope: 0
        tangentMode: 10
      - time: 0.26666668
        value: 0
        inSlope: 0
        outSlope: 0
        tangentMode: 10
      m_PreInfinity: 2
      m_PostInfinity: 2
      m_RotationOrder: 4
    attribute: localEulerAnglesRaw.x
    path: akula_BLUE1_2
    classID: 4
    script: {fileID: 0}
  - curve:
      serializedVersion: 2
      m_Curve:
      - time: 0
        value: 0
        inSlope: 0
        outSlope: 0
        tangentMode: 10
      - time: 0.06666667
        value: 0
        inSlope: 0
        outSlope: 0
        tangentMode: 10
      - time: 0.15
        value: 0
        inSlope: 0
        outSlope: 0
        tangentMode: 10
      - time: 0.26666668
        value: 0
        inSlope: 0
        outSlope: 0
        tangentMode: 10
      m_PreInfinity: 2
      m_PostInfinity: 2
      m_RotationOrder: 4
    attribute: localEulerAnglesRaw.y
    path: akula_BLUE1_2
    classID: 4
    script: {fileID: 0}
  - curve:
      serializedVersion: 2
      m_Curve:
      - time: 0
        value: 0
        inSlope: -46.288494
        outSlope: -46.288494
        tangentMode: 10
      - time: 0.06666667
        value: -3.0858998
        inSlope: 27.772348
        outSlope: 27.772348
        tangentMode: 10
      - time: 0.15
        value: 5.4002
        inSlope: 27.772882
        outSlope: 27.772882
        tangentMode: 10
      - time: 0.26666668
        value: 0
        inSlope: -46.287426
        outSlope: -46.287426
        tangentMode: 10
      m_PreInfinity: 2
      m_PostInfinity: 2
      m_RotationOrder: 4
    attribute: localEulerAnglesRaw.z
    path: akula_BLUE1_2
    classID: 4
    script: {fileID: 0}
  - curve:
      serializedVersion: 2
      m_Curve:
      - time: 0
        value: 1
        inSlope: 0
        outSlope: 0
        tangentMode: 10
      - time: 0.06666667
        value: 1
        inSlope: 0
        outSlope: 0
        tangentMode: 10
      - time: 0.15
        value: 1
        inSlope: 0
        outSlope: 0
        tangentMode: 10
      - time: 0.26666668
        value: 1
        inSlope: 0
        outSlope: 0
        tangentMode: 10
      m_PreInfinity: 2
      m_PostInfinity: 2
      m_RotationOrder: 4
    attribute: m_LocalScale.x
    path: akula_BLUE1_2
    classID: 4
    script: {fileID: 0}
  - curve:
      serializedVersion: 2
      m_Curve:
      - time: 0
        value: 1
        inSlope: 0
        outSlope: 0
        tangentMode: 10
      - time: 0.06666667
        value: 1
        inSlope: 0.092731476
        outSlope: 0.092731476
        tangentMode: 10
      - time: 0.15
        value: 1.0154552
        inSlope: 0.026494712
        outSlope: 0.026494712
        tangentMode: 10
      - time: 0.26666668
        value: 1
        inSlope: -0.13247353
        outSlope: -0.13247353
        tangentMode: 10
      m_PreInfinity: 2
      m_PostInfinity: 2
      m_RotationOrder: 4
    attribute: m_LocalScale.y
    path: akula_BLUE1_2
    classID: 4
    script: {fileID: 0}
  - curve:
      serializedVersion: 2
      m_Curve:
      - time: 0
        value: 1
        inSlope: 0
        outSlope: 0
        tangentMode: 10
      - time: 0.06666667
        value: 1
        inSlope: 0
        outSlope: 0
        tangentMode: 10
      - time: 0.15
        value: 1
        inSlope: 0
        outSlope: 0
        tangentMode: 10
      - time: 0.26666668
        value: 1
        inSlope: 0
        outSlope: 0
        tangentMode: 10
      m_PreInfinity: 2
      m_PostInfinity: 2
      m_RotationOrder: 4
    attribute: m_LocalScale.z
    path: akula_BLUE1_2
    classID: 4
    script: {fileID: 0}
  - curve:
      serializedVersion: 2
      m_Curve:
      - time: 0
        value: 2.05
        inSlope: 0.0000035762785
        outSlope: 0.0000035762785
        tangentMode: 10
      - time: 0.06666667
        value: 2.0500002
        inSlope: 0.0000017881392
        outSlope: 0.0000017881392
        tangentMode: 10
      - time: 0.15
        value: 2.0500002
        inSlope: -0.0000010217939
        outSlope: -0.0000010217939
        tangentMode: 10
      - time: 0.26666668
        value: 2.05
        inSlope: -0.0000020435878
        outSlope: -0.0000020435878
        tangentMode: 10
      m_PreInfinity: 2
      m_PostInfinity: 2
      m_RotationOrder: 4
    attribute: m_LocalPosition.x
    path: akula_BLUE1_3 (1)
    classID: 4
    script: {fileID: 0}
  - curve:
      serializedVersion: 2
      m_Curve:
      - time: 0
        value: -0.59
        inSlope: -0.0000026822088
        outSlope: -0.0000026822088
        tangentMode: 10
      - time: 0.06666667
        value: -0.59000015
        inSlope: -0.0000013411044
        outSlope: -0.0000013411044
        tangentMode: 10
      - time: 0.15
        value: -0.59000015
        inSlope: 0.0000007663454
        outSlope: 0.0000007663454
        tangentMode: 10
      - time: 0.26666668
        value: -0.59
        inSlope: 0.0000015326908
        outSlope: 0.0000015326908
        tangentMode: 10
      m_PreInfinity: 2
      m_PostInfinity: 2
      m_RotationOrder: 4
    attribute: m_LocalPosition.y
    path: akula_BLUE1_3 (1)
    classID: 4
    script: {fileID: 0}
  - curve:
      serializedVersion: 2
      m_Curve:
      - time: 0
        value: 0
        inSlope: 0
        outSlope: 0
        tangentMode: 10
      - time: 0.06666667
        value: 0
        inSlope: 0
        outSlope: 0
        tangentMode: 10
      - time: 0.15
        value: 0
        inSlope: 0
        outSlope: 0
        tangentMode: 10
      - time: 0.26666668
        value: 0
        inSlope: 0
        outSlope: 0
        tangentMode: 10
      m_PreInfinity: 2
      m_PostInfinity: 2
      m_RotationOrder: 4
    attribute: m_LocalPosition.z
    path: akula_BLUE1_3 (1)
    classID: 4
    script: {fileID: 0}
  - curve:
      serializedVersion: 2
      m_Curve:
      - time: 0
        value: 0
        inSlope: 0
        outSlope: 0
        tangentMode: 10
      - time: 0.06666667
        value: 0
        inSlope: 0
        outSlope: 0
        tangentMode: 10
      - time: 0.15
        value: 0
        inSlope: 0
        outSlope: 0
        tangentMode: 10
      - time: 0.26666668
        value: 0
        inSlope: 0
        outSlope: 0
        tangentMode: 10
      m_PreInfinity: 2
      m_PostInfinity: 2
      m_RotationOrder: 4
    attribute: localEulerAnglesRaw.x
    path: akula_BLUE1_3 (1)
    classID: 4
    script: {fileID: 0}
  - curve:
      serializedVersion: 2
      m_Curve:
      - time: 0
        value: 0
        inSlope: 0
        outSlope: 0
        tangentMode: 10
      - time: 0.06666667
        value: 0
        inSlope: 0
        outSlope: 0
        tangentMode: 10
      - time: 0.15
        value: 0
        inSlope: 0
        outSlope: 0
        tangentMode: 10
      - time: 0.26666668
        value: 0
        inSlope: 0
        outSlope: 0
        tangentMode: 10
      m_PreInfinity: 2
      m_PostInfinity: 2
      m_RotationOrder: 4
    attribute: localEulerAnglesRaw.y
    path: akula_BLUE1_3 (1)
    classID: 4
    script: {fileID: 0}
  - curve:
      serializedVersion: 2
      m_Curve:
      - time: 0
        value: -150.83119
        inSlope: -270.52664
        outSlope: -270.52664
        tangentMode: 10
      - time: 0.06666667
        value: -168.8663
        inSlope: -135.26332
        outSlope: -135.26332
        tangentMode: 10
      - time: 0.15
        value: -168.8663
        inSlope: 77.29333
        outSlope: 77.29333
        tangentMode: 10
      - time: 0.26666668
        value: -150.83119
        inSlope: 154.58665
        outSlope: 154.58665
        tangentMode: 10
      m_PreInfinity: 2
      m_PostInfinity: 2
      m_RotationOrder: 4
    attribute: localEulerAnglesRaw.z
    path: akula_BLUE1_3 (1)
    classID: 4
    script: {fileID: 0}
  - curve:
      serializedVersion: 2
      m_Curve:
      - time: 0
        value: 1.1218846
        inSlope: 0
        outSlope: 0
        tangentMode: 10
      - time: 0.06666667
        value: 1.1218846
        inSlope: 0
        outSlope: 0
        tangentMode: 10
      - time: 0.15
        value: 1.1218846
        inSlope: 0
        outSlope: 0
        tangentMode: 10
      - time: 0.26666668
        value: 1.1218846
        inSlope: 0
        outSlope: 0
        tangentMode: 10
      m_PreInfinity: 2
      m_PostInfinity: 2
      m_RotationOrder: 4
    attribute: m_LocalScale.x
    path: akula_BLUE1_3 (1)
    classID: 4
    script: {fileID: 0}
  - curve:
      serializedVersion: 2
      m_Curve:
      - time: 0
        value: 0.46308652
        inSlope: 0
        outSlope: 0
        tangentMode: 10
      - time: 0.06666667
        value: 0.46308652
        inSlope: 0
        outSlope: 0
        tangentMode: 10
      - time: 0.15
        value: 0.46308652
        inSlope: 0
        outSlope: 0
        tangentMode: 10
      - time: 0.26666668
        value: 0.46308652
        inSlope: 0
        outSlope: 0
        tangentMode: 10
      m_PreInfinity: 2
      m_PostInfinity: 2
      m_RotationOrder: 4
    attribute: m_LocalScale.y
    path: akula_BLUE1_3 (1)
    classID: 4
    script: {fileID: 0}
  - curve:
      serializedVersion: 2
      m_Curve:
      - time: 0
        value: 1
        inSlope: 0
        outSlope: 0
        tangentMode: 10
      - time: 0.06666667
        value: 1
        inSlope: 0
        outSlope: 0
        tangentMode: 10
      - time: 0.15
        value: 1
        inSlope: 0
        outSlope: 0
        tangentMode: 10
      - time: 0.26666668
        value: 1
        inSlope: 0
        outSlope: 0
        tangentMode: 10
      m_PreInfinity: 2
      m_PostInfinity: 2
      m_RotationOrder: 4
    attribute: m_LocalScale.z
    path: akula_BLUE1_3 (1)
    classID: 4
    script: {fileID: 0}
  - curve:
      serializedVersion: 2
      m_Curve:
      - time: 0
        value: 2.75
        inSlope: 0
        outSlope: 0
        tangentMode: 10
      - time: 0.06666667
        value: 2.75
        inSlope: 1.3800001
        outSlope: 1.3800001
        tangentMode: 10
      - time: 0.15
        value: 2.98
        inSlope: 0.3942858
        outSlope: 0.3942858
        tangentMode: 10
      - time: 0.26666668
        value: 2.75
        inSlope: -1.9714286
        outSlope: -1.9714286
        tangentMode: 10
      m_PreInfinity: 2
      m_PostInfinity: 2
      m_RotationOrder: 4
    attribute: m_LocalPosition.x
    path: akula_BLUE1_3
    classID: 4
    script: {fileID: 0}
  - curve:
      serializedVersion: 2
      m_Curve:
      - time: 0
        value: -0.75
        inSlope: 0.15000342
        outSlope: 0.15000342
        tangentMode: 10
      - time: 0.06666667
        value: -0.7399998
        inSlope: 0.13500023
        outSlope: 0.13500023
        tangentMode: 10
      - time: 0.15
        value: -0.73
        inSlope: -0.025715686
        outSlope: -0.025715686
        tangentMode: 10
      - time: 0.26666668
        value: -0.75
        inSlope: -0.1714284
        outSlope: -0.1714284
        tangentMode: 10
      m_PreInfinity: 2
      m_PostInfinity: 2
      m_RotationOrder: 4
    attribute: m_LocalPosition.y
    path: akula_BLUE1_3
    classID: 4
    script: {fileID: 0}
  - curve:
      serializedVersion: 2
      m_Curve:
      - time: 0
        value: 0
        inSlope: 0
        outSlope: 0
        tangentMode: 10
      - time: 0.06666667
        value: 0
        inSlope: 0
        outSlope: 0
        tangentMode: 10
      - time: 0.15
        value: 0
        inSlope: 0
        outSlope: 0
        tangentMode: 10
      - time: 0.26666668
        value: 0
        inSlope: 0
        outSlope: 0
        tangentMode: 10
      m_PreInfinity: 2
      m_PostInfinity: 2
      m_RotationOrder: 4
    attribute: m_LocalPosition.z
    path: akula_BLUE1_3
    classID: 4
    script: {fileID: 0}
  - curve:
      serializedVersion: 2
      m_Curve:
      - time: 0
        value: 0
        inSlope: 0
        outSlope: 0
        tangentMode: 10
      - time: 0.06666667
        value: 0
        inSlope: 0
        outSlope: 0
        tangentMode: 10
      - time: 0.15
        value: 0
        inSlope: 0
        outSlope: 0
        tangentMode: 10
      - time: 0.26666668
        value: 0
        inSlope: 0
        outSlope: 0
        tangentMode: 10
      m_PreInfinity: 2
      m_PostInfinity: 2
      m_RotationOrder: 4
    attribute: localEulerAnglesRaw.x
    path: akula_BLUE1_3
    classID: 4
    script: {fileID: 0}
  - curve:
      serializedVersion: 2
      m_Curve:
      - time: 0
        value: 0
        inSlope: 0
        outSlope: 0
        tangentMode: 10
      - time: 0.06666667
        value: 0
        inSlope: 0
        outSlope: 0
        tangentMode: 10
      - time: 0.15
        value: 0
        inSlope: 0
        outSlope: 0
        tangentMode: 10
      - time: 0.26666668
        value: 0
        inSlope: 0
        outSlope: 0
        tangentMode: 10
      m_PreInfinity: 2
      m_PostInfinity: 2
      m_RotationOrder: 4
    attribute: localEulerAnglesRaw.y
    path: akula_BLUE1_3
    classID: 4
    script: {fileID: 0}
  - curve:
      serializedVersion: 2
      m_Curve:
      - time: 0
        value: -57.309097
        inSlope: 107.7
        outSlope: 107.7
        tangentMode: 10
      - time: 0.06666667
        value: -50.129097
        inSlope: 256.7034
        outSlope: 256.7034
        tangentMode: 10
      - time: 0.15
        value: -16.3202
        inSlope: 27.186691
        outSlope: 27.186691
        tangentMode: 10
      - time: 0.26666668
        value: -57.309097
        inSlope: -351.3334
        outSlope: -351.3334
        tangentMode: 10
      m_PreInfinity: 2
      m_PostInfinity: 2
      m_RotationOrder: 4
    attribute: localEulerAnglesRaw.z
    path: akula_BLUE1_3
    classID: 4
    script: {fileID: 0}
  - curve:
      serializedVersion: 2
      m_Curve:
      - time: 0
        value: 1.1218846
        inSlope: 0
        outSlope: 0
        tangentMode: 10
      - time: 0.06666667
        value: 1.1218846
        inSlope: 0
        outSlope: 0
        tangentMode: 10
      - time: 0.15
        value: 1.1218846
        inSlope: 0
        outSlope: 0
        tangentMode: 10
      - time: 0.26666668
        value: 1.1218846
        inSlope: 0
        outSlope: 0
        tangentMode: 10
      m_PreInfinity: 2
      m_PostInfinity: 2
      m_RotationOrder: 4
    attribute: m_LocalScale.x
    path: akula_BLUE1_3
    classID: 4
    script: {fileID: 0}
  - curve:
      serializedVersion: 2
      m_Curve:
      - time: 0
        value: 0.8203156
        inSlope: 0
        outSlope: 0
        tangentMode: 10
      - time: 0.06666667
        value: 0.8203156
        inSlope: 0
        outSlope: 0
        tangentMode: 10
      - time: 0.15
        value: 0.8203156
        inSlope: 0
        outSlope: 0
        tangentMode: 10
      - time: 0.26666668
        value: 0.8203156
        inSlope: 0
        outSlope: 0
        tangentMode: 10
      m_PreInfinity: 2
      m_PostInfinity: 2
      m_RotationOrder: 4
    attribute: m_LocalScale.y
    path: akula_BLUE1_3
    classID: 4
    script: {fileID: 0}
  - curve:
      serializedVersion: 2
      m_Curve:
      - time: 0
        value: 1
        inSlope: 0
        outSlope: 0
        tangentMode: 10
      - time: 0.06666667
        value: 1
        inSlope: 0
        outSlope: 0
        tangentMode: 10
      - time: 0.15
        value: 1
        inSlope: 0
        outSlope: 0
        tangentMode: 10
      - time: 0.26666668
        value: 1
        inSlope: 0
        outSlope: 0
        tangentMode: 10
      m_PreInfinity: 2
      m_PostInfinity: 2
      m_RotationOrder: 4
    attribute: m_LocalScale.z
    path: akula_BLUE1_3
    classID: 4
    script: {fileID: 0}
  - curve:
      serializedVersion: 2
      m_Curve:
      - time: 0
        value: 1.59
        inSlope: -1.9499998
        outSlope: -1.9499998
        tangentMode: 10
      - time: 0.06666667
        value: 1.46
        inSlope: 0.044999838
        outSlope: 0.044999838
        tangentMode: 10
      - time: 0.15
        value: 1.63
        inSlope: -0.2657143
        outSlope: -0.2657143
        tangentMode: 10
      - time: 0.26666668
        value: 1.33
        inSlope: -2.571428
        outSlope: -2.571428
        tangentMode: 10
      m_PreInfinity: 2
      m_PostInfinity: 2
      m_RotationOrder: 4
    attribute: m_LocalPosition.x
    path: akula_BLUE1_4
    classID: 4
    script: {fileID: 0}
  - curve:
      serializedVersion: 2
      m_Curve:
      - time: 0
        value: 0.34
        inSlope: -2.7
        outSlope: -2.7
        tangentMode: 10
      - time: 0.06666667
        value: 0.16
        inSlope: -4.35
        outSlope: -4.35
        tangentMode: 10
      - time: 0.15
        value: -0.34
        inSlope: -1.8000001
        outSlope: -1.8000001
        tangentMode: 10
      - time: 0.26666668
        value: -0.06
        inSlope: 2.3999999
        outSlope: 2.3999999
        tangentMode: 10
      m_PreInfinity: 2
      m_PostInfinity: 2
      m_RotationOrder: 4
    attribute: m_LocalPosition.y
    path: akula_BLUE1_4
    classID: 4
    script: {fileID: 0}
  - curve:
      serializedVersion: 2
      m_Curve:
      - time: 0
        value: 0
        inSlope: 0
        outSlope: 0
        tangentMode: 10
      - time: 0.06666667
        value: 0
        inSlope: 0
        outSlope: 0
        tangentMode: 10
      - time: 0.15
        value: 0
        inSlope: 0
        outSlope: 0
        tangentMode: 10
      - time: 0.26666668
        value: 0
        inSlope: 0
        outSlope: 0
        tangentMode: 10
      m_PreInfinity: 2
      m_PostInfinity: 2
      m_RotationOrder: 4
    attribute: m_LocalPosition.z
    path: akula_BLUE1_4
    classID: 4
    script: {fileID: 0}
  - curve:
      serializedVersion: 2
      m_Curve:
      - time: 0
        value: 0
        inSlope: 0
        outSlope: 0
        tangentMode: 10
      - time: 0.06666667
        value: 0
        inSlope: 0
        outSlope: 0
        tangentMode: 10
      - time: 0.15
        value: 0
        inSlope: 0
        outSlope: 0
        tangentMode: 10
      - time: 0.26666668
        value: 0
        inSlope: 0
        outSlope: 0
        tangentMode: 10
      m_PreInfinity: 2
      m_PostInfinity: 2
      m_RotationOrder: 4
    attribute: localEulerAnglesRaw.x
    path: akula_BLUE1_4
    classID: 4
    script: {fileID: 0}
  - curve:
      serializedVersion: 2
      m_Curve:
      - time: 0
        value: 0
        inSlope: 0
        outSlope: 0
        tangentMode: 10
      - time: 0.06666667
        value: 0
        inSlope: 0
        outSlope: 0
        tangentMode: 10
      - time: 0.15
        value: 0
        inSlope: 0
        outSlope: 0
        tangentMode: 10
      - time: 0.26666668
        value: 0
        inSlope: 0
        outSlope: 0
        tangentMode: 10
      m_PreInfinity: 2
      m_PostInfinity: 2
      m_RotationOrder: 4
    attribute: localEulerAnglesRaw.y
    path: akula_BLUE1_4
    classID: 4
    script: {fileID: 0}
  - curve:
      serializedVersion: 2
      m_Curve:
      - time: 0
        value: 0
        inSlope: -164.62648
        outSlope: -164.62648
        tangentMode: 10
      - time: 0.06666667
        value: -10.9751
        inSlope: 58.578148
        outSlope: 58.578148
        tangentMode: 10
      - time: 0.15
        value: 12.5068
        inSlope: 87.29082
        outSlope: 87.29082
        tangentMode: 10
      - time: 0.26666668
        value: 0
        inSlope: -107.20113
        outSlope: -107.20113
        tangentMode: 10
      m_PreInfinity: 2
      m_PostInfinity: 2
      m_RotationOrder: 4
    attribute: localEulerAnglesRaw.z
    path: akula_BLUE1_4
    classID: 4
    script: {fileID: 0}
  - curve:
      serializedVersion: 2
      m_Curve:
      - time: 0
        value: 1
        inSlope: 0
        outSlope: 0
        tangentMode: 10
      - time: 0.06666667
        value: 1
        inSlope: 0
        outSlope: 0
        tangentMode: 10
      - time: 0.15
        value: 1
        inSlope: 0
        outSlope: 0
        tangentMode: 10
      - time: 0.26666668
        value: 1
        inSlope: 0
        outSlope: 0
        tangentMode: 10
      m_PreInfinity: 2
      m_PostInfinity: 2
      m_RotationOrder: 4
    attribute: m_LocalScale.x
    path: akula_BLUE1_4
    classID: 4
    script: {fileID: 0}
  - curve:
      serializedVersion: 2
      m_Curve:
      - time: 0
        value: 1
        inSlope: 0
        outSlope: 0
        tangentMode: 10
      - time: 0.06666667
        value: 1
        inSlope: 0
        outSlope: 0
        tangentMode: 10
      - time: 0.15
        value: 1
        inSlope: 0
        outSlope: 0
        tangentMode: 10
      - time: 0.26666668
        value: 1
        inSlope: 0
        outSlope: 0
        tangentMode: 10
      m_PreInfinity: 2
      m_PostInfinity: 2
      m_RotationOrder: 4
    attribute: m_LocalScale.y
    path: akula_BLUE1_4
    classID: 4
    script: {fileID: 0}
  - curve:
      serializedVersion: 2
      m_Curve:
      - time: 0
        value: 1
        inSlope: 0
        outSlope: 0
        tangentMode: 10
      - time: 0.06666667
        value: 1
        inSlope: 0
        outSlope: 0
        tangentMode: 10
      - time: 0.15
        value: 1
        inSlope: 0
        outSlope: 0
        tangentMode: 10
      - time: 0.26666668
        value: 1
        inSlope: 0
        outSlope: 0
        tangentMode: 10
      m_PreInfinity: 2
      m_PostInfinity: 2
      m_RotationOrder: 4
    attribute: m_LocalScale.z
    path: akula_BLUE1_4
    classID: 4
    script: {fileID: 0}
  - curve:
      serializedVersion: 2
      m_Curve:
      - time: 0
        value: 4.12
        inSlope: -3.9999962
        outSlope: -3.9999962
        tangentMode: 10
      - time: 0.05
        value: 3.92
        inSlope: -7.699999
        outSlope: -7.699999
        tangentMode: 10
      - time: 0.06666667
        value: 3.73
        inSlope: -4.6200004
        outSlope: -4.6200004
        tangentMode: 10
      - time: 0.15
        value: 3.91
        inSlope: 1.3800001
        outSlope: 1.3800001
        tangentMode: 10
      - time: 0.16666667
        value: 3.92
        inSlope: -0.10000104
        outSlope: -0.10000104
        tangentMode: 10
      - time: 0.26666668
        value: 3.84
        inSlope: -0.80000156
        outSlope: -0.80000156
        tangentMode: 10
      m_PreInfinity: 2
      m_PostInfinity: 2
      m_RotationOrder: 4
    attribute: m_LocalPosition.x
    path: akula_BLUE1_5
    classID: 4
    script: {fileID: 0}
  - curve:
      serializedVersion: 2
      m_Curve:
      - time: 0
        value: 0.32
        inSlope: -6.5999994
        outSlope: -6.5999994
        tangentMode: 10
      - time: 0.05
        value: -0.01
        inSlope: -3.8999996
        outSlope: -3.8999996
        tangentMode: 10
      - time: 0.06666667
        value: -0.03
        inSlope: -1.0199999
        outSlope: -1.0199999
        tangentMode: 10
      - time: 0.15
        value: -0.1
        inSlope: 0.4800001
        outSlope: 0.4800001
        tangentMode: 10
      - time: 0.16666667
        value: -0.07
        inSlope: 0.7500001
        outSlope: 0.7500001
        tangentMode: 10
      - time: 0.26666668
        value: -0.1
        inSlope: -0.29999998
        outSlope: -0.29999998
        tangentMode: 10
      m_PreInfinity: 2
      m_PostInfinity: 2
      m_RotationOrder: 4
    attribute: m_LocalPosition.y
    path: akula_BLUE1_5
    classID: 4
    script: {fileID: 0}
  - curve:
      serializedVersion: 2
      m_Curve:
      - time: 0
        value: 0
        inSlope: 0
        outSlope: 0
        tangentMode: 10
      - time: 0.05
        value: 0
        inSlope: 0
        outSlope: 0
        tangentMode: 10
      - time: 0.06666667
        value: 0
        inSlope: 0
        outSlope: 0
        tangentMode: 10
      - time: 0.15
        value: 0
        inSlope: 0
        outSlope: 0
        tangentMode: 10
      - time: 0.16666667
        value: 0
        inSlope: 0
        outSlope: 0
        tangentMode: 10
      - time: 0.26666668
        value: 0
        inSlope: 0
        outSlope: 0
        tangentMode: 10
      m_PreInfinity: 2
      m_PostInfinity: 2
      m_RotationOrder: 4
    attribute: m_LocalPosition.z
    path: akula_BLUE1_5
    classID: 4
    script: {fileID: 0}
  - curve:
      serializedVersion: 2
      m_Curve:
      - time: 0
        value: 0
        inSlope: 0
        outSlope: 0
        tangentMode: 10
      - time: 0.06666667
        value: 0
        inSlope: 0
        outSlope: 0
        tangentMode: 10
      - time: 0.15
        value: 0
        inSlope: 0
        outSlope: 0
        tangentMode: 10
      - time: 0.26666668
        value: 0
        inSlope: 0
        outSlope: 0
        tangentMode: 10
      m_PreInfinity: 2
      m_PostInfinity: 2
      m_RotationOrder: 4
    attribute: localEulerAnglesRaw.x
    path: akula_BLUE1_5
    classID: 4
    script: {fileID: 0}
  - curve:
      serializedVersion: 2
      m_Curve:
      - time: 0
        value: 0
        inSlope: 0
        outSlope: 0
        tangentMode: 10
      - time: 0.06666667
        value: 0
        inSlope: 0
        outSlope: 0
        tangentMode: 10
      - time: 0.15
        value: 0
        inSlope: 0
        outSlope: 0
        tangentMode: 10
      - time: 0.26666668
        value: 0
        inSlope: 0
        outSlope: 0
        tangentMode: 10
      m_PreInfinity: 2
      m_PostInfinity: 2
      m_RotationOrder: 4
    attribute: localEulerAnglesRaw.y
    path: akula_BLUE1_5
    classID: 4
    script: {fileID: 0}
  - curve:
      serializedVersion: 2
      m_Curve:
      - time: 0
        value: -1.3577
        inSlope: 146.769
        outSlope: 146.769
        tangentMode: 10
      - time: 0.06666667
        value: 8.4269
        inSlope: -12.904503
        outSlope: -12.904503
        tangentMode: 10
      - time: 0.15
        value: -5.9546
        inSlope: -60.769287
        outSlope: -60.769287
        tangentMode: 10
      - time: 0.26666668
        value: 0
        inSlope: 51.039425
        outSlope: 51.039425
        tangentMode: 10
      m_PreInfinity: 2
      m_PostInfinity: 2
      m_RotationOrder: 4
    attribute: localEulerAnglesRaw.z
    path: akula_BLUE1_5
    classID: 4
    script: {fileID: 0}
  - curve:
      serializedVersion: 2
      m_Curve:
      - time: 0
        value: 1
        inSlope: 1.6679763
        outSlope: 1.6679763
        tangentMode: 10
      - time: 0.06666667
        value: 1.1111984
        inSlope: 0.46512574
        outSlope: 0.46512574
        tangentMode: 10
      - time: 0.15
        value: 1.0497214
        inSlope: -0.5819539
        outSlope: -0.5819539
        tangentMode: 10
      - time: 0.26666668
        value: 1
        inSlope: -0.42618304
        outSlope: -0.42618304
        tangentMode: 10
      m_PreInfinity: 2
      m_PostInfinity: 2
      m_RotationOrder: 4
    attribute: m_LocalScale.x
    path: akula_BLUE1_5
    classID: 4
    script: {fileID: 0}
  - curve:
      serializedVersion: 2
      m_Curve:
      - time: 0
        value: 0.9713082
        inSlope: 0
        outSlope: 0
        tangentMode: 10
      - time: 0.06666667
        value: 0.9713082
        inSlope: 0
        outSlope: 0
        tangentMode: 10
      - time: 0.15
        value: 0.9713082
        inSlope: 0
        outSlope: 0
        tangentMode: 10
      - time: 0.26666668
        value: 0.9713082
        inSlope: 0
        outSlope: 0
        tangentMode: 10
      m_PreInfinity: 2
      m_PostInfinity: 2
      m_RotationOrder: 4
    attribute: m_LocalScale.y
    path: akula_BLUE1_5
    classID: 4
    script: {fileID: 0}
  - curve:
      serializedVersion: 2
      m_Curve:
      - time: 0
        value: 1
        inSlope: 0
        outSlope: 0
        tangentMode: 10
      - time: 0.06666667
        value: 1
        inSlope: 0
        outSlope: 0
        tangentMode: 10
      - time: 0.15
        value: 1
        inSlope: 0
        outSlope: 0
        tangentMode: 10
      - time: 0.26666668
        value: 1
        inSlope: 0
        outSlope: 0
        tangentMode: 10
      m_PreInfinity: 2
      m_PostInfinity: 2
      m_RotationOrder: 4
    attribute: m_LocalScale.z
    path: akula_BLUE1_5
    classID: 4
    script: {fileID: 0}
  - curve:
      serializedVersion: 2
      m_Curve:
      - time: 0
        value: 6.94
        inSlope: 0.79999924
        outSlope: 0.79999924
        tangentMode: 10
      - time: 0.05
        value: 6.98
        inSlope: -7.099999
        outSlope: -7.099999
        tangentMode: 10
      - time: 0.06666667
        value: 6.73
        inSlope: -7.3199973
        outSlope: -7.3199973
        tangentMode: 10
      - time: 0.15
        value: 6.76
        inSlope: -2.5200036
        outSlope: -2.5200036
        tangentMode: 10
      - time: 0.16666667
        value: 6.67
        inSlope: -2.9000046
        outSlope: -2.9000046
        tangentMode: 10
      - time: 0.26666668
        value: 6.63
        inSlope: -0.3999996
        outSlope: -0.3999996
        tangentMode: 10
      m_PreInfinity: 2
      m_PostInfinity: 2
      m_RotationOrder: 4
    attribute: m_LocalPosition.x
    path: akula_BLUE1_6
    classID: 4
    script: {fileID: 0}
  - curve:
      serializedVersion: 2
      m_Curve:
      - time: 0
        value: 0.03
        inSlope: 1.9999999
        outSlope: 1.9999999
        tangentMode: 10
      - time: 0.05
        value: 0.13
        inSlope: 5.2
        outSlope: 5.2
        tangentMode: 10
      - time: 0.06666667
        value: 0.27
        inSlope: -1.0799999
        outSlope: -1.0799999
        tangentMode: 10
      - time: 0.15
        value: -0.61
        inSlope: -5.879999
        outSlope: -5.879999
        tangentMode: 10
      - time: 0.16666667
        value: -0.63
        inSlope: 1.2000003
        outSlope: 1.2000003
        tangentMode: 10
      - time: 0.26666668
        value: -0.27
        inSlope: 3.5999994
        outSlope: 3.5999994
        tangentMode: 10
      m_PreInfinity: 2
      m_PostInfinity: 2
      m_RotationOrder: 4
    attribute: m_LocalPosition.y
    path: akula_BLUE1_6
    classID: 4
    script: {fileID: 0}
  - curve:
      serializedVersion: 2
      m_Curve:
      - time: 0
        value: 0
        inSlope: 0
        outSlope: 0
        tangentMode: 10
      - time: 0.05
        value: 0
        inSlope: 0
        outSlope: 0
        tangentMode: 10
      - time: 0.06666667
        value: 0
        inSlope: 0
        outSlope: 0
        tangentMode: 10
      - time: 0.15
        value: 0
        inSlope: 0
        outSlope: 0
        tangentMode: 10
      - time: 0.16666667
        value: 0
        inSlope: 0
        outSlope: 0
        tangentMode: 10
      - time: 0.26666668
        value: 0
        inSlope: 0
        outSlope: 0
        tangentMode: 10
      m_PreInfinity: 2
      m_PostInfinity: 2
      m_RotationOrder: 4
    attribute: m_LocalPosition.z
    path: akula_BLUE1_6
    classID: 4
    script: {fileID: 0}
  - curve:
      serializedVersion: 2
      m_Curve:
      - time: 0
        value: 0
        inSlope: 0
        outSlope: 0
        tangentMode: 10
      - time: 0.05
        value: 0
        inSlope: 0
        outSlope: 0
        tangentMode: 10
      - time: 0.06666667
        value: 0
        inSlope: 0
        outSlope: 0
        tangentMode: 10
      - time: 0.15
        value: 0
        inSlope: 0
        outSlope: 0
        tangentMode: 10
      - time: 0.16666667
        value: 0
        inSlope: 0
        outSlope: 0
        tangentMode: 10
      - time: 0.26666668
        value: 0
        inSlope: 0
        outSlope: 0
        tangentMode: 10
      m_PreInfinity: 2
      m_PostInfinity: 2
      m_RotationOrder: 4
    attribute: localEulerAnglesRaw.x
    path: akula_BLUE1_6
    classID: 4
    script: {fileID: 0}
  - curve:
      serializedVersion: 2
      m_Curve:
      - time: 0
        value: 0
        inSlope: 0
        outSlope: 0
        tangentMode: 10
      - time: 0.05
        value: 0
        inSlope: 0
        outSlope: 0
        tangentMode: 10
      - time: 0.06666667
        value: 0
        inSlope: 0
        outSlope: 0
        tangentMode: 10
      - time: 0.15
        value: 0
        inSlope: 0
        outSlope: 0
        tangentMode: 10
      - time: 0.16666667
        value: 0
        inSlope: 0
        outSlope: 0
        tangentMode: 10
      - time: 0.26666668
        value: 0
        inSlope: 0
        outSlope: 0
        tangentMode: 10
      m_PreInfinity: 2
      m_PostInfinity: 2
      m_RotationOrder: 4
    attribute: localEulerAnglesRaw.y
    path: akula_BLUE1_6
    classID: 4
    script: {fileID: 0}
  - curve:
      serializedVersion: 2
      m_Curve:
      - time: 0
        value: 0
        inSlope: 5.8279996
        outSlope: 5.8279996
        tangentMode: 10
      - time: 0.05
        value: 0.2914
        inSlope: 570.4179
        outSlope: 570.4179
        tangentMode: 10
      - time: 0.06666667
        value: 19.2082
        inSlope: 377.9735
        outSlope: 377.9735
        tangentMode: 10
      - time: 0.15
        value: -12.380199
        inSlope: -658.62537
        outSlope: -658.62537
        tangentMode: 10
      - time: 0.16666667
        value: -28.016699
        inSlope: -329.01154
        outSlope: -329.01154
        tangentMode: 10
      - time: 0.26666668
        value: 0
        inSlope: 280.16696
        outSlope: 280.16696
        tangentMode: 10
      m_PreInfinity: 2
      m_PostInfinity: 2
      m_RotationOrder: 4
    attribute: localEulerAnglesRaw.z
    path: akula_BLUE1_6
    classID: 4
    script: {fileID: 0}
  - curve:
      serializedVersion: 2
      m_Curve:
      - time: 0
        value: 1
        inSlope: 0
        outSlope: 0
        tangentMode: 10
      - time: 0.06666667
        value: 1
        inSlope: 0
        outSlope: 0
        tangentMode: 10
      - time: 0.15
        value: 1
        inSlope: 0
        outSlope: 0
        tangentMode: 10
      - time: 0.26666668
        value: 1
        inSlope: 0
        outSlope: 0
        tangentMode: 10
      m_PreInfinity: 2
      m_PostInfinity: 2
      m_RotationOrder: 4
    attribute: m_LocalScale.x
    path: akula_BLUE1_6
    classID: 4
    script: {fileID: 0}
  - curve:
      serializedVersion: 2
      m_Curve:
      - time: 0
        value: 1
        inSlope: 0
        outSlope: 0
        tangentMode: 10
      - time: 0.06666667
        value: 1
        inSlope: 0
        outSlope: 0
        tangentMode: 10
      - time: 0.15
        value: 1
        inSlope: 0
        outSlope: 0
        tangentMode: 10
      - time: 0.26666668
        value: 1
        inSlope: 0
        outSlope: 0
        tangentMode: 10
      m_PreInfinity: 2
      m_PostInfinity: 2
      m_RotationOrder: 4
    attribute: m_LocalScale.y
    path: akula_BLUE1_6
    classID: 4
    script: {fileID: 0}
  - curve:
      serializedVersion: 2
      m_Curve:
      - time: 0
        value: 1
        inSlope: 0
        outSlope: 0
        tangentMode: 10
      - time: 0.06666667
        value: 1
        inSlope: 0
        outSlope: 0
        tangentMode: 10
      - time: 0.15
        value: 1
        inSlope: 0
        outSlope: 0
        tangentMode: 10
      - time: 0.26666668
        value: 1
        inSlope: 0
        outSlope: 0
        tangentMode: 10
      m_PreInfinity: 2
      m_PostInfinity: 2
      m_RotationOrder: 4
    attribute: m_LocalScale.z
    path: akula_BLUE1_6
    classID: 4
    script: {fileID: 0}
  m_EulerEditorCurves:
  - curve:
      serializedVersion: 2
      m_Curve: []
      m_PreInfinity: 2
      m_PostInfinity: 2
      m_RotationOrder: 4
    attribute: m_LocalEulerAngles.z
    path: akula_BLUE1_3
    classID: 4
    script: {fileID: 0}
  - curve:
      serializedVersion: 2
      m_Curve: []
      m_PreInfinity: 2
      m_PostInfinity: 2
      m_RotationOrder: 4
    attribute: m_LocalEulerAngles.y
    path: akula_BLUE1_3
    classID: 4
    script: {fileID: 0}
  - curve:
      serializedVersion: 2
      m_Curve: []
      m_PreInfinity: 2
      m_PostInfinity: 2
      m_RotationOrder: 4
    attribute: m_LocalEulerAngles.x
    path: akula_BLUE1_3
    classID: 4
    script: {fileID: 0}
  - curve:
      serializedVersion: 2
      m_Curve: []
      m_PreInfinity: 2
      m_PostInfinity: 2
      m_RotationOrder: 4
    attribute: m_LocalEulerAngles.z
    path: akula_BLUE1_4
    classID: 4
    script: {fileID: 0}
  - curve:
      serializedVersion: 2
      m_Curve: []
      m_PreInfinity: 2
      m_PostInfinity: 2
      m_RotationOrder: 4
    attribute: m_LocalEulerAngles.y
    path: akula_BLUE1_4
    classID: 4
    script: {fileID: 0}
  - curve:
      serializedVersion: 2
      m_Curve: []
      m_PreInfinity: 2
      m_PostInfinity: 2
      m_RotationOrder: 4
    attribute: m_LocalEulerAngles.x
    path: akula_BLUE1_4
    classID: 4
    script: {fileID: 0}
  - curve:
      serializedVersion: 2
      m_Curve: []
      m_PreInfinity: 2
      m_PostInfinity: 2
      m_RotationOrder: 4
    attribute: m_LocalEulerAngles.z
    path: akula_BLUE1_3 (1)
    classID: 4
    script: {fileID: 0}
  - curve:
      serializedVersion: 2
      m_Curve: []
      m_PreInfinity: 2
      m_PostInfinity: 2
      m_RotationOrder: 4
    attribute: m_LocalEulerAngles.y
    path: akula_BLUE1_3 (1)
    classID: 4
    script: {fileID: 0}
  - curve:
      serializedVersion: 2
      m_Curve: []
      m_PreInfinity: 2
      m_PostInfinity: 2
      m_RotationOrder: 4
    attribute: m_LocalEulerAngles.x
    path: akula_BLUE1_3 (1)
    classID: 4
    script: {fileID: 0}
  - curve:
      serializedVersion: 2
      m_Curve: []
      m_PreInfinity: 2
      m_PostInfinity: 2
      m_RotationOrder: 4
    attribute: m_LocalEulerAngles.z
    path: akula_BLUE1_2
    classID: 4
    script: {fileID: 0}
  - curve:
      serializedVersion: 2
      m_Curve: []
      m_PreInfinity: 2
      m_PostInfinity: 2
      m_RotationOrder: 4
    attribute: m_LocalEulerAngles.y
    path: akula_BLUE1_2
    classID: 4
    script: {fileID: 0}
  - curve:
      serializedVersion: 2
      m_Curve: []
      m_PreInfinity: 2
      m_PostInfinity: 2
      m_RotationOrder: 4
    attribute: m_LocalEulerAngles.x
    path: akula_BLUE1_2
    classID: 4
    script: {fileID: 0}
  - curve:
      serializedVersion: 2
      m_Curve: []
      m_PreInfinity: 2
      m_PostInfinity: 2
      m_RotationOrder: 4
    attribute: m_LocalEulerAngles.z
    path: akula_BLUE1_6
    classID: 4
    script: {fileID: 0}
  - curve:
      serializedVersion: 2
      m_Curve: []
      m_PreInfinity: 2
      m_PostInfinity: 2
      m_RotationOrder: 4
    attribute: m_LocalEulerAngles.y
    path: akula_BLUE1_6
    classID: 4
    script: {fileID: 0}
  - curve:
      serializedVersion: 2
      m_Curve: []
      m_PreInfinity: 2
      m_PostInfinity: 2
      m_RotationOrder: 4
    attribute: m_LocalEulerAngles.x
    path: akula_BLUE1_6
    classID: 4
    script: {fileID: 0}
  - curve:
      serializedVersion: 2
      m_Curve: []
      m_PreInfinity: 2
      m_PostInfinity: 2
      m_RotationOrder: 4
    attribute: m_LocalEulerAngles.x
    path: akula_BLUE1_5
    classID: 4
    script: {fileID: 0}
  - curve:
      serializedVersion: 2
      m_Curve: []
      m_PreInfinity: 2
      m_PostInfinity: 2
      m_RotationOrder: 4
    attribute: m_LocalEulerAngles.y
    path: akula_BLUE1_5
    classID: 4
    script: {fileID: 0}
  - curve:
      serializedVersion: 2
      m_Curve: []
      m_PreInfinity: 2
      m_PostInfinity: 2
      m_RotationOrder: 4
    attribute: m_LocalEulerAngles.z
    path: akula_BLUE1_5
    classID: 4
    script: {fileID: 0}
  m_HasGenericRootTransform: 0
  m_HasMotionFloatCurves: 0
  m_GenerateMotionCurves: 0
  m_Events: []
