%YAML 1.1
%TAG !u! tag:unity3d.com,2011:
--- !u!74 &7400000
AnimationClip:
  m_ObjectHideFlags: 0
  m_PrefabParentObject: {fileID: 0}
  m_PrefabInternal: {fileID: 0}
  m_Name: was_hit
  serializedVersion: 6
  m_Legacy: 0
  m_Compressed: 0
  m_UseHighQualityCurve: 1
  m_RotationCurves: []
  m_CompressedRotationCurves: []
  m_EulerCurves:
  - curve:
      serializedVersion: 2
      m_Curve:
      - time: 0
        value: {x: 0, y: 0, z: 0}
        inSlope: {x: 0, y: 0, z: 0}
        outSlope: {x: 0, y: 0, z: 0}
        tangentMode: 0
      - time: 0.05
        value: {x: 0, y: 0, z: 0}
        inSlope: {x: 0, y: 0, z: -13.061454}
        outSlope: {x: 0, y: 0, z: -13.061454}
        tangentMode: 0
      - time: 0.23333333
        value: {x: 0, y: 0, z: -4.7892}
        inSlope: {x: 0, y: 0, z: 4.8980455}
        outSlope: {x: 0, y: 0, z: 4.8980455}
        tangentMode: 0
      - time: 0.36666667
        value: {x: 0, y: 0, z: 0}
        inSlope: {x: 0, y: 0, z: 35.919}
        outSlope: {x: 0, y: 0, z: 35.919}
        tangentMode: 0
      m_PreInfinity: 2
      m_PostInfinity: 2
      m_RotationOrder: 4
    path: akula_BLUE1_2
  - curve:
      serializedVersion: 2
      m_Curve:
      - time: 0
        value: {x: 0, y: 0, z: -150.83119}
        inSlope: {x: 0, y: 0, z: 760.5778}
        outSlope: {x: 0, y: 0, z: 760.5778}
        tangentMode: 0
      - time: 0.05
        value: {x: 0, y: 0, z: -112.8023}
        inSlope: {x: 0, y: 0, z: 199.56729}
        outSlope: {x: 0, y: 0, z: 199.56729}
        tangentMode: 0
      - time: 0.23333333
        value: {x: 0, y: 0, z: -179.0669}
        inSlope: {x: 0, y: 0, z: -74.83774}
        outSlope: {x: 0, y: 0, z: -74.83774}
        tangentMode: 0
      - time: 0.36666667
        value: {x: 0, y: 0, z: -150.83119}
        inSlope: {x: 0, y: 0, z: 211.76776}
        outSlope: {x: 0, y: 0, z: 211.76776}
        tangentMode: 0
      m_PreInfinity: 2
      m_PostInfinity: 2
      m_RotationOrder: 4
    path: akula_BLUE1_3 (1)
  - curve:
      serializedVersion: 2
      m_Curve:
      - time: 0
        value: {x: 0, y: 0, z: -57.309097}
        inSlope: {x: 0, y: 0, z: 324.39194}
        outSlope: {x: 0, y: 0, z: 324.39194}
        tangentMode: 0
      - time: 0.05
        value: {x: 0, y: 0, z: -41.0895}
        inSlope: {x: 0, y: 0, z: 28.478058}
        outSlope: {x: 0, y: 0, z: 28.478058}
        tangentMode: 0
      - time: 0.23333333
        value: {x: 0, y: 0, z: -90.1194}
        inSlope: {x: 0, y: 0, z: -10.679283}
        outSlope: {x: 0, y: 0, z: -10.679283}
        tangentMode: 0
      - time: 0.36666667
        value: {x: 0, y: 0, z: -57.309097}
        inSlope: {x: 0, y: 0, z: 246.07726}
        outSlope: {x: 0, y: 0, z: 246.07726}
        tangentMode: 0
      m_PreInfinity: 2
      m_PostInfinity: 2
      m_RotationOrder: 4
    path: akula_BLUE1_3
  - curve:
      serializedVersion: 2
      m_Curve:
      - time: 0
        value: {x: 0, y: 0, z: 0}
        inSlope: {x: 0, y: 0, z: 245.746}
        outSlope: {x: 0, y: 0, z: 245.746}
        tangentMode: 0
      - time: 0.05
        value: {x: 0, y: 0, z: 12.2873}
        inSlope: {x: 0, y: 0, z: 65.15791}
        outSlope: {x: 0, y: 0, z: 65.15791}
        tangentMode: 0
      - time: 0.23333333
        value: {x: 0, y: 0, z: -8.8749}
        inSlope: {x: 0, y: 0, z: -24.43422}
        outSlope: {x: 0, y: 0, z: -24.43422}
        tangentMode: 0
      - time: 0.36666667
        value: {x: 0, y: 0, z: 0}
        inSlope: {x: 0, y: 0, z: 66.561745}
        outSlope: {x: 0, y: 0, z: 66.561745}
        tangentMode: 0
      m_PreInfinity: 2
      m_PostInfinity: 2
      m_RotationOrder: 4
    path: akula_BLUE1_4
  - curve:
      serializedVersion: 2
      m_Curve:
      - time: 0
        value: {x: 0, y: 0, z: 0}
        inSlope: {x: 0, y: 0, z: -88.21999}
        outSlope: {x: 0, y: 0, z: -88.21999}
        tangentMode: 0
      - time: 0.05
        value: {x: 0, y: 0, z: -4.411}
        inSlope: {x: 0, y: 0, z: -24.040815}
        outSlope: {x: 0, y: 0, z: -24.040815}
        tangentMode: 0
      - time: 0.23333333
        value: {x: 0, y: 0, z: 2.9477}
        inSlope: {x: 0, y: 0, z: 9.015306}
        outSlope: {x: 0, y: 0, z: 9.015306}
        tangentMode: 0
      - time: 0.36666667
        value: {x: 0, y: 0, z: 0}
        inSlope: {x: 0, y: 0, z: -22.10775}
        outSlope: {x: 0, y: 0, z: -22.10775}
        tangentMode: 0
      m_PreInfinity: 2
      m_PostInfinity: 2
      m_RotationOrder: 4
    path: akula_BLUE1_5
  - curve:
      serializedVersion: 2
      m_Curve:
      - time: 0
        value: {x: 0, y: 0, z: 0}
        inSlope: {x: 0, y: 0, z: 224.18399}
        outSlope: {x: 0, y: 0, z: 224.18399}
        tangentMode: 0
      - time: 0.05
        value: {x: 0, y: 0, z: 11.2092}
        inSlope: {x: 0, y: 0, z: 43.88645}
        outSlope: {x: 0, y: 0, z: 43.88645}
        tangentMode: 0
      - time: 0.23333333
        value: {x: 0, y: 0, z: -13.7994995}
        inSlope: {x: 0, y: 0, z: -16.457424}
        outSlope: {x: 0, y: 0, z: -16.457424}
        tangentMode: 0
      - time: 0.36666667
        value: {x: 0, y: 0, z: 0}
        inSlope: {x: 0, y: 0, z: 103.49624}
        outSlope: {x: 0, y: 0, z: 103.49624}
        tangentMode: 0
      m_PreInfinity: 2
      m_PostInfinity: 2
      m_RotationOrder: 4
    path: akula_BLUE1_6
  m_PositionCurves:
  - curve:
      serializedVersion: 2
      m_Curve:
      - time: 0
        value: {x: 3.26, y: 0.05, z: 0}
        inSlope: {x: -3.6000013, y: -1.8000001, z: 0}
        outSlope: {x: -3.6000013, y: -1.8000001, z: 0}
        tangentMode: 0
      - time: 0.05
        value: {x: 3.08, y: -0.04, z: 0}
        inSlope: {x: -1.2545459, y: -0.70909095, z: 0}
        outSlope: {x: -1.2545459, y: -0.70909095, z: 0}
        tangentMode: 0
      - time: 0.23333333
        value: {x: 3.28, y: 0.03, z: 0}
        inSlope: {x: 0.47045475, y: 0.26590908, z: 0}
        outSlope: {x: 0.47045475, y: 0.26590908, z: 0}
        tangentMode: 0
      - time: 0.36666667
        value: {x: 3.26, y: 0.05, z: 0}
        inSlope: {x: -0.14999984, y: 0.15, z: 0}
        outSlope: {x: -0.14999984, y: 0.15, z: 0}
        tangentMode: 0
      m_PreInfinity: 2
      m_PostInfinity: 2
      m_RotationOrder: 4
    path: akula_BLUE1_2
  - curve:
      serializedVersion: 2
      m_Curve:
      - time: 0
        value: {x: 2.05, y: -0.59, z: 0}
        inSlope: {x: 0.0000047683716, y: -0.0000035762787, z: 0}
        outSlope: {x: 0.0000047683716, y: -0.0000035762787, z: 0}
        tangentMode: 0
      - time: 0.05
        value: {x: 2.0500002, y: -0.59000015, z: 0}
        inSlope: {x: 0.0000023841858, y: -0.0000017881393, z: 0}
        outSlope: {x: 0.0000023841858, y: -0.0000017881393, z: 0}
        tangentMode: 0
      - time: 0.23333333
        value: {x: 2.0500002, y: -0.59000015, z: 0}
        inSlope: {x: -0.0000008940696, y: 0.0000006705522, z: 0}
        outSlope: {x: -0.0000008940696, y: 0.0000006705522, z: 0}
        tangentMode: 0
      - time: 0.36666667
        value: {x: 2.05, y: -0.59, z: 0}
        inSlope: {x: -0.0000017881392, y: 0.0000013411044, z: 0}
        outSlope: {x: -0.0000017881392, y: 0.0000013411044, z: 0}
        tangentMode: 0
      m_PreInfinity: 2
      m_PostInfinity: 2
      m_RotationOrder: 4
    path: akula_BLUE1_3 (1)
  - curve:
      serializedVersion: 2
      m_Curve:
      - time: 0
        value: {x: 2.75, y: -0.75, z: 0}
        inSlope: {x: -0.20000458, y: 0.40000916, z: 0}
        outSlope: {x: -0.20000458, y: 0.40000916, z: 0}
        tangentMode: 0
      - time: 0.05
        value: {x: 2.7399998, y: -0.72999954, z: 0}
        inSlope: {x: 0.19999808, y: 0.60909444, z: 0}
        outSlope: {x: 0.19999808, y: 0.60909444, z: 0}
        tangentMode: 0
      - time: 0.23333333
        value: {x: 2.85, y: -0.5799999, z: 0}
        inSlope: {x: -0.07499924, y: -0.22841036, z: 0}
        outSlope: {x: -0.07499924, y: -0.22841036, z: 0}
        tangentMode: 0
      - time: 0.36666667
        value: {x: 2.75, y: -0.75, z: 0}
        inSlope: {x: -0.7499992, y: -1.2750005, z: 0}
        outSlope: {x: -0.7499992, y: -1.2750005, z: 0}
        tangentMode: 0
      m_PreInfinity: 2
      m_PostInfinity: 2
      m_RotationOrder: 4
    path: akula_BLUE1_3
  - curve:
      serializedVersion: 2
      m_Curve:
      - time: 0
        value: {x: 1.689, y: -0.06, z: 0}
        inSlope: {x: 0.0000023841858, y: -5.2, z: 0}
        outSlope: {x: 0.0000023841858, y: -5.2, z: 0}
        tangentMode: 0
      - time: 0.05
        value: {x: 1.6890001, y: -0.32, z: 0}
        inSlope: {x: -0.18818097, y: -1.4272727, z: 0}
        outSlope: {x: -0.18818097, y: -1.4272727, z: 0}
        tangentMode: 0
      - time: 0.23333333
        value: {x: 1.62, y: 0.11, z: 0}
        inSlope: {x: 0.07056786, y: 0.53522724, z: 0}
        outSlope: {x: 0.07056786, y: 0.53522724, z: 0}
        tangentMode: 0
      - time: 0.36666667
        value: {x: 1.689, y: -0.06, z: 0}
        inSlope: {x: 0.51750004, y: -1.275, z: 0}
        outSlope: {x: 0.51750004, y: -1.275, z: 0}
        tangentMode: 0
      m_PreInfinity: 2
      m_PostInfinity: 2
      m_RotationOrder: 4
    path: akula_BLUE1_4
  - curve:
      serializedVersion: 2
      m_Curve:
      - time: 0
        value: {x: 4.048, y: -0.084, z: 0}
        inSlope: {x: -5.159998, y: -1.52, z: 0}
        outSlope: {x: -5.159998, y: -1.52, z: 0}
        tangentMode: 0
      - time: 0.05
        value: {x: 3.79, y: -0.16, z: 0}
        inSlope: {x: -2.1163623, y: -0.7054545, z: 0}
        outSlope: {x: -2.1163623, y: -0.7054545, z: 0}
        tangentMode: 0
      - time: 0.23333333
        value: {x: 3.96, y: -0.14, z: 0}
        inSlope: {x: 0.79363585, y: 0.26454544, z: 0}
        outSlope: {x: 0.79363585, y: 0.26454544, z: 0}
        tangentMode: 0
      - time: 0.36666667
        value: {x: 4.048, y: -0.084, z: 0}
        inSlope: {x: 0.6599986, y: 0.42, z: 0}
        outSlope: {x: 0.6599986, y: 0.42, z: 0}
        tangentMode: 0
      m_PreInfinity: 2
      m_PostInfinity: 2
      m_RotationOrder: 4
    path: akula_BLUE1_5
  - curve:
      serializedVersion: 2
      m_Curve:
      - time: 0
        value: {x: 6.774, y: -0.281, z: 0}
        inSlope: {x: -6.2800026, y: -5.180001, z: 0}
        outSlope: {x: -6.2800026, y: -5.180001, z: 0}
        tangentMode: 0
      - time: 0.05
        value: {x: 6.46, y: -0.54, z: 0}
        inSlope: {x: -2.5945473, y: -1.717273, z: 0}
        outSlope: {x: -2.5945473, y: -1.717273, z: 0}
        tangentMode: 0
      - time: 0.23333333
        value: {x: 6.66, y: -0.22, z: 0}
        inSlope: {x: 0.9729552, y: 0.6439774, z: 0}
        outSlope: {x: 0.9729552, y: 0.6439774, z: 0}
        tangentMode: 0
      - time: 0.36666667
        value: {x: 6.774, y: -0.281, z: 0}
        inSlope: {x: 0.85500234, y: -0.4574999, z: 0}
        outSlope: {x: 0.85500234, y: -0.4574999, z: 0}
        tangentMode: 0
      m_PreInfinity: 2
      m_PostInfinity: 2
      m_RotationOrder: 4
    path: akula_BLUE1_6
  - curve:
      serializedVersion: 2
      m_Curve:
      - time: 0
        value: {x: -0.60899997, y: 0.08, z: 0}
        inSlope: {x: -0.020000935, y: -1.8, z: 0}
        outSlope: {x: -0.020000935, y: -1.8, z: 0}
        tangentMode: 0
      - time: 0.05
        value: {x: -0.61, y: -0.01, z: 0}
        inSlope: {x: -0.0072730673, y: -0.6545454, z: 0}
        outSlope: {x: -0.0072730673, y: -0.6545454, z: 0}
        tangentMode: 0
      - time: 0.23333333
        value: {x: -0.60899997, y: 0.08, z: 0}
        inSlope: {x: 0.0027274, y: 0.24545453, z: 0}
        outSlope: {x: 0.0027274, y: 0.24545453, z: 0}
        tangentMode: 0
      - time: 0.36666667
        value: {x: -0.60899997, y: 0.08, z: 0}
        inSlope: {x: 0, y: 0, z: 0}
        outSlope: {x: 0, y: 0, z: 0}
        tangentMode: 0
      m_PreInfinity: 2
      m_PostInfinity: 2
      m_RotationOrder: 4
    path: akula_BLUE1_4/akula_BLUE1_0
  - curve:
      serializedVersion: 2
      m_Curve:
      - time: 0
        value: {x: -0.62900007, y: 0.06, z: 0}
        inSlope: {x: 0.18000126, y: -2.2, z: 0}
        outSlope: {x: 0.18000126, y: -2.2, z: 0}
        tangentMode: 0
      - time: 0.05
        value: {x: -0.62, y: -0.05, z: 0}
        inSlope: {x: 0.065455005, y: -0.8000001, z: 0}
        outSlope: {x: 0.065455005, y: -0.8000001, z: 0}
        tangentMode: 0
      - time: 0.23333333
        value: {x: -0.62900007, y: 0.06, z: 0}
        inSlope: {x: -0.024545625, y: 0.29999998, z: 0}
        outSlope: {x: -0.024545625, y: 0.29999998, z: 0}
        tangentMode: 0
      - time: 0.36666667
        value: {x: -0.62900007, y: 0.06, z: 0}
        inSlope: {x: 0, y: 0, z: 0}
        outSlope: {x: 0, y: 0, z: 0}
        tangentMode: 0
      m_PreInfinity: 2
      m_PostInfinity: 2
      m_RotationOrder: 4
    path: akula_BLUE1_4/akula_BLUE1_1
  m_ScaleCurves:
  - curve:
      serializedVersion: 2
      m_Curve:
      - time: 0
        value: {x: 1, y: 1, z: 1}
        inSlope: {x: 0, y: -0.47819257, z: 0}
        outSlope: {x: 0, y: -0.47819257, z: 0}
        tangentMode: 0
      - time: 0.05
        value: {x: 1, y: 0.9760904, z: 1}
        inSlope: {x: 0, y: -0.18098484, z: 0}
        outSlope: {x: 0, y: -0.18098484, z: 0}
        tangentMode: 0
      - time: 0.23333333
        value: {x: 1, y: 0.9973979, z: 1}
        inSlope: {x: 0, y: 0.06786931, z: 0}
        outSlope: {x: 0, y: 0.06786931, z: 0}
        tangentMode: 0
      - time: 0.36666667
        value: {x: 1, y: 1, z: 1}
        inSlope: {x: 0, y: 0.01951575, z: 0}
        outSlope: {x: 0, y: 0.01951575, z: 0}
        tangentMode: 0
      m_PreInfinity: 2
      m_PostInfinity: 2
      m_RotationOrder: 4
    path: akula_BLUE1_2
  - curve:
      serializedVersion: 2
      m_Curve:
      - time: 0
        value: {x: 1.1218846, y: 0.46308652, z: 1}
        inSlope: {x: 0, y: 0, z: 0}
        outSlope: {x: 0, y: 0, z: 0}
        tangentMode: 0
      - time: 0.05
        value: {x: 1.1218846, y: 0.46308652, z: 1}
        inSlope: {x: 0, y: 0, z: 0}
        outSlope: {x: 0, y: 0, z: 0}
        tangentMode: 0
      - time: 0.23333333
        value: {x: 1.1218846, y: 0.46308652, z: 1}
        inSlope: {x: 0, y: 0, z: 0}
        outSlope: {x: 0, y: 0, z: 0}
        tangentMode: 0
      - time: 0.36666667
        value: {x: 1.1218846, y: 0.46308652, z: 1}
        inSlope: {x: 0, y: 0, z: 0}
        outSlope: {x: 0, y: 0, z: 0}
        tangentMode: 0
      m_PreInfinity: 2
      m_PostInfinity: 2
      m_RotationOrder: 4
    path: akula_BLUE1_3 (1)
  - curve:
      serializedVersion: 2
      m_Curve:
      - time: 0
        value: {x: 1.1218846, y: 0.8203156, z: 1}
        inSlope: {x: -2.253015, y: 0, z: 0}
        outSlope: {x: -2.253015, y: 0, z: 0}
        tangentMode: 0
      - time: 0.05
        value: {x: 1.0092338, y: 0.8203156, z: 1}
        inSlope: {x: -2.021629, y: 0.7218504, z: 0}
        outSlope: {x: -2.021629, y: 0.7218504, z: 0}
        tangentMode: 0
      - time: 0.23333333
        value: {x: 0.6810226, y: 1.0849941, z: 1}
        inSlope: {x: 0.7581109, y: -0.27069384, z: 0}
        outSlope: {x: 0.7581109, y: -0.27069384, z: 0}
        tangentMode: 0
      - time: 0.36666667
        value: {x: 1.1218846, y: 0.8203156, z: 1}
        inSlope: {x: 3.306465, y: -1.9850885, z: 0}
        outSlope: {x: 3.306465, y: -1.9850885, z: 0}
        tangentMode: 0
      m_PreInfinity: 2
      m_PostInfinity: 2
      m_RotationOrder: 4
    path: akula_BLUE1_3
  - curve:
      serializedVersion: 2
      m_Curve:
      - time: 0
        value: {x: 1, y: 1, z: 1}
        inSlope: {x: 0, y: 0, z: 0}
        outSlope: {x: 0, y: 0, z: 0}
        tangentMode: 0
      - time: 0.05
        value: {x: 1, y: 1, z: 1}
        inSlope: {x: 0, y: 0, z: 0}
        outSlope: {x: 0, y: 0, z: 0}
        tangentMode: 0
      - time: 0.23333333
        value: {x: 1, y: 1, z: 1}
        inSlope: {x: 0, y: 0, z: 0}
        outSlope: {x: 0, y: 0, z: 0}
        tangentMode: 0
      - time: 0.36666667
        value: {x: 1, y: 1, z: 1}
        inSlope: {x: 0, y: 0, z: 0}
        outSlope: {x: 0, y: 0, z: 0}
        tangentMode: 0
      m_PreInfinity: 2
      m_PostInfinity: 2
      m_RotationOrder: 4
    path: akula_BLUE1_4
  - curve:
      serializedVersion: 2
      m_Curve:
      - time: 0
        value: {x: 1, y: 1, z: 1}
        inSlope: {x: 0, y: 0, z: 0}
        outSlope: {x: 0, y: 0, z: 0}
        tangentMode: 0
      - time: 0.05
        value: {x: 1, y: 1, z: 1}
        inSlope: {x: 0, y: 0, z: 0}
        outSlope: {x: 0, y: 0, z: 0}
        tangentMode: 0
      - time: 0.23333333
        value: {x: 1, y: 1, z: 1}
        inSlope: {x: 0, y: 0, z: 0}
        outSlope: {x: 0, y: 0, z: 0}
        tangentMode: 0
      - time: 0.36666667
        value: {x: 1, y: 1, z: 1}
        inSlope: {x: 0, y: 0, z: 0}
        outSlope: {x: 0, y: 0, z: 0}
        tangentMode: 0
      m_PreInfinity: 2
      m_PostInfinity: 2
      m_RotationOrder: 4
    path: akula_BLUE1_5
  - curve:
      serializedVersion: 2
      m_Curve:
      - time: 0
        value: {x: 1, y: 1, z: 1}
        inSlope: {x: 0, y: 0, z: 0}
        outSlope: {x: 0, y: 0, z: 0}
        tangentMode: 0
      - time: 0.05
        value: {x: 1, y: 1, z: 1}
        inSlope: {x: 0, y: 0, z: 0}
        outSlope: {x: 0, y: 0, z: 0}
        tangentMode: 0
      - time: 0.23333333
        value: {x: 1, y: 1, z: 1}
        inSlope: {x: 0, y: 0, z: 0}
        outSlope: {x: 0, y: 0, z: 0}
        tangentMode: 0
      - time: 0.36666667
        value: {x: 1, y: 1, z: 1}
        inSlope: {x: 0, y: 0, z: 0}
        outSlope: {x: 0, y: 0, z: 0}
        tangentMode: 0
      m_PreInfinity: 2
      m_PostInfinity: 2
      m_RotationOrder: 4
    path: akula_BLUE1_6
  - curve:
      serializedVersion: 2
      m_Curve:
      - time: 0
        value: {x: 1, y: 1, z: 1}
        inSlope: {x: 0, y: -9.381284, z: 0}
        outSlope: {x: 0, y: -9.381284, z: 0}
        tangentMode: 0
      - time: 0.05
        value: {x: 1, y: 0.5309358, z: 1}
        inSlope: {x: 0, y: -2.3461134, z: 0}
        outSlope: {x: 0, y: -2.3461134, z: 0}
        tangentMode: 0
      - time: 0.23333333
        value: {x: 1, y: 1.3905963, z: 1}
        inSlope: {x: 0, y: 0.87979245, z: 0}
        outSlope: {x: 0, y: 0.87979245, z: 0}
        tangentMode: 0
      - time: 0.36666667
        value: {x: 1, y: 1, z: 1}
        inSlope: {x: 0, y: -2.929472, z: 0}
        outSlope: {x: 0, y: -2.929472, z: 0}
        tangentMode: 0
      m_PreInfinity: 2
      m_PostInfinity: 2
      m_RotationOrder: 4
    path: akula_BLUE1_4/akula_BLUE1_0
  - curve:
      serializedVersion: 2
      m_Curve:
      - time: 0
        value: {x: 1, y: 1, z: 1}
        inSlope: {x: 0, y: -7.770084, z: 0}
        outSlope: {x: 0, y: -7.770084, z: 0}
        tangentMode: 0
      - time: 0.05
        value: {x: 1, y: 0.6114958, z: 1}
        inSlope: {x: 0, y: -2.825485, z: 0}
        outSlope: {x: 0, y: -2.825485, z: 0}
        tangentMode: 0
      - time: 0.23333333
        value: {x: 1, y: 1, z: 1}
        inSlope: {x: 0, y: 1.059557, z: 0}
        outSlope: {x: 0, y: 1.059557, z: 0}
        tangentMode: 0
      - time: 0.36666667
        value: {x: 1, y: 1, z: 1}
        inSlope: {x: 0, y: 0, z: 0}
        outSlope: {x: 0, y: 0, z: 0}
        tangentMode: 0
      m_PreInfinity: 2
      m_PostInfinity: 2
      m_RotationOrder: 4
    path: akula_BLUE1_4/akula_BLUE1_1
  m_FloatCurves: []
  m_PPtrCurves: []
  m_SampleRate: 60
  m_WrapMode: 0
  m_Bounds:
    m_Center: {x: 0, y: 0, z: 0}
    m_Extent: {x: 0, y: 0, z: 0}
  m_ClipBindingConstant:
    genericBindings:
    - path: 554384082
      attribute: 1
      script: {fileID: 0}
      classID: 4
      customType: 0
      isPPtrCurve: 0
    - path: 77269461
      attribute: 1
      script: {fileID: 0}
      classID: 4
      customType: 0
      isPPtrCurve: 0
    - path: 1443629636
      attribute: 1
      script: {fileID: 0}
      classID: 4
      customType: 0
      isPPtrCurve: 0
    - path: 3362299879
      attribute: 1
      script: {fileID: 0}
      classID: 4
      customType: 0
      isPPtrCurve: 0
    - path: 3211767665
      attribute: 1
      script: {fileID: 0}
      classID: 4
      customType: 0
      isPPtrCurve: 0
    - path: 644284107
      attribute: 1
      script: {fileID: 0}
      classID: 4
      customType: 0
      isPPtrCurve: 0
    - path: 3866157989
      attribute: 1
      script: {fileID: 0}
      classID: 4
      customType: 0
      isPPtrCurve: 0
    - path: 2440549171
      attribute: 1
      script: {fileID: 0}
      classID: 4
      customType: 0
      isPPtrCurve: 0
    - path: 554384082
      attribute: 4
      script: {fileID: 0}
      classID: 4
      customType: 14
      isPPtrCurve: 0
    - path: 77269461
      attribute: 4
      script: {fileID: 0}
      classID: 4
      customType: 14
      isPPtrCurve: 0
    - path: 1443629636
      attribute: 4
      script: {fileID: 0}
      classID: 4
      customType: 14
      isPPtrCurve: 0
    - path: 3362299879
      attribute: 4
      script: {fileID: 0}
      classID: 4
      customType: 14
      isPPtrCurve: 0
    - path: 3211767665
      attribute: 4
      script: {fileID: 0}
      classID: 4
      customType: 14
      isPPtrCurve: 0
    - path: 644284107
      attribute: 4
      script: {fileID: 0}
      classID: 4
      customType: 14
      isPPtrCurve: 0
    - path: 554384082
      attribute: 3
      script: {fileID: 0}
      classID: 4
      customType: 0
      isPPtrCurve: 0
    - path: 1443629636
      attribute: 3
      script: {fileID: 0}
      classID: 4
      customType: 0
      isPPtrCurve: 0
    - path: 3866157989
      attribute: 3
      script: {fileID: 0}
      classID: 4
      customType: 0
      isPPtrCurve: 0
    - path: 2440549171
      attribute: 3
      script: {fileID: 0}
      classID: 4
      customType: 0
      isPPtrCurve: 0
    - path: 77269461
      attribute: 3
      script: {fileID: 0}
      classID: 4
      customType: 0
      isPPtrCurve: 0
    - path: 3362299879
      attribute: 3
      script: {fileID: 0}
      classID: 4
      customType: 0
      isPPtrCurve: 0
    - path: 3211767665
      attribute: 3
      script: {fileID: 0}
      classID: 4
      customType: 0
      isPPtrCurve: 0
    - path: 644284107
      attribute: 3
      script: {fileID: 0}
      classID: 4
      customType: 0
      isPPtrCurve: 0
    pptrCurveMapping: []
  m_AnimationClipSettings:
    serializedVersion: 2
    m_AdditiveReferencePoseClip: {fileID: 0}
    m_AdditiveReferencePoseTime: 0
    m_StartTime: 0
    m_StopTime: 0.36666667
    m_OrientationOffsetY: 0
    m_Level: 0
    m_CycleOffset: 0
    m_HasAdditiveReferencePose: 0
    m_LoopTime: 1
    m_LoopBlend: 0
    m_LoopBlendOrientation: 0
    m_LoopBlendPositionY: 0
    m_LoopBlendPositionXZ: 0
    m_KeepOriginalOrientation: 0
    m_KeepOriginalPositionY: 1
    m_KeepOriginalPositionXZ: 0
    m_HeightFromFeet: 0
    m_Mirror: 0
  m_EditorCurves:
  - curve:
      serializedVersion: 2
      m_Curve:
      - time: 0
        value: 3.26
        inSlope: -3.6000013
        outSlope: -3.6000013
        tangentMode: 10
      - time: 0.05
        value: 3.08
        inSlope: -1.2545459
        outSlope: -1.2545459
        tangentMode: 10
      - time: 0.23333333
        value: 3.28
        inSlope: 0.47045475
        outSlope: 0.47045475
        tangentMode: 10
      - time: 0.36666667
        value: 3.26
        inSlope: -0.14999984
        outSlope: -0.14999984
        tangentMode: 10
      m_PreInfinity: 2
      m_PostInfinity: 2
      m_RotationOrder: 4
    attribute: m_LocalPosition.x
    path: akula_BLUE1_2
    classID: 4
    script: {fileID: 0}
  - curve:
      serializedVersion: 2
      m_Curve:
      - time: 0
        value: 0.05
        inSlope: -1.8000001
        outSlope: -1.8000001
        tangentMode: 10
      - time: 0.05
        value: -0.04
        inSlope: -0.70909095
        outSlope: -0.70909095
        tangentMode: 10
      - time: 0.23333333
        value: 0.03
        inSlope: 0.26590908
        outSlope: 0.26590908
        tangentMode: 10
      - time: 0.36666667
        value: 0.05
        inSlope: 0.15
        outSlope: 0.15
        tangentMode: 10
      m_PreInfinity: 2
      m_PostInfinity: 2
      m_RotationOrder: 4
    attribute: m_LocalPosition.y
    path: akula_BLUE1_2
    classID: 4
    script: {fileID: 0}
  - curve:
      serializedVersion: 2
      m_Curve:
      - time: 0
        value: 0
        inSlope: 0
        outSlope: 0
        tangentMode: 10
      - time: 0.05
        value: 0
        inSlope: 0
        outSlope: 0
        tangentMode: 10
      - time: 0.23333333
        value: 0
        inSlope: 0
        outSlope: 0
        tangentMode: 10
      - time: 0.36666667
        value: 0
        inSlope: 0
        outSlope: 0
        tangentMode: 10
      m_PreInfinity: 2
      m_PostInfinity: 2
      m_RotationOrder: 4
    attribute: m_LocalPosition.z
    path: akula_BLUE1_2
    classID: 4
    script: {fileID: 0}
  - curve:
      serializedVersion: 2
      m_Curve:
      - time: 0
        value: 0
        inSlope: 0
        outSlope: 0
        tangentMode: 10
      - time: 0.05
        value: 0
        inSlope: 0
        outSlope: 0
        tangentMode: 10
      - time: 0.23333333
        value: 0
        inSlope: 0
        outSlope: 0
        tangentMode: 10
      - time: 0.36666667
        value: 0
        inSlope: 0
        outSlope: 0
        tangentMode: 10
      m_PreInfinity: 2
      m_PostInfinity: 2
      m_RotationOrder: 4
    attribute: localEulerAnglesRaw.x
    path: akula_BLUE1_2
    classID: 4
    script: {fileID: 0}
  - curve:
      serializedVersion: 2
      m_Curve:
      - time: 0
        value: 0
        inSlope: 0
        outSlope: 0
        tangentMode: 10
      - time: 0.05
        value: 0
        inSlope: 0
        outSlope: 0
        tangentMode: 10
      - time: 0.23333333
        value: 0
        inSlope: 0
        outSlope: 0
        tangentMode: 10
      - time: 0.36666667
        value: 0
        inSlope: 0
        outSlope: 0
        tangentMode: 10
      m_PreInfinity: 2
      m_PostInfinity: 2
      m_RotationOrder: 4
    attribute: localEulerAnglesRaw.y
    path: akula_BLUE1_2
    classID: 4
    script: {fileID: 0}
  - curve:
      serializedVersion: 2
      m_Curve:
      - time: 0
        value: 0
        inSlope: 0
        outSlope: 0
        tangentMode: 10
      - time: 0.05
        value: 0
        inSlope: -13.061454
        outSlope: -13.061454
        tangentMode: 10
      - time: 0.23333333
        value: -4.7892
        inSlope: 4.8980455
        outSlope: 4.8980455
        tangentMode: 10
      - time: 0.36666667
        value: 0
        inSlope: 35.919
        outSlope: 35.919
        tangentMode: 10
      m_PreInfinity: 2
      m_PostInfinity: 2
      m_RotationOrder: 4
    attribute: localEulerAnglesRaw.z
    path: akula_BLUE1_2
    classID: 4
    script: {fileID: 0}
  - curve:
      serializedVersion: 2
      m_Curve:
      - time: 0
        value: 1
        inSlope: 0
        outSlope: 0
        tangentMode: 10
      - time: 0.05
        value: 1
        inSlope: 0
        outSlope: 0
        tangentMode: 10
      - time: 0.23333333
        value: 1
        inSlope: 0
        outSlope: 0
        tangentMode: 10
      - time: 0.36666667
        value: 1
        inSlope: 0
        outSlope: 0
        tangentMode: 10
      m_PreInfinity: 2
      m_PostInfinity: 2
      m_RotationOrder: 4
    attribute: m_LocalScale.x
    path: akula_BLUE1_2
    classID: 4
    script: {fileID: 0}
  - curve:
      serializedVersion: 2
      m_Curve:
      - time: 0
        value: 1
        inSlope: -0.47819257
        outSlope: -0.47819257
        tangentMode: 10
      - time: 0.05
        value: 0.9760904
        inSlope: -0.18098484
        outSlope: -0.18098484
        tangentMode: 10
      - time: 0.23333333
        value: 0.9973979
        inSlope: 0.06786931
        outSlope: 0.06786931
        tangentMode: 10
      - time: 0.36666667
        value: 1
        inSlope: 0.01951575
        outSlope: 0.01951575
        tangentMode: 10
      m_PreInfinity: 2
      m_PostInfinity: 2
      m_RotationOrder: 4
    attribute: m_LocalScale.y
    path: akula_BLUE1_2
    classID: 4
    script: {fileID: 0}
  - curve:
      serializedVersion: 2
      m_Curve:
      - time: 0
        value: 1
        inSlope: 0
        outSlope: 0
        tangentMode: 10
      - time: 0.05
        value: 1
        inSlope: 0
        outSlope: 0
        tangentMode: 10
      - time: 0.23333333
        value: 1
        inSlope: 0
        outSlope: 0
        tangentMode: 10
      - time: 0.36666667
        value: 1
        inSlope: 0
        outSlope: 0
        tangentMode: 10
      m_PreInfinity: 2
      m_PostInfinity: 2
      m_RotationOrder: 4
    attribute: m_LocalScale.z
    path: akula_BLUE1_2
    classID: 4
    script: {fileID: 0}
  - curve:
      serializedVersion: 2
      m_Curve:
      - time: 0
        value: 2.05
        inSlope: 0.0000047683716
        outSlope: 0.0000047683716
        tangentMode: 10
      - time: 0.05
        value: 2.0500002
        inSlope: 0.0000023841858
        outSlope: 0.0000023841858
        tangentMode: 10
      - time: 0.23333333
        value: 2.0500002
        inSlope: -0.0000008940696
        outSlope: -0.0000008940696
        tangentMode: 10
      - time: 0.36666667
        value: 2.05
        inSlope: -0.0000017881392
        outSlope: -0.0000017881392
        tangentMode: 10
      m_PreInfinity: 2
      m_PostInfinity: 2
      m_RotationOrder: 4
    attribute: m_LocalPosition.x
    path: akula_BLUE1_3 (1)
    classID: 4
    script: {fileID: 0}
  - curve:
      serializedVersion: 2
      m_Curve:
      - time: 0
        value: -0.59
        inSlope: -0.0000035762787
        outSlope: -0.0000035762787
        tangentMode: 10
      - time: 0.05
        value: -0.59000015
        inSlope: -0.0000017881393
        outSlope: -0.0000017881393
        tangentMode: 10
      - time: 0.23333333
        value: -0.59000015
        inSlope: 0.0000006705522
        outSlope: 0.0000006705522
        tangentMode: 10
      - time: 0.36666667
        value: -0.59
        inSlope: 0.0000013411044
        outSlope: 0.0000013411044
        tangentMode: 10
      m_PreInfinity: 2
      m_PostInfinity: 2
      m_RotationOrder: 4
    attribute: m_LocalPosition.y
    path: akula_BLUE1_3 (1)
    classID: 4
    script: {fileID: 0}
  - curve:
      serializedVersion: 2
      m_Curve:
      - time: 0
        value: 0
        inSlope: 0
        outSlope: 0
        tangentMode: 10
      - time: 0.05
        value: 0
        inSlope: 0
        outSlope: 0
        tangentMode: 10
      - time: 0.23333333
        value: 0
        inSlope: 0
        outSlope: 0
        tangentMode: 10
      - time: 0.36666667
        value: 0
        inSlope: 0
        outSlope: 0
        tangentMode: 10
      m_PreInfinity: 2
      m_PostInfinity: 2
      m_RotationOrder: 4
    attribute: m_LocalPosition.z
    path: akula_BLUE1_3 (1)
    classID: 4
    script: {fileID: 0}
  - curve:
      serializedVersion: 2
      m_Curve:
      - time: 0
        value: 0
        inSlope: 0
        outSlope: 0
        tangentMode: 10
      - time: 0.05
        value: 0
        inSlope: 0
        outSlope: 0
        tangentMode: 10
      - time: 0.23333333
        value: 0
        inSlope: 0
        outSlope: 0
        tangentMode: 10
      - time: 0.36666667
        value: 0
        inSlope: 0
        outSlope: 0
        tangentMode: 10
      m_PreInfinity: 2
      m_PostInfinity: 2
      m_RotationOrder: 4
    attribute: localEulerAnglesRaw.x
    path: akula_BLUE1_3 (1)
    classID: 4
    script: {fileID: 0}
  - curve:
      serializedVersion: 2
      m_Curve:
      - time: 0
        value: 0
        inSlope: 0
        outSlope: 0
        tangentMode: 10
      - time: 0.05
        value: 0
        inSlope: 0
        outSlope: 0
        tangentMode: 10
      - time: 0.23333333
        value: 0
        inSlope: 0
        outSlope: 0
        tangentMode: 10
      - time: 0.36666667
        value: 0
        inSlope: 0
        outSlope: 0
        tangentMode: 10
      m_PreInfinity: 2
      m_PostInfinity: 2
      m_RotationOrder: 4
    attribute: localEulerAnglesRaw.y
    path: akula_BLUE1_3 (1)
    classID: 4
    script: {fileID: 0}
  - curve:
      serializedVersion: 2
      m_Curve:
      - time: 0
        value: -150.83119
        inSlope: 760.5778
        outSlope: 760.5778
        tangentMode: 10
      - time: 0.05
        value: -112.8023
        inSlope: 199.56729
        outSlope: 199.56729
        tangentMode: 10
      - time: 0.23333333
        value: -179.0669
        inSlope: -74.83774
        outSlope: -74.83774
        tangentMode: 10
      - time: 0.36666667
        value: -150.83119
        inSlope: 211.76776
        outSlope: 211.76776
        tangentMode: 10
      m_PreInfinity: 2
      m_PostInfinity: 2
      m_RotationOrder: 4
    attribute: localEulerAnglesRaw.z
    path: akula_BLUE1_3 (1)
    classID: 4
    script: {fileID: 0}
  - curve:
      serializedVersion: 2
      m_Curve:
      - time: 0
        value: 1.1218846
        inSlope: 0
        outSlope: 0
        tangentMode: 10
      - time: 0.05
        value: 1.1218846
        inSlope: 0
        outSlope: 0
        tangentMode: 10
      - time: 0.23333333
        value: 1.1218846
        inSlope: 0
        outSlope: 0
        tangentMode: 10
      - time: 0.36666667
        value: 1.1218846
        inSlope: 0
        outSlope: 0
        tangentMode: 10
      m_PreInfinity: 2
      m_PostInfinity: 2
      m_RotationOrder: 4
    attribute: m_LocalScale.x
    path: akula_BLUE1_3 (1)
    classID: 4
    script: {fileID: 0}
  - curve:
      serializedVersion: 2
      m_Curve:
      - time: 0
        value: 0.46308652
        inSlope: 0
        outSlope: 0
        tangentMode: 10
      - time: 0.05
        value: 0.46308652
        inSlope: 0
        outSlope: 0
        tangentMode: 10
      - time: 0.23333333
        value: 0.46308652
        inSlope: 0
        outSlope: 0
        tangentMode: 10
      - time: 0.36666667
        value: 0.46308652
        inSlope: 0
        outSlope: 0
        tangentMode: 10
      m_PreInfinity: 2
      m_PostInfinity: 2
      m_RotationOrder: 4
    attribute: m_LocalScale.y
    path: akula_BLUE1_3 (1)
    classID: 4
    script: {fileID: 0}
  - curve:
      serializedVersion: 2
      m_Curve:
      - time: 0
        value: 1
        inSlope: 0
        outSlope: 0
        tangentMode: 10
      - time: 0.05
        value: 1
        inSlope: 0
        outSlope: 0
        tangentMode: 10
      - time: 0.23333333
        value: 1
        inSlope: 0
        outSlope: 0
        tangentMode: 10
      - time: 0.36666667
        value: 1
        inSlope: 0
        outSlope: 0
        tangentMode: 10
      m_PreInfinity: 2
      m_PostInfinity: 2
      m_RotationOrder: 4
    attribute: m_LocalScale.z
    path: akula_BLUE1_3 (1)
    classID: 4
    script: {fileID: 0}
  - curve:
      serializedVersion: 2
      m_Curve:
      - time: 0
        value: 2.75
        inSlope: -0.20000458
        outSlope: -0.20000458
        tangentMode: 10
      - time: 0.05
        value: 2.7399998
        inSlope: 0.19999808
        outSlope: 0.19999808
        tangentMode: 10
      - time: 0.23333333
        value: 2.85
        inSlope: -0.07499924
        outSlope: -0.07499924
        tangentMode: 10
      - time: 0.36666667
        value: 2.75
        inSlope: -0.7499992
        outSlope: -0.7499992
        tangentMode: 10
      m_PreInfinity: 2
      m_PostInfinity: 2
      m_RotationOrder: 4
    attribute: m_LocalPosition.x
    path: akula_BLUE1_3
    classID: 4
    script: {fileID: 0}
  - curve:
      serializedVersion: 2
      m_Curve:
      - time: 0
        value: -0.75
        inSlope: 0.40000916
        outSlope: 0.40000916
        tangentMode: 10
      - time: 0.05
        value: -0.72999954
        inSlope: 0.60909444
        outSlope: 0.60909444
        tangentMode: 10
      - time: 0.23333333
        value: -0.5799999
        inSlope: -0.22841036
        outSlope: -0.22841036
        tangentMode: 10
      - time: 0.36666667
        value: -0.75
        inSlope: -1.2750005
        outSlope: -1.2750005
        tangentMode: 10
      m_PreInfinity: 2
      m_PostInfinity: 2
      m_RotationOrder: 4
    attribute: m_LocalPosition.y
    path: akula_BLUE1_3
    classID: 4
    script: {fileID: 0}
  - curve:
      serializedVersion: 2
      m_Curve:
      - time: 0
        value: 0
        inSlope: 0
        outSlope: 0
        tangentMode: 10
      - time: 0.05
        value: 0
        inSlope: 0
        outSlope: 0
        tangentMode: 10
      - time: 0.23333333
        value: 0
        inSlope: 0
        outSlope: 0
        tangentMode: 10
      - time: 0.36666667
        value: 0
        inSlope: 0
        outSlope: 0
        tangentMode: 10
      m_PreInfinity: 2
      m_PostInfinity: 2
      m_RotationOrder: 4
    attribute: m_LocalPosition.z
    path: akula_BLUE1_3
    classID: 4
    script: {fileID: 0}
  - curve:
      serializedVersion: 2
      m_Curve:
      - time: 0
        value: 0
        inSlope: 0
        outSlope: 0
        tangentMode: 10
      - time: 0.05
        value: 0
        inSlope: 0
        outSlope: 0
        tangentMode: 10
      - time: 0.23333333
        value: 0
        inSlope: 0
        outSlope: 0
        tangentMode: 10
      - time: 0.36666667
        value: 0
        inSlope: 0
        outSlope: 0
        tangentMode: 10
      m_PreInfinity: 2
      m_PostInfinity: 2
      m_RotationOrder: 4
    attribute: localEulerAnglesRaw.x
    path: akula_BLUE1_3
    classID: 4
    script: {fileID: 0}
  - curve:
      serializedVersion: 2
      m_Curve:
      - time: 0
        value: 0
        inSlope: 0
        outSlope: 0
        tangentMode: 10
      - time: 0.05
        value: 0
        inSlope: 0
        outSlope: 0
        tangentMode: 10
      - time: 0.23333333
        value: 0
        inSlope: 0
        outSlope: 0
        tangentMode: 10
      - time: 0.36666667
        value: 0
        inSlope: 0
        outSlope: 0
        tangentMode: 10
      m_PreInfinity: 2
      m_PostInfinity: 2
      m_RotationOrder: 4
    attribute: localEulerAnglesRaw.y
    path: akula_BLUE1_3
    classID: 4
    script: {fileID: 0}
  - curve:
      serializedVersion: 2
      m_Curve:
      - time: 0
        value: -57.309097
        inSlope: 324.39194
        outSlope: 324.39194
        tangentMode: 10
      - time: 0.05
        value: -41.0895
        inSlope: 28.478058
        outSlope: 28.478058
        tangentMode: 10
      - time: 0.23333333
        value: -90.1194
        inSlope: -10.679283
        outSlope: -10.679283
        tangentMode: 10
      - time: 0.36666667
        value: -57.309097
        inSlope: 246.07726
        outSlope: 246.07726
        tangentMode: 10
      m_PreInfinity: 2
      m_PostInfinity: 2
      m_RotationOrder: 4
    attribute: localEulerAnglesRaw.z
    path: akula_BLUE1_3
    classID: 4
    script: {fileID: 0}
  - curve:
      serializedVersion: 2
      m_Curve:
      - time: 0
        value: 1.1218846
        inSlope: -2.253015
        outSlope: -2.253015
        tangentMode: 10
      - time: 0.05
        value: 1.0092338
        inSlope: -2.021629
        outSlope: -2.021629
        tangentMode: 10
      - time: 0.23333333
        value: 0.6810226
        inSlope: 0.7581109
        outSlope: 0.7581109
        tangentMode: 10
      - time: 0.36666667
        value: 1.1218846
        inSlope: 3.306465
        outSlope: 3.306465
        tangentMode: 10
      m_PreInfinity: 2
      m_PostInfinity: 2
      m_RotationOrder: 4
    attribute: m_LocalScale.x
    path: akula_BLUE1_3
    classID: 4
    script: {fileID: 0}
  - curve:
      serializedVersion: 2
      m_Curve:
      - time: 0
        value: 0.8203156
        inSlope: 0
        outSlope: 0
        tangentMode: 10
      - time: 0.05
        value: 0.8203156
        inSlope: 0.7218504
        outSlope: 0.7218504
        tangentMode: 10
      - time: 0.23333333
        value: 1.0849941
        inSlope: -0.27069384
        outSlope: -0.27069384
        tangentMode: 10
      - time: 0.36666667
        value: 0.8203156
        inSlope: -1.9850885
        outSlope: -1.9850885
        tangentMode: 10
      m_PreInfinity: 2
      m_PostInfinity: 2
      m_RotationOrder: 4
    attribute: m_LocalScale.y
    path: akula_BLUE1_3
    classID: 4
    script: {fileID: 0}
  - curve:
      serializedVersion: 2
      m_Curve:
      - time: 0
        value: 1
        inSlope: 0
        outSlope: 0
        tangentMode: 10
      - time: 0.05
        value: 1
        inSlope: 0
        outSlope: 0
        tangentMode: 10
      - time: 0.23333333
        value: 1
        inSlope: 0
        outSlope: 0
        tangentMode: 10
      - time: 0.36666667
        value: 1
        inSlope: 0
        outSlope: 0
        tangentMode: 10
      m_PreInfinity: 2
      m_PostInfinity: 2
      m_RotationOrder: 4
    attribute: m_LocalScale.z
    path: akula_BLUE1_3
    classID: 4
    script: {fileID: 0}
  - curve:
      serializedVersion: 2
      m_Curve:
      - time: 0
        value: 1.689
        inSlope: 0.0000023841858
        outSlope: 0.0000023841858
        tangentMode: 10
      - time: 0.05
        value: 1.6890001
        inSlope: -0.18818097
        outSlope: -0.18818097
        tangentMode: 10
      - time: 0.23333333
        value: 1.62
        inSlope: 0.07056786
        outSlope: 0.07056786
        tangentMode: 10
      - time: 0.36666667
        value: 1.689
        inSlope: 0.51750004
        outSlope: 0.51750004
        tangentMode: 10
      m_PreInfinity: 2
      m_PostInfinity: 2
      m_RotationOrder: 4
    attribute: m_LocalPosition.x
    path: akula_BLUE1_4
    classID: 4
    script: {fileID: 0}
  - curve:
      serializedVersion: 2
      m_Curve:
      - time: 0
        value: -0.06
        inSlope: -5.2
        outSlope: -5.2
        tangentMode: 10
      - time: 0.05
        value: -0.32
        inSlope: -1.4272727
        outSlope: -1.4272727
        tangentMode: 10
      - time: 0.23333333
        value: 0.11
        inSlope: 0.53522724
        outSlope: 0.53522724
        tangentMode: 10
      - time: 0.36666667
        value: -0.06
        inSlope: -1.275
        outSlope: -1.275
        tangentMode: 10
      m_PreInfinity: 2
      m_PostInfinity: 2
      m_RotationOrder: 4
    attribute: m_LocalPosition.y
    path: akula_BLUE1_4
    classID: 4
    script: {fileID: 0}
  - curve:
      serializedVersion: 2
      m_Curve:
      - time: 0
        value: 0
        inSlope: 0
        outSlope: 0
        tangentMode: 10
      - time: 0.05
        value: 0
        inSlope: 0
        outSlope: 0
        tangentMode: 10
      - time: 0.23333333
        value: 0
        inSlope: 0
        outSlope: 0
        tangentMode: 10
      - time: 0.36666667
        value: 0
        inSlope: 0
        outSlope: 0
        tangentMode: 10
      m_PreInfinity: 2
      m_PostInfinity: 2
      m_RotationOrder: 4
    attribute: m_LocalPosition.z
    path: akula_BLUE1_4
    classID: 4
    script: {fileID: 0}
  - curve:
      serializedVersion: 2
      m_Curve:
      - time: 0
        value: 0
        inSlope: 0
        outSlope: 0
        tangentMode: 10
      - time: 0.05
        value: 0
        inSlope: 0
        outSlope: 0
        tangentMode: 10
      - time: 0.23333333
        value: 0
        inSlope: 0
        outSlope: 0
        tangentMode: 10
      - time: 0.36666667
        value: 0
        inSlope: 0
        outSlope: 0
        tangentMode: 10
      m_PreInfinity: 2
      m_PostInfinity: 2
      m_RotationOrder: 4
    attribute: localEulerAnglesRaw.x
    path: akula_BLUE1_4
    classID: 4
    script: {fileID: 0}
  - curve:
      serializedVersion: 2
      m_Curve:
      - time: 0
        value: 0
        inSlope: 0
        outSlope: 0
        tangentMode: 10
      - time: 0.05
        value: 0
        inSlope: 0
        outSlope: 0
        tangentMode: 10
      - time: 0.23333333
        value: 0
        inSlope: 0
        outSlope: 0
        tangentMode: 10
      - time: 0.36666667
        value: 0
        inSlope: 0
        outSlope: 0
        tangentMode: 10
      m_PreInfinity: 2
      m_PostInfinity: 2
      m_RotationOrder: 4
    attribute: localEulerAnglesRaw.y
    path: akula_BLUE1_4
    classID: 4
    script: {fileID: 0}
  - curve:
      serializedVersion: 2
      m_Curve:
      - time: 0
        value: 0
        inSlope: 245.746
        outSlope: 245.746
        tangentMode: 10
      - time: 0.05
        value: 12.2873
        inSlope: 65.15791
        outSlope: 65.15791
        tangentMode: 10
      - time: 0.23333333
        value: -8.8749
        inSlope: -24.43422
        outSlope: -24.43422
        tangentMode: 10
      - time: 0.36666667
        value: 0
        inSlope: 66.561745
        outSlope: 66.561745
        tangentMode: 10
      m_PreInfinity: 2
      m_PostInfinity: 2
      m_RotationOrder: 4
    attribute: localEulerAnglesRaw.z
    path: akula_BLUE1_4
    classID: 4
    script: {fileID: 0}
  - curve:
      serializedVersion: 2
      m_Curve:
      - time: 0
        value: 1
        inSlope: 0
        outSlope: 0
        tangentMode: 10
      - time: 0.05
        value: 1
        inSlope: 0
        outSlope: 0
        tangentMode: 10
      - time: 0.23333333
        value: 1
        inSlope: 0
        outSlope: 0
        tangentMode: 10
      - time: 0.36666667
        value: 1
        inSlope: 0
        outSlope: 0
        tangentMode: 10
      m_PreInfinity: 2
      m_PostInfinity: 2
      m_RotationOrder: 4
    attribute: m_LocalScale.x
    path: akula_BLUE1_4
    classID: 4
    script: {fileID: 0}
  - curve:
      serializedVersion: 2
      m_Curve:
      - time: 0
        value: 1
        inSlope: 0
        outSlope: 0
        tangentMode: 10
      - time: 0.05
        value: 1
        inSlope: 0
        outSlope: 0
        tangentMode: 10
      - time: 0.23333333
        value: 1
        inSlope: 0
        outSlope: 0
        tangentMode: 10
      - time: 0.36666667
        value: 1
        inSlope: 0
        outSlope: 0
        tangentMode: 10
      m_PreInfinity: 2
      m_PostInfinity: 2
      m_RotationOrder: 4
    attribute: m_LocalScale.y
    path: akula_BLUE1_4
    classID: 4
    script: {fileID: 0}
  - curve:
      serializedVersion: 2
      m_Curve:
      - time: 0
        value: 1
        inSlope: 0
        outSlope: 0
        tangentMode: 10
      - time: 0.05
        value: 1
        inSlope: 0
        outSlope: 0
        tangentMode: 10
      - time: 0.23333333
        value: 1
        inSlope: 0
        outSlope: 0
        tangentMode: 10
      - time: 0.36666667
        value: 1
        inSlope: 0
        outSlope: 0
        tangentMode: 10
      m_PreInfinity: 2
      m_PostInfinity: 2
      m_RotationOrder: 4
    attribute: m_LocalScale.z
    path: akula_BLUE1_4
    classID: 4
    script: {fileID: 0}
  - curve:
      serializedVersion: 2
      m_Curve:
      - time: 0
        value: 4.048
        inSlope: -5.159998
        outSlope: -5.159998
        tangentMode: 10
      - time: 0.05
        value: 3.79
        inSlope: -2.1163623
        outSlope: -2.1163623
        tangentMode: 10
      - time: 0.23333333
        value: 3.96
        inSlope: 0.79363585
        outSlope: 0.79363585
        tangentMode: 10
      - time: 0.36666667
        value: 4.048
        inSlope: 0.6599986
        outSlope: 0.6599986
        tangentMode: 10
      m_PreInfinity: 2
      m_PostInfinity: 2
      m_RotationOrder: 4
    attribute: m_LocalPosition.x
    path: akula_BLUE1_5
    classID: 4
    script: {fileID: 0}
  - curve:
      serializedVersion: 2
      m_Curve:
      - time: 0
        value: -0.084
        inSlope: -1.52
        outSlope: -1.52
        tangentMode: 10
      - time: 0.05
        value: -0.16
        inSlope: -0.7054545
        outSlope: -0.7054545
        tangentMode: 10
      - time: 0.23333333
        value: -0.14
        inSlope: 0.26454544
        outSlope: 0.26454544
        tangentMode: 10
      - time: 0.36666667
        value: -0.084
        inSlope: 0.42
        outSlope: 0.42
        tangentMode: 10
      m_PreInfinity: 2
      m_PostInfinity: 2
      m_RotationOrder: 4
    attribute: m_LocalPosition.y
    path: akula_BLUE1_5
    classID: 4
    script: {fileID: 0}
  - curve:
      serializedVersion: 2
      m_Curve:
      - time: 0
        value: 0
        inSlope: 0
        outSlope: 0
        tangentMode: 10
      - time: 0.05
        value: 0
        inSlope: 0
        outSlope: 0
        tangentMode: 10
      - time: 0.23333333
        value: 0
        inSlope: 0
        outSlope: 0
        tangentMode: 10
      - time: 0.36666667
        value: 0
        inSlope: 0
        outSlope: 0
        tangentMode: 10
      m_PreInfinity: 2
      m_PostInfinity: 2
      m_RotationOrder: 4
    attribute: m_LocalPosition.z
    path: akula_BLUE1_5
    classID: 4
    script: {fileID: 0}
  - curve:
      serializedVersion: 2
      m_Curve:
      - time: 0
        value: 0
        inSlope: 0
        outSlope: 0
        tangentMode: 10
      - time: 0.05
        value: 0
        inSlope: 0
        outSlope: 0
        tangentMode: 10
      - time: 0.23333333
        value: 0
        inSlope: 0
        outSlope: 0
        tangentMode: 10
      - time: 0.36666667
        value: 0
        inSlope: 0
        outSlope: 0
        tangentMode: 10
      m_PreInfinity: 2
      m_PostInfinity: 2
      m_RotationOrder: 4
    attribute: localEulerAnglesRaw.x
    path: akula_BLUE1_5
    classID: 4
    script: {fileID: 0}
  - curve:
      serializedVersion: 2
      m_Curve:
      - time: 0
        value: 0
        inSlope: 0
        outSlope: 0
        tangentMode: 10
      - time: 0.05
        value: 0
        inSlope: 0
        outSlope: 0
        tangentMode: 10
      - time: 0.23333333
        value: 0
        inSlope: 0
        outSlope: 0
        tangentMode: 10
      - time: 0.36666667
        value: 0
        inSlope: 0
        outSlope: 0
        tangentMode: 10
      m_PreInfinity: 2
      m_PostInfinity: 2
      m_RotationOrder: 4
    attribute: localEulerAnglesRaw.y
    path: akula_BLUE1_5
    classID: 4
    script: {fileID: 0}
  - curve:
      serializedVersion: 2
      m_Curve:
      - time: 0
        value: 0
        inSlope: -88.21999
        outSlope: -88.21999
        tangentMode: 10
      - time: 0.05
        value: -4.411
        inSlope: -24.040815
        outSlope: -24.040815
        tangentMode: 10
      - time: 0.23333333
        value: 2.9477
        inSlope: 9.015306
        outSlope: 9.015306
        tangentMode: 10
      - time: 0.36666667
        value: 0
        inSlope: -22.10775
        outSlope: -22.10775
        tangentMode: 10
      m_PreInfinity: 2
      m_PostInfinity: 2
      m_RotationOrder: 4
    attribute: localEulerAnglesRaw.z
    path: akula_BLUE1_5
    classID: 4
    script: {fileID: 0}
  - curve:
      serializedVersion: 2
      m_Curve:
      - time: 0
        value: 1
        inSlope: 0
        outSlope: 0
        tangentMode: 10
      - time: 0.05
        value: 1
        inSlope: 0
        outSlope: 0
        tangentMode: 10
      - time: 0.23333333
        value: 1
        inSlope: 0
        outSlope: 0
        tangentMode: 10
      - time: 0.36666667
        value: 1
        inSlope: 0
        outSlope: 0
        tangentMode: 10
      m_PreInfinity: 2
      m_PostInfinity: 2
      m_RotationOrder: 4
    attribute: m_LocalScale.x
    path: akula_BLUE1_5
    classID: 4
    script: {fileID: 0}
  - curve:
      serializedVersion: 2
      m_Curve:
      - time: 0
        value: 1
        inSlope: 0
        outSlope: 0
        tangentMode: 10
      - time: 0.05
        value: 1
        inSlope: 0
        outSlope: 0
        tangentMode: 10
      - time: 0.23333333
        value: 1
        inSlope: 0
        outSlope: 0
        tangentMode: 10
      - time: 0.36666667
        value: 1
        inSlope: 0
        outSlope: 0
        tangentMode: 10
      m_PreInfinity: 2
      m_PostInfinity: 2
      m_RotationOrder: 4
    attribute: m_LocalScale.y
    path: akula_BLUE1_5
    classID: 4
    script: {fileID: 0}
  - curve:
      serializedVersion: 2
      m_Curve:
      - time: 0
        value: 1
        inSlope: 0
        outSlope: 0
        tangentMode: 10
      - time: 0.05
        value: 1
        inSlope: 0
        outSlope: 0
        tangentMode: 10
      - time: 0.23333333
        value: 1
        inSlope: 0
        outSlope: 0
        tangentMode: 10
      - time: 0.36666667
        value: 1
        inSlope: 0
        outSlope: 0
        tangentMode: 10
      m_PreInfinity: 2
      m_PostInfinity: 2
      m_RotationOrder: 4
    attribute: m_LocalScale.z
    path: akula_BLUE1_5
    classID: 4
    script: {fileID: 0}
  - curve:
      serializedVersion: 2
      m_Curve:
      - time: 0
        value: 6.774
        inSlope: -6.2800026
        outSlope: -6.2800026
        tangentMode: 10
      - time: 0.05
        value: 6.46
        inSlope: -2.5945473
        outSlope: -2.5945473
        tangentMode: 10
      - time: 0.23333333
        value: 6.66
        inSlope: 0.9729552
        outSlope: 0.9729552
        tangentMode: 10
      - time: 0.36666667
        value: 6.774
        inSlope: 0.85500234
        outSlope: 0.85500234
        tangentMode: 10
      m_PreInfinity: 2
      m_PostInfinity: 2
      m_RotationOrder: 4
    attribute: m_LocalPosition.x
    path: akula_BLUE1_6
    classID: 4
    script: {fileID: 0}
  - curve:
      serializedVersion: 2
      m_Curve:
      - time: 0
        value: -0.281
        inSlope: -5.180001
        outSlope: -5.180001
        tangentMode: 10
      - time: 0.05
        value: -0.54
        inSlope: -1.717273
        outSlope: -1.717273
        tangentMode: 10
      - time: 0.23333333
        value: -0.22
        inSlope: 0.6439774
        outSlope: 0.6439774
        tangentMode: 10
      - time: 0.36666667
        value: -0.281
        inSlope: -0.4574999
        outSlope: -0.4574999
        tangentMode: 10
      m_PreInfinity: 2
      m_PostInfinity: 2
      m_RotationOrder: 4
    attribute: m_LocalPosition.y
    path: akula_BLUE1_6
    classID: 4
    script: {fileID: 0}
  - curve:
      serializedVersion: 2
      m_Curve:
      - time: 0
        value: 0
        inSlope: 0
        outSlope: 0
        tangentMode: 10
      - time: 0.05
        value: 0
        inSlope: 0
        outSlope: 0
        tangentMode: 10
      - time: 0.23333333
        value: 0
        inSlope: 0
        outSlope: 0
        tangentMode: 10
      - time: 0.36666667
        value: 0
        inSlope: 0
        outSlope: 0
        tangentMode: 10
      m_PreInfinity: 2
      m_PostInfinity: 2
      m_RotationOrder: 4
    attribute: m_LocalPosition.z
    path: akula_BLUE1_6
    classID: 4
    script: {fileID: 0}
  - curve:
      serializedVersion: 2
      m_Curve:
      - time: 0
        value: 0
        inSlope: 0
        outSlope: 0
        tangentMode: 10
      - time: 0.05
        value: 0
        inSlope: 0
        outSlope: 0
        tangentMode: 10
      - time: 0.23333333
        value: 0
        inSlope: 0
        outSlope: 0
        tangentMode: 10
      - time: 0.36666667
        value: 0
        inSlope: 0
        outSlope: 0
        tangentMode: 10
      m_PreInfinity: 2
      m_PostInfinity: 2
      m_RotationOrder: 4
    attribute: localEulerAnglesRaw.x
    path: akula_BLUE1_6
    classID: 4
    script: {fileID: 0}
  - curve:
      serializedVersion: 2
      m_Curve:
      - time: 0
        value: 0
        inSlope: 0
        outSlope: 0
        tangentMode: 10
      - time: 0.05
        value: 0
        inSlope: 0
        outSlope: 0
        tangentMode: 10
      - time: 0.23333333
        value: 0
        inSlope: 0
        outSlope: 0
        tangentMode: 10
      - time: 0.36666667
        value: 0
        inSlope: 0
        outSlope: 0
        tangentMode: 10
      m_PreInfinity: 2
      m_PostInfinity: 2
      m_RotationOrder: 4
    attribute: localEulerAnglesRaw.y
    path: akula_BLUE1_6
    classID: 4
    script: {fileID: 0}
  - curve:
      serializedVersion: 2
      m_Curve:
      - time: 0
        value: 0
        inSlope: 224.18399
        outSlope: 224.18399
        tangentMode: 10
      - time: 0.05
        value: 11.2092
        inSlope: 43.88645
        outSlope: 43.88645
        tangentMode: 10
      - time: 0.23333333
        value: -13.7994995
        inSlope: -16.457424
        outSlope: -16.457424
        tangentMode: 10
      - time: 0.36666667
        value: 0
        inSlope: 103.49624
        outSlope: 103.49624
        tangentMode: 10
      m_PreInfinity: 2
      m_PostInfinity: 2
      m_RotationOrder: 4
    attribute: localEulerAnglesRaw.z
    path: akula_BLUE1_6
    classID: 4
    script: {fileID: 0}
  - curve:
      serializedVersion: 2
      m_Curve:
      - time: 0
        value: 1
        inSlope: 0
        outSlope: 0
        tangentMode: 10
      - time: 0.05
        value: 1
        inSlope: 0
        outSlope: 0
        tangentMode: 10
      - time: 0.23333333
        value: 1
        inSlope: 0
        outSlope: 0
        tangentMode: 10
      - time: 0.36666667
        value: 1
        inSlope: 0
        outSlope: 0
        tangentMode: 10
      m_PreInfinity: 2
      m_PostInfinity: 2
      m_RotationOrder: 4
    attribute: m_LocalScale.x
    path: akula_BLUE1_6
    classID: 4
    script: {fileID: 0}
  - curve:
      serializedVersion: 2
      m_Curve:
      - time: 0
        value: 1
        inSlope: 0
        outSlope: 0
        tangentMode: 10
      - time: 0.05
        value: 1
        inSlope: 0
        outSlope: 0
        tangentMode: 10
      - time: 0.23333333
        value: 1
        inSlope: 0
        outSlope: 0
        tangentMode: 10
      - time: 0.36666667
        value: 1
        inSlope: 0
        outSlope: 0
        tangentMode: 10
      m_PreInfinity: 2
      m_PostInfinity: 2
      m_RotationOrder: 4
    attribute: m_LocalScale.y
    path: akula_BLUE1_6
    classID: 4
    script: {fileID: 0}
  - curve:
      serializedVersion: 2
      m_Curve:
      - time: 0
        value: 1
        inSlope: 0
        outSlope: 0
        tangentMode: 10
      - time: 0.05
        value: 1
        inSlope: 0
        outSlope: 0
        tangentMode: 10
      - time: 0.23333333
        value: 1
        inSlope: 0
        outSlope: 0
        tangentMode: 10
      - time: 0.36666667
        value: 1
        inSlope: 0
        outSlope: 0
        tangentMode: 10
      m_PreInfinity: 2
      m_PostInfinity: 2
      m_RotationOrder: 4
    attribute: m_LocalScale.z
    path: akula_BLUE1_6
    classID: 4
    script: {fileID: 0}
  - curve:
      serializedVersion: 2
      m_Curve:
      - time: 0
        value: -0.60899997
        inSlope: -0.020000935
        outSlope: -0.020000935
        tangentMode: 10
      - time: 0.05
        value: -0.61
        inSlope: -0.0072730673
        outSlope: -0.0072730673
        tangentMode: 10
      - time: 0.23333333
        value: -0.60899997
        inSlope: 0.0027274
        outSlope: 0.0027274
        tangentMode: 10
      - time: 0.36666667
        value: -0.60899997
        inSlope: 0
        outSlope: 0
        tangentMode: 10
      m_PreInfinity: 2
      m_PostInfinity: 2
      m_RotationOrder: 4
    attribute: m_LocalPosition.x
    path: akula_BLUE1_4/akula_BLUE1_0
    classID: 4
    script: {fileID: 0}
  - curve:
      serializedVersion: 2
      m_Curve:
      - time: 0
        value: 0.08
        inSlope: -1.8
        outSlope: -1.8
        tangentMode: 10
      - time: 0.05
        value: -0.01
        inSlope: -0.6545454
        outSlope: -0.6545454
        tangentMode: 10
      - time: 0.23333333
        value: 0.08
        inSlope: 0.24545453
        outSlope: 0.24545453
        tangentMode: 10
      - time: 0.36666667
        value: 0.08
        inSlope: 0
        outSlope: 0
        tangentMode: 10
      m_PreInfinity: 2
      m_PostInfinity: 2
      m_RotationOrder: 4
    attribute: m_LocalPosition.y
    path: akula_BLUE1_4/akula_BLUE1_0
    classID: 4
    script: {fileID: 0}
  - curve:
      serializedVersion: 2
      m_Curve:
      - time: 0
        value: 0
        inSlope: 0
        outSlope: 0
        tangentMode: 10
      - time: 0.05
        value: 0
        inSlope: 0
        outSlope: 0
        tangentMode: 10
      - time: 0.23333333
        value: 0
        inSlope: 0
        outSlope: 0
        tangentMode: 10
      - time: 0.36666667
        value: 0
        inSlope: 0
        outSlope: 0
        tangentMode: 10
      m_PreInfinity: 2
      m_PostInfinity: 2
      m_RotationOrder: 4
    attribute: m_LocalPosition.z
    path: akula_BLUE1_4/akula_BLUE1_0
    classID: 4
    script: {fileID: 0}
  - curve:
      serializedVersion: 2
      m_Curve:
      - time: 0
        value: 1
        inSlope: 0
        outSlope: 0
        tangentMode: 10
      - time: 0.05
        value: 1
        inSlope: 0
        outSlope: 0
        tangentMode: 10
      - time: 0.23333333
        value: 1
        inSlope: 0
        outSlope: 0
        tangentMode: 10
      - time: 0.36666667
        value: 1
        inSlope: 0
        outSlope: 0
        tangentMode: 10
      m_PreInfinity: 2
      m_PostInfinity: 2
      m_RotationOrder: 4
    attribute: m_LocalScale.x
    path: akula_BLUE1_4/akula_BLUE1_0
    classID: 4
    script: {fileID: 0}
  - curve:
      serializedVersion: 2
      m_Curve:
      - time: 0
        value: 1
        inSlope: -9.381284
        outSlope: -9.381284
        tangentMode: 10
      - time: 0.05
        value: 0.5309358
        inSlope: -2.3461134
        outSlope: -2.3461134
        tangentMode: 10
      - time: 0.23333333
        value: 1.3905963
        inSlope: 0.87979245
        outSlope: 0.87979245
        tangentMode: 10
      - time: 0.36666667
        value: 1
        inSlope: -2.929472
        outSlope: -2.929472
        tangentMode: 10
      m_PreInfinity: 2
      m_PostInfinity: 2
      m_RotationOrder: 4
    attribute: m_LocalScale.y
    path: akula_BLUE1_4/akula_BLUE1_0
    classID: 4
    script: {fileID: 0}
  - curve:
      serializedVersion: 2
      m_Curve:
      - time: 0
        value: 1
        inSlope: 0
        outSlope: 0
        tangentMode: 10
      - time: 0.05
        value: 1
        inSlope: 0
        outSlope: 0
        tangentMode: 10
      - time: 0.23333333
        value: 1
        inSlope: 0
        outSlope: 0
        tangentMode: 10
      - time: 0.36666667
        value: 1
        inSlope: 0
        outSlope: 0
        tangentMode: 10
      m_PreInfinity: 2
      m_PostInfinity: 2
      m_RotationOrder: 4
    attribute: m_LocalScale.z
    path: akula_BLUE1_4/akula_BLUE1_0
    classID: 4
    script: {fileID: 0}
  - curve:
      serializedVersion: 2
      m_Curve:
      - time: 0
        value: -0.62900007
        inSlope: 0.18000126
        outSlope: 0.18000126
        tangentMode: 10
      - time: 0.05
        value: -0.62
        inSlope: 0.065455005
        outSlope: 0.065455005
        tangentMode: 10
      - time: 0.23333333
        value: -0.62900007
        inSlope: -0.024545625
        outSlope: -0.024545625
        tangentMode: 10
      - time: 0.36666667
        value: -0.62900007
        inSlope: 0
        outSlope: 0
        tangentMode: 10
      m_PreInfinity: 2
      m_PostInfinity: 2
      m_RotationOrder: 4
    attribute: m_LocalPosition.x
    path: akula_BLUE1_4/akula_BLUE1_1
    classID: 4
    script: {fileID: 0}
  - curve:
      serializedVersion: 2
      m_Curve:
      - time: 0
        value: 0.06
        inSlope: -2.2
        outSlope: -2.2
        tangentMode: 10
      - time: 0.05
        value: -0.05
        inSlope: -0.8000001
        outSlope: -0.8000001
        tangentMode: 10
      - time: 0.23333333
        value: 0.06
        inSlope: 0.29999998
        outSlope: 0.29999998
        tangentMode: 10
      - time: 0.36666667
        value: 0.06
        inSlope: 0
        outSlope: 0
        tangentMode: 10
      m_PreInfinity: 2
      m_PostInfinity: 2
      m_RotationOrder: 4
    attribute: m_LocalPosition.y
    path: akula_BLUE1_4/akula_BLUE1_1
    classID: 4
    script: {fileID: 0}
  - curve:
      serializedVersion: 2
      m_Curve:
      - time: 0
        value: 0
        inSlope: 0
        outSlope: 0
        tangentMode: 10
      - time: 0.05
        value: 0
        inSlope: 0
        outSlope: 0
        tangentMode: 10
      - time: 0.23333333
        value: 0
        inSlope: 0
        outSlope: 0
        tangentMode: 10
      - time: 0.36666667
        value: 0
        inSlope: 0
        outSlope: 0
        tangentMode: 10
      m_PreInfinity: 2
      m_PostInfinity: 2
      m_RotationOrder: 4
    attribute: m_LocalPosition.z
    path: akula_BLUE1_4/akula_BLUE1_1
    classID: 4
    script: {fileID: 0}
  - curve:
      serializedVersion: 2
      m_Curve:
      - time: 0
        value: 1
        inSlope: 0
        outSlope: 0
        tangentMode: 10
      - time: 0.05
        value: 1
        inSlope: 0
        outSlope: 0
        tangentMode: 10
      - time: 0.23333333
        value: 1
        inSlope: 0
        outSlope: 0
        tangentMode: 10
      - time: 0.36666667
        value: 1
        inSlope: 0
        outSlope: 0
        tangentMode: 10
      m_PreInfinity: 2
      m_PostInfinity: 2
      m_RotationOrder: 4
    attribute: m_LocalScale.x
    path: akula_BLUE1_4/akula_BLUE1_1
    classID: 4
    script: {fileID: 0}
  - curve:
      serializedVersion: 2
      m_Curve:
      - time: 0
        value: 1
        inSlope: -7.770084
        outSlope: -7.770084
        tangentMode: 10
      - time: 0.05
        value: 0.6114958
        inSlope: -2.825485
        outSlope: -2.825485
        tangentMode: 10
      - time: 0.23333333
        value: 1
        inSlope: 1.059557
        outSlope: 1.059557
        tangentMode: 10
      - time: 0.36666667
        value: 1
        inSlope: 0
        outSlope: 0
        tangentMode: 10
      m_PreInfinity: 2
      m_PostInfinity: 2
      m_RotationOrder: 4
    attribute: m_LocalScale.y
    path: akula_BLUE1_4/akula_BLUE1_1
    classID: 4
    script: {fileID: 0}
  - curve:
      serializedVersion: 2
      m_Curve:
      - time: 0
        value: 1
        inSlope: 0
        outSlope: 0
        tangentMode: 10
      - time: 0.05
        value: 1
        inSlope: 0
        outSlope: 0
        tangentMode: 10
      - time: 0.23333333
        value: 1
        inSlope: 0
        outSlope: 0
        tangentMode: 10
      - time: 0.36666667
        value: 1
        inSlope: 0
        outSlope: 0
        tangentMode: 10
      m_PreInfinity: 2
      m_PostInfinity: 2
      m_RotationOrder: 4
    attribute: m_LocalScale.z
    path: akula_BLUE1_4/akula_BLUE1_1
    classID: 4
    script: {fileID: 0}
  m_EulerEditorCurves:
  - curve:
      serializedVersion: 2
      m_Curve: []
      m_PreInfinity: 2
      m_PostInfinity: 2
      m_RotationOrder: 4
    attribute: m_LocalEulerAngles.z
    path: akula_BLUE1_3
    classID: 4
    script: {fileID: 0}
  - curve:
      serializedVersion: 2
      m_Curve: []
      m_PreInfinity: 2
      m_PostInfinity: 2
      m_RotationOrder: 4
    attribute: m_LocalEulerAngles.y
    path: akula_BLUE1_3
    classID: 4
    script: {fileID: 0}
  - curve:
      serializedVersion: 2
      m_Curve: []
      m_PreInfinity: 2
      m_PostInfinity: 2
      m_RotationOrder: 4
    attribute: m_LocalEulerAngles.x
    path: akula_BLUE1_3
    classID: 4
    script: {fileID: 0}
  - curve:
      serializedVersion: 2
      m_Curve: []
      m_PreInfinity: 2
      m_PostInfinity: 2
      m_RotationOrder: 4
    attribute: m_LocalEulerAngles.z
    path: akula_BLUE1_3 (1)
    classID: 4
    script: {fileID: 0}
  - curve:
      serializedVersion: 2
      m_Curve: []
      m_PreInfinity: 2
      m_PostInfinity: 2
      m_RotationOrder: 4
    attribute: m_LocalEulerAngles.y
    path: akula_BLUE1_3 (1)
    classID: 4
    script: {fileID: 0}
  - curve:
      serializedVersion: 2
      m_Curve: []
      m_PreInfinity: 2
      m_PostInfinity: 2
      m_RotationOrder: 4
    attribute: m_LocalEulerAngles.x
    path: akula_BLUE1_3 (1)
    classID: 4
    script: {fileID: 0}
  - curve:
      serializedVersion: 2
      m_Curve: []
      m_PreInfinity: 2
      m_PostInfinity: 2
      m_RotationOrder: 4
    attribute: m_LocalEulerAngles.z
    path: akula_BLUE1_2
    classID: 4
    script: {fileID: 0}
  - curve:
      serializedVersion: 2
      m_Curve: []
      m_PreInfinity: 2
      m_PostInfinity: 2
      m_RotationOrder: 4
    attribute: m_LocalEulerAngles.y
    path: akula_BLUE1_2
    classID: 4
    script: {fileID: 0}
  - curve:
      serializedVersion: 2
      m_Curve: []
      m_PreInfinity: 2
      m_PostInfinity: 2
      m_RotationOrder: 4
    attribute: m_LocalEulerAngles.x
    path: akula_BLUE1_2
    classID: 4
    script: {fileID: 0}
  - curve:
      serializedVersion: 2
      m_Curve: []
      m_PreInfinity: 2
      m_PostInfinity: 2
      m_RotationOrder: 4
    attribute: m_LocalEulerAngles.z
    path: akula_BLUE1_4
    classID: 4
    script: {fileID: 0}
  - curve:
      serializedVersion: 2
      m_Curve: []
      m_PreInfinity: 2
      m_PostInfinity: 2
      m_RotationOrder: 4
    attribute: m_LocalEulerAngles.y
    path: akula_BLUE1_4
    classID: 4
    script: {fileID: 0}
  - curve:
      serializedVersion: 2
      m_Curve: []
      m_PreInfinity: 2
      m_PostInfinity: 2
      m_RotationOrder: 4
    attribute: m_LocalEulerAngles.x
    path: akula_BLUE1_4
    classID: 4
    script: {fileID: 0}
  - curve:
      serializedVersion: 2
      m_Curve: []
      m_PreInfinity: 2
      m_PostInfinity: 2
      m_RotationOrder: 4
    attribute: m_LocalEulerAngles.z
    path: akula_BLUE1_5
    classID: 4
    script: {fileID: 0}
  - curve:
      serializedVersion: 2
      m_Curve: []
      m_PreInfinity: 2
      m_PostInfinity: 2
      m_RotationOrder: 4
    attribute: m_LocalEulerAngles.y
    path: akula_BLUE1_5
    classID: 4
    script: {fileID: 0}
  - curve:
      serializedVersion: 2
      m_Curve: []
      m_PreInfinity: 2
      m_PostInfinity: 2
      m_RotationOrder: 4
    attribute: m_LocalEulerAngles.x
    path: akula_BLUE1_5
    classID: 4
    script: {fileID: 0}
  - curve:
      serializedVersion: 2
      m_Curve: []
      m_PreInfinity: 2
      m_PostInfinity: 2
      m_RotationOrder: 4
    attribute: m_LocalEulerAngles.x
    path: akula_BLUE1_6
    classID: 4
    script: {fileID: 0}
  - curve:
      serializedVersion: 2
      m_Curve: []
      m_PreInfinity: 2
      m_PostInfinity: 2
      m_RotationOrder: 4
    attribute: m_LocalEulerAngles.y
    path: akula_BLUE1_6
    classID: 4
    script: {fileID: 0}
  - curve:
      serializedVersion: 2
      m_Curve: []
      m_PreInfinity: 2
      m_PostInfinity: 2
      m_RotationOrder: 4
    attribute: m_LocalEulerAngles.z
    path: akula_BLUE1_6
    classID: 4
    script: {fileID: 0}
  m_HasGenericRootTransform: 0
  m_HasMotionFloatCurves: 0
  m_GenerateMotionCurves: 0
  m_Events: []
