%YAML 1.1
%TAG !u! tag:unity3d.com,2011:
--- !u!74 &7400000
AnimationClip:
  m_ObjectHideFlags: 0
  m_PrefabParentObject: {fileID: 0}
  m_PrefabInternal: {fileID: 0}
  m_Name: waves
  serializedVersion: 6
  m_Legacy: 0
  m_Compressed: 0
  m_UseHighQualityCurve: 1
  m_RotationCurves: []
  m_CompressedRotationCurves: []
  m_EulerCurves:
  - curve:
      serializedVersion: 2
      m_Curve:
      - time: 0
        value: {x: -0, y: 0, z: -0.0903}
        inSlope: {x: 0, y: 0, z: -43.6475}
        outSlope: {x: 0, y: 0, z: -43.6475}
        tangentMode: 0
      - time: 0.4
        value: {x: 0, y: 0, z: -17.5493}
        inSlope: {x: 0, y: 0, z: -21.6028}
        outSlope: {x: 0, y: 0, z: -21.6028}
        tangentMode: 0
      - time: 1.0666667
        value: {x: 0, y: 0, z: -17.2547}
        inSlope: {x: 0, y: 0, z: 14.524618}
        outSlope: {x: 0, y: 0, z: 14.524618}
        tangentMode: 0
      - time: 1.6666666
        value: {x: -0, y: 0, z: -0.0903}
        inSlope: {x: -0, y: 0, z: 28.607338}
        outSlope: {x: -0, y: 0, z: 28.607338}
        tangentMode: 0
      m_PreInfinity: 2
      m_PostInfinity: 2
      m_RotationOrder: 4
    path: "\u0432\u043E\u0434\u043E\u0440\u043E\u0441\u043B\u0438_1"
  - curve:
      serializedVersion: 2
      m_Curve:
      - time: 0
        value: {x: -0, y: 0, z: -0.0903}
        inSlope: {x: 0, y: 0, z: -21.786749}
        outSlope: {x: 0, y: 0, z: -21.786749}
        tangentMode: 0
      - time: 0.4
        value: {x: 0, y: 0, z: -8.804999}
        inSlope: {x: 0, y: 0, z: 1.8188982}
        outSlope: {x: 0, y: 0, z: 1.8188982}
        tangentMode: 0
      - time: 1.0666667
        value: {x: 0, y: 0, z: 8.1447}
        inSlope: {x: 0, y: 0, z: 5.849772}
        outSlope: {x: 0, y: 0, z: 5.849772}
        tangentMode: 0
      - time: 1.6666666
        value: {x: -0, y: 0, z: -0.0903}
        inSlope: {x: -0, y: 0, z: -13.725001}
        outSlope: {x: -0, y: 0, z: -13.725001}
        tangentMode: 0
      m_PreInfinity: 2
      m_PostInfinity: 2
      m_RotationOrder: 4
    path: "\u0432\u043E\u0434\u043E\u0440\u043E\u0441\u043B\u0438_6"
  - curve:
      serializedVersion: 2
      m_Curve:
      - time: 0
        value: {x: -0, y: 0, z: -0.0903}
        inSlope: {x: 0, y: 0, z: -20.412249}
        outSlope: {x: 0, y: 0, z: -20.412249}
        tangentMode: 0
      - time: 0.4
        value: {x: 0, y: 0, z: -8.255199}
        inSlope: {x: 0, y: 0, z: -1.2467012}
        outSlope: {x: 0, y: 0, z: -1.2467012}
        tangentMode: 0
      - time: 1.0666667
        value: {x: 0, y: 0, z: 3.6906998}
        inSlope: {x: 0, y: 0, z: 5.808589}
        outSlope: {x: 0, y: 0, z: 5.808589}
        tangentMode: 0
      - time: 1.6666666
        value: {x: -0, y: 0, z: -0.0903}
        inSlope: {x: -0, y: 0, z: -6.3016677}
        outSlope: {x: -0, y: 0, z: -6.3016677}
        tangentMode: 0
      m_PreInfinity: 2
      m_PostInfinity: 2
      m_RotationOrder: 4
    path: "\u0432\u043E\u0434\u043E\u0440\u043E\u0441\u043B\u0438_2"
  - curve:
      serializedVersion: 2
      m_Curve:
      - time: 0
        value: {x: -0, y: 0, z: -0.0903}
        inSlope: {x: 0, y: 0, z: 3.85725}
        outSlope: {x: 0, y: 0, z: 3.85725}
        tangentMode: 0
      - time: 0.4
        value: {x: 0, y: 0, z: 1.4526}
        inSlope: {x: 0, y: 0, z: -3.786749}
        outSlope: {x: 0, y: 0, z: -3.786749}
        tangentMode: 0
      - time: 1.0666667
        value: {x: 0, y: 0, z: -6.1678996}
        inSlope: {x: 0, y: 0, z: -0.65070677}
        outSlope: {x: 0, y: 0, z: -0.65070677}
        tangentMode: 0
      - time: 1.6666666
        value: {x: -0, y: 0, z: -0.0903}
        inSlope: {x: -0, y: 0, z: 10.129334}
        outSlope: {x: -0, y: 0, z: 10.129334}
        tangentMode: 0
      m_PreInfinity: 2
      m_PostInfinity: 2
      m_RotationOrder: 4
    path: "\u0432\u043E\u0434\u043E\u0440\u043E\u0441\u043B\u0438_3"
  m_PositionCurves:
  - curve:
      serializedVersion: 2
      m_Curve:
      - time: 0
        value: {x: -0.055, y: 2.838, z: 0}
        inSlope: {x: 0.53499997, y: -0.23500025, z: 0}
        outSlope: {x: 0.53499997, y: -0.23500025, z: 0}
        tangentMode: 0
      - time: 0.4
        value: {x: 0.159, y: 2.744, z: 0}
        inSlope: {x: 0.17449999, y: -0.13775009, z: 0}
        outSlope: {x: 0.17449999, y: -0.13775009, z: 0}
        tangentMode: 0
      - time: 1.0666667
        value: {x: 0.035, y: 2.717, z: 0}
        inSlope: {x: -0.16800001, y: 0.08058343, z: 0}
        outSlope: {x: -0.16800001, y: 0.08058343, z: 0}
        tangentMode: 0
      - time: 1.6666666
        value: {x: -0.055, y: 2.838, z: 0}
        inSlope: {x: -0.15000004, y: 0.20166679, z: 0}
        outSlope: {x: -0.15000004, y: 0.20166679, z: 0}
        tangentMode: 0
      m_PreInfinity: 2
      m_PostInfinity: 2
      m_RotationOrder: 4
    path: "\u0432\u043E\u0434\u043E\u0440\u043E\u0441\u043B\u0438_1"
  - curve:
      serializedVersion: 2
      m_Curve:
      - time: 0
        value: {x: -0.082, y: 2.523, z: 0}
        inSlope: {x: 0.38000003, y: -0.15500009, z: 0}
        outSlope: {x: 0.38000003, y: -0.15500009, z: 0}
        tangentMode: 0
      - time: 0.4
        value: {x: 0.07, y: 2.461, z: 0}
        inSlope: {x: 0.11200002, y: -0.10074997, z: 0}
        outSlope: {x: 0.11200002, y: -0.10074997, z: 0}
        tangentMode: 0
      - time: 1.0666667
        value: {x: -0.034, y: 2.43, z: 0}
        inSlope: {x: -0.118, y: 0.05425003, z: 0}
        outSlope: {x: -0.118, y: 0.05425003, z: 0}
        tangentMode: 0
      - time: 1.6666666
        value: {x: -0.082, y: 2.523, z: 0}
        inSlope: {x: -0.08000001, y: 0.15499991, z: 0}
        outSlope: {x: -0.08000001, y: 0.15499991, z: 0}
        tangentMode: 0
      m_PreInfinity: 2
      m_PostInfinity: 2
      m_RotationOrder: 4
    path: "\u0432\u043E\u0434\u043E\u0440\u043E\u0441\u043B\u0438_6"
  - curve:
      serializedVersion: 2
      m_Curve:
      - time: 0
        value: {x: -0.048, y: 0.434, z: 0}
        inSlope: {x: 0.22, y: 0.04750006, z: 0}
        outSlope: {x: 0.22, y: 0.04750006, z: 0}
        tangentMode: 0
      - time: 0.4
        value: {x: 0.04, y: 0.453, z: 0}
        inSlope: {x: 0.01775001, y: 0.038000025, z: 0}
        outSlope: {x: 0.01775001, y: 0.038000025, z: 0}
        tangentMode: 0
      - time: 1.0666667
        value: {x: -0.083, y: 0.472, z: 0}
        inSlope: {x: -0.06308332, y: -0.017416691, z: 0}
        outSlope: {x: -0.06308332, y: -0.017416691, z: 0}
        tangentMode: 0
      - time: 1.6666666
        value: {x: -0.048, y: 0.434, z: 0}
        inSlope: {x: 0.058333337, y: -0.06333337, z: 0}
        outSlope: {x: 0.058333337, y: -0.06333337, z: 0}
        tangentMode: 0
      m_PreInfinity: 2
      m_PostInfinity: 2
      m_RotationOrder: 4
    path: "\u0432\u043E\u0434\u043E\u0440\u043E\u0441\u043B\u0438_2"
  - curve:
      serializedVersion: 2
      m_Curve:
      - time: 0
        value: {x: 0.04, y: 1.526, z: 0}
        inSlope: {x: 0.22000001, y: -0.21499991, z: 0}
        outSlope: {x: 0.22000001, y: -0.21499991, z: 0}
        tangentMode: 0
      - time: 0.4
        value: {x: 0.128, y: 1.44, z: 0}
        inSlope: {x: 0.07850001, y: -0.12474996, z: 0}
        outSlope: {x: 0.07850001, y: -0.12474996, z: 0}
        tangentMode: 0
      - time: 1.0666667
        value: {x: 0.086, y: 1.417, z: 0}
        inSlope: {x: -0.06983334, y: 0.07358332, z: 0}
        outSlope: {x: -0.06983334, y: 0.07358332, z: 0}
        tangentMode: 0
      - time: 1.6666666
        value: {x: 0.04, y: 1.526, z: 0}
        inSlope: {x: -0.07666668, y: 0.18166664, z: 0}
        outSlope: {x: -0.07666668, y: 0.18166664, z: 0}
        tangentMode: 0
      m_PreInfinity: 2
      m_PostInfinity: 2
      m_RotationOrder: 4
    path: "\u0432\u043E\u0434\u043E\u0440\u043E\u0441\u043B\u0438_3"
  m_ScaleCurves:
  - curve:
      serializedVersion: 2
      m_Curve:
      - time: 0
        value: {x: 1, y: 1, z: 1}
        inSlope: {x: 0, y: 0.00000029802322, z: 0}
        outSlope: {x: 0, y: 0.00000029802322, z: 0}
        tangentMode: 0
      - time: 0.4
        value: {x: 1, y: 1.0000001, z: 1}
        inSlope: {x: 0, y: 0.00000014901161, z: 0}
        outSlope: {x: 0, y: 0.00000014901161, z: 0}
        tangentMode: 0
      - time: 1.0666667
        value: {x: 1, y: 1.0000001, z: 1}
        inSlope: {x: 0, y: -0.000000099341094, z: 0}
        outSlope: {x: 0, y: -0.000000099341094, z: 0}
        tangentMode: 0
      - time: 1.6666666
        value: {x: 1, y: 1, z: 1}
        inSlope: {x: 0, y: -0.00000019868219, z: 0}
        outSlope: {x: 0, y: -0.00000019868219, z: 0}
        tangentMode: 0
      m_PreInfinity: 2
      m_PostInfinity: 2
      m_RotationOrder: 4
    path: "\u0432\u043E\u0434\u043E\u0440\u043E\u0441\u043B\u0438_1"
  - curve:
      serializedVersion: 2
      m_Curve:
      - time: 0
        value: {x: 1, y: 1, z: 1}
        inSlope: {x: 0, y: 0.00000029802322, z: 0}
        outSlope: {x: 0, y: 0.00000029802322, z: 0}
        tangentMode: 0
      - time: 0.4
        value: {x: 1, y: 1.0000001, z: 1}
        inSlope: {x: 0, y: 0.00000014901161, z: 0}
        outSlope: {x: 0, y: 0.00000014901161, z: 0}
        tangentMode: 0
      - time: 1.0666667
        value: {x: 1, y: 1.0000001, z: 1}
        inSlope: {x: 0, y: -0.000000099341094, z: 0}
        outSlope: {x: 0, y: -0.000000099341094, z: 0}
        tangentMode: 0
      - time: 1.6666666
        value: {x: 1, y: 1, z: 1}
        inSlope: {x: 0, y: -0.00000019868219, z: 0}
        outSlope: {x: 0, y: -0.00000019868219, z: 0}
        tangentMode: 0
      m_PreInfinity: 2
      m_PostInfinity: 2
      m_RotationOrder: 4
    path: "\u0432\u043E\u0434\u043E\u0440\u043E\u0441\u043B\u0438_6"
  - curve:
      serializedVersion: 2
      m_Curve:
      - time: 0
        value: {x: 1, y: 1, z: 1}
        inSlope: {x: 0, y: 0.00000029802322, z: 0}
        outSlope: {x: 0, y: 0.00000029802322, z: 0}
        tangentMode: 0
      - time: 0.4
        value: {x: 1, y: 1.0000001, z: 1}
        inSlope: {x: 0, y: 0.041537818, z: 0}
        outSlope: {x: 0, y: 0.041537818, z: 0}
        tangentMode: 0
      - time: 1.0666667
        value: {x: 1, y: 1.0553837, z: 1}
        inSlope: {x: 0, y: -0.0046154074, z: 0}
        outSlope: {x: 0, y: -0.0046154074, z: 0}
        tangentMode: 0
      - time: 1.6666666
        value: {x: 1, y: 1, z: 1}
        inSlope: {x: 0, y: -0.09230615, z: 0}
        outSlope: {x: 0, y: -0.09230615, z: 0}
        tangentMode: 0
      m_PreInfinity: 2
      m_PostInfinity: 2
      m_RotationOrder: 4
    path: "\u0432\u043E\u0434\u043E\u0440\u043E\u0441\u043B\u0438_2"
  - curve:
      serializedVersion: 2
      m_Curve:
      - time: 0
        value: {x: 1, y: 1, z: 1}
        inSlope: {x: 0, y: -0.053909272, z: 0}
        outSlope: {x: 0, y: -0.053909272, z: 0}
        tangentMode: 0
      - time: 0.4
        value: {x: 1, y: 0.9784363, z: 1}
        inSlope: {x: 0, y: -0.081589125, z: 0}
        outSlope: {x: 0, y: -0.081589125, z: 0}
        tangentMode: 0
      - time: 1.0666667
        value: {x: 1, y: 0.9055903, z: 1}
        inSlope: {x: 0, y: 0.024040274, z: 0}
        outSlope: {x: 0, y: 0.024040274, z: 0}
        tangentMode: 0
      - time: 1.6666666
        value: {x: 1, y: 1, z: 1}
        inSlope: {x: 0, y: 0.15734953, z: 0}
        outSlope: {x: 0, y: 0.15734953, z: 0}
        tangentMode: 0
      m_PreInfinity: 2
      m_PostInfinity: 2
      m_RotationOrder: 4
    path: "\u0432\u043E\u0434\u043E\u0440\u043E\u0441\u043B\u0438_3"
  m_FloatCurves: []
  m_PPtrCurves: []
  m_SampleRate: 30
  m_WrapMode: 0
  m_Bounds:
    m_Center: {x: 0, y: 0, z: 0}
    m_Extent: {x: 0, y: 0, z: 0}
  m_ClipBindingConstant:
    genericBindings:
    - path: 2286411111
      attribute: 1
      script: {fileID: 0}
      classID: 4
      customType: 0
      isPPtrCurve: 0
    - path: 371411140
      attribute: 1
      script: {fileID: 0}
      classID: 4
      customType: 0
      isPPtrCurve: 0
    - path: 290360541
      attribute: 1
      script: {fileID: 0}
      classID: 4
      customType: 0
      isPPtrCurve: 0
    - path: 1716108363
      attribute: 1
      script: {fileID: 0}
      classID: 4
      customType: 0
      isPPtrCurve: 0
    - path: 2286411111
      attribute: 4
      script: {fileID: 0}
      classID: 4
      customType: 14
      isPPtrCurve: 0
    - path: 371411140
      attribute: 4
      script: {fileID: 0}
      classID: 4
      customType: 14
      isPPtrCurve: 0
    - path: 290360541
      attribute: 4
      script: {fileID: 0}
      classID: 4
      customType: 14
      isPPtrCurve: 0
    - path: 1716108363
      attribute: 4
      script: {fileID: 0}
      classID: 4
      customType: 14
      isPPtrCurve: 0
    - path: 290360541
      attribute: 3
      script: {fileID: 0}
      classID: 4
      customType: 0
      isPPtrCurve: 0
    - path: 1716108363
      attribute: 3
      script: {fileID: 0}
      classID: 4
      customType: 0
      isPPtrCurve: 0
    - path: 2286411111
      attribute: 3
      script: {fileID: 0}
      classID: 4
      customType: 0
      isPPtrCurve: 0
    - path: 371411140
      attribute: 3
      script: {fileID: 0}
      classID: 4
      customType: 0
      isPPtrCurve: 0
    pptrCurveMapping: []
  m_AnimationClipSettings:
    serializedVersion: 2
    m_AdditiveReferencePoseClip: {fileID: 0}
    m_AdditiveReferencePoseTime: 0
    m_StartTime: 0
    m_StopTime: 1.6666666
    m_OrientationOffsetY: 0
    m_Level: 0
    m_CycleOffset: 0
    m_HasAdditiveReferencePose: 0
    m_LoopTime: 1
    m_LoopBlend: 0
    m_LoopBlendOrientation: 0
    m_LoopBlendPositionY: 0
    m_LoopBlendPositionXZ: 0
    m_KeepOriginalOrientation: 0
    m_KeepOriginalPositionY: 1
    m_KeepOriginalPositionXZ: 0
    m_HeightFromFeet: 0
    m_Mirror: 0
  m_EditorCurves:
  - curve:
      serializedVersion: 2
      m_Curve:
      - time: 0
        value: -0.055
        inSlope: 0.53499997
        outSlope: 0.53499997
        tangentMode: 10
      - time: 0.4
        value: 0.159
        inSlope: 0.17449999
        outSlope: 0.17449999
        tangentMode: 10
      - time: 1.0666667
        value: 0.035
        inSlope: -0.16800001
        outSlope: -0.16800001
        tangentMode: 10
      - time: 1.6666666
        value: -0.055
        inSlope: -0.15000004
        outSlope: -0.15000004
        tangentMode: 10
      m_PreInfinity: 2
      m_PostInfinity: 2
      m_RotationOrder: 4
    attribute: m_LocalPosition.x
    path: "\u0432\u043E\u0434\u043E\u0440\u043E\u0441\u043B\u0438_1"
    classID: 4
    script: {fileID: 0}
  - curve:
      serializedVersion: 2
      m_Curve:
      - time: 0
        value: 2.838
        inSlope: -0.23500025
        outSlope: -0.23500025
        tangentMode: 10
      - time: 0.4
        value: 2.744
        inSlope: -0.13775009
        outSlope: -0.13775009
        tangentMode: 10
      - time: 1.0666667
        value: 2.717
        inSlope: 0.08058343
        outSlope: 0.08058343
        tangentMode: 10
      - time: 1.6666666
        value: 2.838
        inSlope: 0.20166679
        outSlope: 0.20166679
        tangentMode: 10
      m_PreInfinity: 2
      m_PostInfinity: 2
      m_RotationOrder: 4
    attribute: m_LocalPosition.y
    path: "\u0432\u043E\u0434\u043E\u0440\u043E\u0441\u043B\u0438_1"
    classID: 4
    script: {fileID: 0}
  - curve:
      serializedVersion: 2
      m_Curve:
      - time: 0
        value: 0
        inSlope: 0
        outSlope: 0
        tangentMode: 10
      - time: 0.4
        value: 0
        inSlope: 0
        outSlope: 0
        tangentMode: 10
      - time: 1.0666667
        value: 0
        inSlope: 0
        outSlope: 0
        tangentMode: 10
      - time: 1.6666666
        value: 0
        inSlope: 0
        outSlope: 0
        tangentMode: 10
      m_PreInfinity: 2
      m_PostInfinity: 2
      m_RotationOrder: 4
    attribute: m_LocalPosition.z
    path: "\u0432\u043E\u0434\u043E\u0440\u043E\u0441\u043B\u0438_1"
    classID: 4
    script: {fileID: 0}
  - curve:
      serializedVersion: 2
      m_Curve:
      - time: 0
        value: 1
        inSlope: 0
        outSlope: 0
        tangentMode: 10
      - time: 0.4
        value: 1
        inSlope: 0
        outSlope: 0
        tangentMode: 10
      - time: 1.0666667
        value: 1
        inSlope: 0
        outSlope: 0
        tangentMode: 10
      - time: 1.6666666
        value: 1
        inSlope: 0
        outSlope: 0
        tangentMode: 10
      m_PreInfinity: 2
      m_PostInfinity: 2
      m_RotationOrder: 4
    attribute: m_LocalScale.x
    path: "\u0432\u043E\u0434\u043E\u0440\u043E\u0441\u043B\u0438_1"
    classID: 4
    script: {fileID: 0}
  - curve:
      serializedVersion: 2
      m_Curve:
      - time: 0
        value: 1
        inSlope: 0.00000029802322
        outSlope: 0.00000029802322
        tangentMode: 10
      - time: 0.4
        value: 1.0000001
        inSlope: 0.00000014901161
        outSlope: 0.00000014901161
        tangentMode: 10
      - time: 1.0666667
        value: 1.0000001
        inSlope: -0.000000099341094
        outSlope: -0.000000099341094
        tangentMode: 10
      - time: 1.6666666
        value: 1
        inSlope: -0.00000019868219
        outSlope: -0.00000019868219
        tangentMode: 10
      m_PreInfinity: 2
      m_PostInfinity: 2
      m_RotationOrder: 4
    attribute: m_LocalScale.y
    path: "\u0432\u043E\u0434\u043E\u0440\u043E\u0441\u043B\u0438_1"
    classID: 4
    script: {fileID: 0}
  - curve:
      serializedVersion: 2
      m_Curve:
      - time: 0
        value: 1
        inSlope: 0
        outSlope: 0
        tangentMode: 10
      - time: 0.4
        value: 1
        inSlope: 0
        outSlope: 0
        tangentMode: 10
      - time: 1.0666667
        value: 1
        inSlope: 0
        outSlope: 0
        tangentMode: 10
      - time: 1.6666666
        value: 1
        inSlope: 0
        outSlope: 0
        tangentMode: 10
      m_PreInfinity: 2
      m_PostInfinity: 2
      m_RotationOrder: 4
    attribute: m_LocalScale.z
    path: "\u0432\u043E\u0434\u043E\u0440\u043E\u0441\u043B\u0438_1"
    classID: 4
    script: {fileID: 0}
  - curve:
      serializedVersion: 2
      m_Curve:
      - time: 0
        value: -0.082
        inSlope: 0.38000003
        outSlope: 0.38000003
        tangentMode: 10
      - time: 0.4
        value: 0.07
        inSlope: 0.11200002
        outSlope: 0.11200002
        tangentMode: 10
      - time: 1.0666667
        value: -0.034
        inSlope: -0.118
        outSlope: -0.118
        tangentMode: 10
      - time: 1.6666666
        value: -0.082
        inSlope: -0.08000001
        outSlope: -0.08000001
        tangentMode: 10
      m_PreInfinity: 2
      m_PostInfinity: 2
      m_RotationOrder: 4
    attribute: m_LocalPosition.x
    path: "\u0432\u043E\u0434\u043E\u0440\u043E\u0441\u043B\u0438_6"
    classID: 4
    script: {fileID: 0}
  - curve:
      serializedVersion: 2
      m_Curve:
      - time: 0
        value: 2.523
        inSlope: -0.15500009
        outSlope: -0.15500009
        tangentMode: 10
      - time: 0.4
        value: 2.461
        inSlope: -0.10074997
        outSlope: -0.10074997
        tangentMode: 10
      - time: 1.0666667
        value: 2.43
        inSlope: 0.05425003
        outSlope: 0.05425003
        tangentMode: 10
      - time: 1.6666666
        value: 2.523
        inSlope: 0.15499991
        outSlope: 0.15499991
        tangentMode: 10
      m_PreInfinity: 2
      m_PostInfinity: 2
      m_RotationOrder: 4
    attribute: m_LocalPosition.y
    path: "\u0432\u043E\u0434\u043E\u0440\u043E\u0441\u043B\u0438_6"
    classID: 4
    script: {fileID: 0}
  - curve:
      serializedVersion: 2
      m_Curve:
      - time: 0
        value: 0
        inSlope: 0
        outSlope: 0
        tangentMode: 10
      - time: 0.4
        value: 0
        inSlope: 0
        outSlope: 0
        tangentMode: 10
      - time: 1.0666667
        value: 0
        inSlope: 0
        outSlope: 0
        tangentMode: 10
      - time: 1.6666666
        value: 0
        inSlope: 0
        outSlope: 0
        tangentMode: 10
      m_PreInfinity: 2
      m_PostInfinity: 2
      m_RotationOrder: 4
    attribute: m_LocalPosition.z
    path: "\u0432\u043E\u0434\u043E\u0440\u043E\u0441\u043B\u0438_6"
    classID: 4
    script: {fileID: 0}
  - curve:
      serializedVersion: 2
      m_Curve:
      - time: 0
        value: 1
        inSlope: 0
        outSlope: 0
        tangentMode: 10
      - time: 0.4
        value: 1
        inSlope: 0
        outSlope: 0
        tangentMode: 10
      - time: 1.0666667
        value: 1
        inSlope: 0
        outSlope: 0
        tangentMode: 10
      - time: 1.6666666
        value: 1
        inSlope: 0
        outSlope: 0
        tangentMode: 10
      m_PreInfinity: 2
      m_PostInfinity: 2
      m_RotationOrder: 4
    attribute: m_LocalScale.x
    path: "\u0432\u043E\u0434\u043E\u0440\u043E\u0441\u043B\u0438_6"
    classID: 4
    script: {fileID: 0}
  - curve:
      serializedVersion: 2
      m_Curve:
      - time: 0
        value: 1
        inSlope: 0.00000029802322
        outSlope: 0.00000029802322
        tangentMode: 10
      - time: 0.4
        value: 1.0000001
        inSlope: 0.00000014901161
        outSlope: 0.00000014901161
        tangentMode: 10
      - time: 1.0666667
        value: 1.0000001
        inSlope: -0.000000099341094
        outSlope: -0.000000099341094
        tangentMode: 10
      - time: 1.6666666
        value: 1
        inSlope: -0.00000019868219
        outSlope: -0.00000019868219
        tangentMode: 10
      m_PreInfinity: 2
      m_PostInfinity: 2
      m_RotationOrder: 4
    attribute: m_LocalScale.y
    path: "\u0432\u043E\u0434\u043E\u0440\u043E\u0441\u043B\u0438_6"
    classID: 4
    script: {fileID: 0}
  - curve:
      serializedVersion: 2
      m_Curve:
      - time: 0
        value: 1
        inSlope: 0
        outSlope: 0
        tangentMode: 10
      - time: 0.4
        value: 1
        inSlope: 0
        outSlope: 0
        tangentMode: 10
      - time: 1.0666667
        value: 1
        inSlope: 0
        outSlope: 0
        tangentMode: 10
      - time: 1.6666666
        value: 1
        inSlope: 0
        outSlope: 0
        tangentMode: 10
      m_PreInfinity: 2
      m_PostInfinity: 2
      m_RotationOrder: 4
    attribute: m_LocalScale.z
    path: "\u0432\u043E\u0434\u043E\u0440\u043E\u0441\u043B\u0438_6"
    classID: 4
    script: {fileID: 0}
  - curve:
      serializedVersion: 2
      m_Curve:
      - time: 0
        value: -0.048
        inSlope: 0.22
        outSlope: 0.22
        tangentMode: 10
      - time: 0.4
        value: 0.04
        inSlope: 0.01775001
        outSlope: 0.01775001
        tangentMode: 10
      - time: 1.0666667
        value: -0.083
        inSlope: -0.06308332
        outSlope: -0.06308332
        tangentMode: 10
      - time: 1.6666666
        value: -0.048
        inSlope: 0.058333337
        outSlope: 0.058333337
        tangentMode: 10
      m_PreInfinity: 2
      m_PostInfinity: 2
      m_RotationOrder: 4
    attribute: m_LocalPosition.x
    path: "\u0432\u043E\u0434\u043E\u0440\u043E\u0441\u043B\u0438_2"
    classID: 4
    script: {fileID: 0}
  - curve:
      serializedVersion: 2
      m_Curve:
      - time: 0
        value: 0.434
        inSlope: 0.04750006
        outSlope: 0.04750006
        tangentMode: 10
      - time: 0.4
        value: 0.453
        inSlope: 0.038000025
        outSlope: 0.038000025
        tangentMode: 10
      - time: 1.0666667
        value: 0.472
        inSlope: -0.017416691
        outSlope: -0.017416691
        tangentMode: 10
      - time: 1.6666666
        value: 0.434
        inSlope: -0.06333337
        outSlope: -0.06333337
        tangentMode: 10
      m_PreInfinity: 2
      m_PostInfinity: 2
      m_RotationOrder: 4
    attribute: m_LocalPosition.y
    path: "\u0432\u043E\u0434\u043E\u0440\u043E\u0441\u043B\u0438_2"
    classID: 4
    script: {fileID: 0}
  - curve:
      serializedVersion: 2
      m_Curve:
      - time: 0
        value: 0
        inSlope: 0
        outSlope: 0
        tangentMode: 10
      - time: 0.4
        value: 0
        inSlope: 0
        outSlope: 0
        tangentMode: 10
      - time: 1.0666667
        value: 0
        inSlope: 0
        outSlope: 0
        tangentMode: 10
      - time: 1.6666666
        value: 0
        inSlope: 0
        outSlope: 0
        tangentMode: 10
      m_PreInfinity: 2
      m_PostInfinity: 2
      m_RotationOrder: 4
    attribute: m_LocalPosition.z
    path: "\u0432\u043E\u0434\u043E\u0440\u043E\u0441\u043B\u0438_2"
    classID: 4
    script: {fileID: 0}
  - curve:
      serializedVersion: 2
      m_Curve:
      - time: 0
        value: 1
        inSlope: 0
        outSlope: 0
        tangentMode: 10
      - time: 0.4
        value: 1
        inSlope: 0
        outSlope: 0
        tangentMode: 10
      - time: 1.0666667
        value: 1
        inSlope: 0
        outSlope: 0
        tangentMode: 10
      - time: 1.6666666
        value: 1
        inSlope: 0
        outSlope: 0
        tangentMode: 10
      m_PreInfinity: 2
      m_PostInfinity: 2
      m_RotationOrder: 4
    attribute: m_LocalScale.x
    path: "\u0432\u043E\u0434\u043E\u0440\u043E\u0441\u043B\u0438_2"
    classID: 4
    script: {fileID: 0}
  - curve:
      serializedVersion: 2
      m_Curve:
      - time: 0
        value: 1
        inSlope: 0.00000029802322
        outSlope: 0.00000029802322
        tangentMode: 10
      - time: 0.4
        value: 1.0000001
        inSlope: 0.041537818
        outSlope: 0.041537818
        tangentMode: 10
      - time: 1.0666667
        value: 1.0553837
        inSlope: -0.0046154074
        outSlope: -0.0046154074
        tangentMode: 10
      - time: 1.6666666
        value: 1
        inSlope: -0.09230615
        outSlope: -0.09230615
        tangentMode: 10
      m_PreInfinity: 2
      m_PostInfinity: 2
      m_RotationOrder: 4
    attribute: m_LocalScale.y
    path: "\u0432\u043E\u0434\u043E\u0440\u043E\u0441\u043B\u0438_2"
    classID: 4
    script: {fileID: 0}
  - curve:
      serializedVersion: 2
      m_Curve:
      - time: 0
        value: 1
        inSlope: 0
        outSlope: 0
        tangentMode: 10
      - time: 0.4
        value: 1
        inSlope: 0
        outSlope: 0
        tangentMode: 10
      - time: 1.0666667
        value: 1
        inSlope: 0
        outSlope: 0
        tangentMode: 10
      - time: 1.6666666
        value: 1
        inSlope: 0
        outSlope: 0
        tangentMode: 10
      m_PreInfinity: 2
      m_PostInfinity: 2
      m_RotationOrder: 4
    attribute: m_LocalScale.z
    path: "\u0432\u043E\u0434\u043E\u0440\u043E\u0441\u043B\u0438_2"
    classID: 4
    script: {fileID: 0}
  - curve:
      serializedVersion: 2
      m_Curve:
      - time: 0
        value: 0.04
        inSlope: 0.22000001
        outSlope: 0.22000001
        tangentMode: 10
      - time: 0.4
        value: 0.128
        inSlope: 0.07850001
        outSlope: 0.07850001
        tangentMode: 10
      - time: 1.0666667
        value: 0.086
        inSlope: -0.06983334
        outSlope: -0.06983334
        tangentMode: 10
      - time: 1.6666666
        value: 0.04
        inSlope: -0.07666668
        outSlope: -0.07666668
        tangentMode: 10
      m_PreInfinity: 2
      m_PostInfinity: 2
      m_RotationOrder: 4
    attribute: m_LocalPosition.x
    path: "\u0432\u043E\u0434\u043E\u0440\u043E\u0441\u043B\u0438_3"
    classID: 4
    script: {fileID: 0}
  - curve:
      serializedVersion: 2
      m_Curve:
      - time: 0
        value: 1.526
        inSlope: -0.21499991
        outSlope: -0.21499991
        tangentMode: 10
      - time: 0.4
        value: 1.44
        inSlope: -0.12474996
        outSlope: -0.12474996
        tangentMode: 10
      - time: 1.0666667
        value: 1.417
        inSlope: 0.07358332
        outSlope: 0.07358332
        tangentMode: 10
      - time: 1.6666666
        value: 1.526
        inSlope: 0.18166664
        outSlope: 0.18166664
        tangentMode: 10
      m_PreInfinity: 2
      m_PostInfinity: 2
      m_RotationOrder: 4
    attribute: m_LocalPosition.y
    path: "\u0432\u043E\u0434\u043E\u0440\u043E\u0441\u043B\u0438_3"
    classID: 4
    script: {fileID: 0}
  - curve:
      serializedVersion: 2
      m_Curve:
      - time: 0
        value: 0
        inSlope: 0
        outSlope: 0
        tangentMode: 10
      - time: 0.4
        value: 0
        inSlope: 0
        outSlope: 0
        tangentMode: 10
      - time: 1.0666667
        value: 0
        inSlope: 0
        outSlope: 0
        tangentMode: 10
      - time: 1.6666666
        value: 0
        inSlope: 0
        outSlope: 0
        tangentMode: 10
      m_PreInfinity: 2
      m_PostInfinity: 2
      m_RotationOrder: 4
    attribute: m_LocalPosition.z
    path: "\u0432\u043E\u0434\u043E\u0440\u043E\u0441\u043B\u0438_3"
    classID: 4
    script: {fileID: 0}
  - curve:
      serializedVersion: 2
      m_Curve:
      - time: 0
        value: 1
        inSlope: 0
        outSlope: 0
        tangentMode: 10
      - time: 0.4
        value: 1
        inSlope: 0
        outSlope: 0
        tangentMode: 10
      - time: 1.0666667
        value: 1
        inSlope: 0
        outSlope: 0
        tangentMode: 10
      - time: 1.6666666
        value: 1
        inSlope: 0
        outSlope: 0
        tangentMode: 10
      m_PreInfinity: 2
      m_PostInfinity: 2
      m_RotationOrder: 4
    attribute: m_LocalScale.x
    path: "\u0432\u043E\u0434\u043E\u0440\u043E\u0441\u043B\u0438_3"
    classID: 4
    script: {fileID: 0}
  - curve:
      serializedVersion: 2
      m_Curve:
      - time: 0
        value: 1
        inSlope: -0.053909272
        outSlope: -0.053909272
        tangentMode: 10
      - time: 0.4
        value: 0.9784363
        inSlope: -0.081589125
        outSlope: -0.081589125
        tangentMode: 10
      - time: 1.0666667
        value: 0.9055903
        inSlope: 0.024040274
        outSlope: 0.024040274
        tangentMode: 10
      - time: 1.6666666
        value: 1
        inSlope: 0.15734953
        outSlope: 0.15734953
        tangentMode: 10
      m_PreInfinity: 2
      m_PostInfinity: 2
      m_RotationOrder: 4
    attribute: m_LocalScale.y
    path: "\u0432\u043E\u0434\u043E\u0440\u043E\u0441\u043B\u0438_3"
    classID: 4
    script: {fileID: 0}
  - curve:
      serializedVersion: 2
      m_Curve:
      - time: 0
        value: 1
        inSlope: 0
        outSlope: 0
        tangentMode: 10
      - time: 0.4
        value: 1
        inSlope: 0
        outSlope: 0
        tangentMode: 10
      - time: 1.0666667
        value: 1
        inSlope: 0
        outSlope: 0
        tangentMode: 10
      - time: 1.6666666
        value: 1
        inSlope: 0
        outSlope: 0
        tangentMode: 10
      m_PreInfinity: 2
      m_PostInfinity: 2
      m_RotationOrder: 4
    attribute: m_LocalScale.z
    path: "\u0432\u043E\u0434\u043E\u0440\u043E\u0441\u043B\u0438_3"
    classID: 4
    script: {fileID: 0}
  - curve:
      serializedVersion: 2
      m_Curve:
      - time: 0
        value: -0
        inSlope: 0
        outSlope: 0
        tangentMode: 10
      - time: 0.4
        value: 0
        inSlope: 0
        outSlope: 0
        tangentMode: 10
      - time: 1.0666667
        value: 0
        inSlope: 0
        outSlope: 0
        tangentMode: 10
      - time: 1.6666666
        value: -0
        inSlope: -0
        outSlope: -0
        tangentMode: 10
      m_PreInfinity: 2
      m_PostInfinity: 2
      m_RotationOrder: 4
    attribute: localEulerAnglesRaw.x
    path: "\u0432\u043E\u0434\u043E\u0440\u043E\u0441\u043B\u0438_1"
    classID: 4
    script: {fileID: 0}
  - curve:
      serializedVersion: 2
      m_Curve:
      - time: 0
        value: 0
        inSlope: 0
        outSlope: 0
        tangentMode: 10
      - time: 0.4
        value: 0
        inSlope: 0
        outSlope: 0
        tangentMode: 10
      - time: 1.0666667
        value: 0
        inSlope: 0
        outSlope: 0
        tangentMode: 10
      - time: 1.6666666
        value: 0
        inSlope: 0
        outSlope: 0
        tangentMode: 10
      m_PreInfinity: 2
      m_PostInfinity: 2
      m_RotationOrder: 4
    attribute: localEulerAnglesRaw.y
    path: "\u0432\u043E\u0434\u043E\u0440\u043E\u0441\u043B\u0438_1"
    classID: 4
    script: {fileID: 0}
  - curve:
      serializedVersion: 2
      m_Curve:
      - time: 0
        value: -0.0903
        inSlope: -43.6475
        outSlope: -43.6475
        tangentMode: 10
      - time: 0.4
        value: -17.5493
        inSlope: -21.6028
        outSlope: -21.6028
        tangentMode: 10
      - time: 1.0666667
        value: -17.2547
        inSlope: 14.524618
        outSlope: 14.524618
        tangentMode: 10
      - time: 1.6666666
        value: -0.0903
        inSlope: 28.607338
        outSlope: 28.607338
        tangentMode: 10
      m_PreInfinity: 2
      m_PostInfinity: 2
      m_RotationOrder: 4
    attribute: localEulerAnglesRaw.z
    path: "\u0432\u043E\u0434\u043E\u0440\u043E\u0441\u043B\u0438_1"
    classID: 4
    script: {fileID: 0}
  - curve:
      serializedVersion: 2
      m_Curve:
      - time: 0
        value: -0
        inSlope: 0
        outSlope: 0
        tangentMode: 10
      - time: 0.4
        value: 0
        inSlope: 0
        outSlope: 0
        tangentMode: 10
      - time: 1.0666667
        value: 0
        inSlope: 0
        outSlope: 0
        tangentMode: 10
      - time: 1.6666666
        value: -0
        inSlope: -0
        outSlope: -0
        tangentMode: 10
      m_PreInfinity: 2
      m_PostInfinity: 2
      m_RotationOrder: 4
    attribute: localEulerAnglesRaw.x
    path: "\u0432\u043E\u0434\u043E\u0440\u043E\u0441\u043B\u0438_6"
    classID: 4
    script: {fileID: 0}
  - curve:
      serializedVersion: 2
      m_Curve:
      - time: 0
        value: 0
        inSlope: 0
        outSlope: 0
        tangentMode: 10
      - time: 0.4
        value: 0
        inSlope: 0
        outSlope: 0
        tangentMode: 10
      - time: 1.0666667
        value: 0
        inSlope: 0
        outSlope: 0
        tangentMode: 10
      - time: 1.6666666
        value: 0
        inSlope: 0
        outSlope: 0
        tangentMode: 10
      m_PreInfinity: 2
      m_PostInfinity: 2
      m_RotationOrder: 4
    attribute: localEulerAnglesRaw.y
    path: "\u0432\u043E\u0434\u043E\u0440\u043E\u0441\u043B\u0438_6"
    classID: 4
    script: {fileID: 0}
  - curve:
      serializedVersion: 2
      m_Curve:
      - time: 0
        value: -0.0903
        inSlope: -21.786749
        outSlope: -21.786749
        tangentMode: 10
      - time: 0.4
        value: -8.804999
        inSlope: 1.8188982
        outSlope: 1.8188982
        tangentMode: 10
      - time: 1.0666667
        value: 8.1447
        inSlope: 5.849772
        outSlope: 5.849772
        tangentMode: 10
      - time: 1.6666666
        value: -0.0903
        inSlope: -13.725001
        outSlope: -13.725001
        tangentMode: 10
      m_PreInfinity: 2
      m_PostInfinity: 2
      m_RotationOrder: 4
    attribute: localEulerAnglesRaw.z
    path: "\u0432\u043E\u0434\u043E\u0440\u043E\u0441\u043B\u0438_6"
    classID: 4
    script: {fileID: 0}
  - curve:
      serializedVersion: 2
      m_Curve:
      - time: 0
        value: -0
        inSlope: 0
        outSlope: 0
        tangentMode: 10
      - time: 0.4
        value: 0
        inSlope: 0
        outSlope: 0
        tangentMode: 10
      - time: 1.0666667
        value: 0
        inSlope: 0
        outSlope: 0
        tangentMode: 10
      - time: 1.6666666
        value: -0
        inSlope: -0
        outSlope: -0
        tangentMode: 10
      m_PreInfinity: 2
      m_PostInfinity: 2
      m_RotationOrder: 4
    attribute: localEulerAnglesRaw.x
    path: "\u0432\u043E\u0434\u043E\u0440\u043E\u0441\u043B\u0438_2"
    classID: 4
    script: {fileID: 0}
  - curve:
      serializedVersion: 2
      m_Curve:
      - time: 0
        value: 0
        inSlope: 0
        outSlope: 0
        tangentMode: 10
      - time: 0.4
        value: 0
        inSlope: 0
        outSlope: 0
        tangentMode: 10
      - time: 1.0666667
        value: 0
        inSlope: 0
        outSlope: 0
        tangentMode: 10
      - time: 1.6666666
        value: 0
        inSlope: 0
        outSlope: 0
        tangentMode: 10
      m_PreInfinity: 2
      m_PostInfinity: 2
      m_RotationOrder: 4
    attribute: localEulerAnglesRaw.y
    path: "\u0432\u043E\u0434\u043E\u0440\u043E\u0441\u043B\u0438_2"
    classID: 4
    script: {fileID: 0}
  - curve:
      serializedVersion: 2
      m_Curve:
      - time: 0
        value: -0.0903
        inSlope: -20.412249
        outSlope: -20.412249
        tangentMode: 10
      - time: 0.4
        value: -8.255199
        inSlope: -1.2467012
        outSlope: -1.2467012
        tangentMode: 10
      - time: 1.0666667
        value: 3.6906998
        inSlope: 5.808589
        outSlope: 5.808589
        tangentMode: 10
      - time: 1.6666666
        value: -0.0903
        inSlope: -6.3016677
        outSlope: -6.3016677
        tangentMode: 10
      m_PreInfinity: 2
      m_PostInfinity: 2
      m_RotationOrder: 4
    attribute: localEulerAnglesRaw.z
    path: "\u0432\u043E\u0434\u043E\u0440\u043E\u0441\u043B\u0438_2"
    classID: 4
    script: {fileID: 0}
  - curve:
      serializedVersion: 2
      m_Curve:
      - time: 0
        value: -0
        inSlope: 0
        outSlope: 0
        tangentMode: 10
      - time: 0.4
        value: 0
        inSlope: 0
        outSlope: 0
        tangentMode: 10
      - time: 1.0666667
        value: 0
        inSlope: 0
        outSlope: 0
        tangentMode: 10
      - time: 1.6666666
        value: -0
        inSlope: -0
        outSlope: -0
        tangentMode: 10
      m_PreInfinity: 2
      m_PostInfinity: 2
      m_RotationOrder: 4
    attribute: localEulerAnglesRaw.x
    path: "\u0432\u043E\u0434\u043E\u0440\u043E\u0441\u043B\u0438_3"
    classID: 4
    script: {fileID: 0}
  - curve:
      serializedVersion: 2
      m_Curve:
      - time: 0
        value: 0
        inSlope: 0
        outSlope: 0
        tangentMode: 10
      - time: 0.4
        value: 0
        inSlope: 0
        outSlope: 0
        tangentMode: 10
      - time: 1.0666667
        value: 0
        inSlope: 0
        outSlope: 0
        tangentMode: 10
      - time: 1.6666666
        value: 0
        inSlope: 0
        outSlope: 0
        tangentMode: 10
      m_PreInfinity: 2
      m_PostInfinity: 2
      m_RotationOrder: 4
    attribute: localEulerAnglesRaw.y
    path: "\u0432\u043E\u0434\u043E\u0440\u043E\u0441\u043B\u0438_3"
    classID: 4
    script: {fileID: 0}
  - curve:
      serializedVersion: 2
      m_Curve:
      - time: 0
        value: -0.0903
        inSlope: 3.85725
        outSlope: 3.85725
        tangentMode: 10
      - time: 0.4
        value: 1.4526
        inSlope: -3.786749
        outSlope: -3.786749
        tangentMode: 10
      - time: 1.0666667
        value: -6.1678996
        inSlope: -0.65070677
        outSlope: -0.65070677
        tangentMode: 10
      - time: 1.6666666
        value: -0.0903
        inSlope: 10.129334
        outSlope: 10.129334
        tangentMode: 10
      m_PreInfinity: 2
      m_PostInfinity: 2
      m_RotationOrder: 4
    attribute: localEulerAnglesRaw.z
    path: "\u0432\u043E\u0434\u043E\u0440\u043E\u0441\u043B\u0438_3"
    classID: 4
    script: {fileID: 0}
  m_EulerEditorCurves:
  - curve:
      serializedVersion: 2
      m_Curve: []
      m_PreInfinity: 2
      m_PostInfinity: 2
      m_RotationOrder: 4
    attribute: m_LocalEulerAngles.z
    path: "\u0432\u043E\u0434\u043E\u0440\u043E\u0441\u043B\u0438_3"
    classID: 4
    script: {fileID: 0}
  - curve:
      serializedVersion: 2
      m_Curve: []
      m_PreInfinity: 2
      m_PostInfinity: 2
      m_RotationOrder: 4
    attribute: m_LocalEulerAngles.y
    path: "\u0432\u043E\u0434\u043E\u0440\u043E\u0441\u043B\u0438_3"
    classID: 4
    script: {fileID: 0}
  - curve:
      serializedVersion: 2
      m_Curve: []
      m_PreInfinity: 2
      m_PostInfinity: 2
      m_RotationOrder: 4
    attribute: m_LocalEulerAngles.x
    path: "\u0432\u043E\u0434\u043E\u0440\u043E\u0441\u043B\u0438_3"
    classID: 4
    script: {fileID: 0}
  - curve:
      serializedVersion: 2
      m_Curve: []
      m_PreInfinity: 2
      m_PostInfinity: 2
      m_RotationOrder: 4
    attribute: m_LocalEulerAngles.z
    path: "\u0432\u043E\u0434\u043E\u0440\u043E\u0441\u043B\u0438_2"
    classID: 4
    script: {fileID: 0}
  - curve:
      serializedVersion: 2
      m_Curve: []
      m_PreInfinity: 2
      m_PostInfinity: 2
      m_RotationOrder: 4
    attribute: m_LocalEulerAngles.y
    path: "\u0432\u043E\u0434\u043E\u0440\u043E\u0441\u043B\u0438_2"
    classID: 4
    script: {fileID: 0}
  - curve:
      serializedVersion: 2
      m_Curve: []
      m_PreInfinity: 2
      m_PostInfinity: 2
      m_RotationOrder: 4
    attribute: m_LocalEulerAngles.x
    path: "\u0432\u043E\u0434\u043E\u0440\u043E\u0441\u043B\u0438_2"
    classID: 4
    script: {fileID: 0}
  - curve:
      serializedVersion: 2
      m_Curve: []
      m_PreInfinity: 2
      m_PostInfinity: 2
      m_RotationOrder: 4
    attribute: m_LocalEulerAngles.z
    path: "\u0432\u043E\u0434\u043E\u0440\u043E\u0441\u043B\u0438_1"
    classID: 4
    script: {fileID: 0}
  - curve:
      serializedVersion: 2
      m_Curve: []
      m_PreInfinity: 2
      m_PostInfinity: 2
      m_RotationOrder: 4
    attribute: m_LocalEulerAngles.y
    path: "\u0432\u043E\u0434\u043E\u0440\u043E\u0441\u043B\u0438_1"
    classID: 4
    script: {fileID: 0}
  - curve:
      serializedVersion: 2
      m_Curve: []
      m_PreInfinity: 2
      m_PostInfinity: 2
      m_RotationOrder: 4
    attribute: m_LocalEulerAngles.x
    path: "\u0432\u043E\u0434\u043E\u0440\u043E\u0441\u043B\u0438_1"
    classID: 4
    script: {fileID: 0}
  - curve:
      serializedVersion: 2
      m_Curve: []
      m_PreInfinity: 2
      m_PostInfinity: 2
      m_RotationOrder: 4
    attribute: m_LocalEulerAngles.x
    path: "\u0432\u043E\u0434\u043E\u0440\u043E\u0441\u043B\u0438_6"
    classID: 4
    script: {fileID: 0}
  - curve:
      serializedVersion: 2
      m_Curve: []
      m_PreInfinity: 2
      m_PostInfinity: 2
      m_RotationOrder: 4
    attribute: m_LocalEulerAngles.y
    path: "\u0432\u043E\u0434\u043E\u0440\u043E\u0441\u043B\u0438_6"
    classID: 4
    script: {fileID: 0}
  - curve:
      serializedVersion: 2
      m_Curve: []
      m_PreInfinity: 2
      m_PostInfinity: 2
      m_RotationOrder: 4
    attribute: m_LocalEulerAngles.z
    path: "\u0432\u043E\u0434\u043E\u0440\u043E\u0441\u043B\u0438_6"
    classID: 4
    script: {fileID: 0}
  m_HasGenericRootTransform: 0
  m_HasMotionFloatCurves: 0
  m_GenerateMotionCurves: 0
  m_Events: []
