%YAML 1.1
%TAG !u! tag:unity3d.com,2011:
--- !u!74 &7400000
AnimationClip:
  m_ObjectHideFlags: 0
  m_PrefabParentObject: {fileID: 0}
  m_PrefabInternal: {fileID: 0}
  m_Name: AnimatedMoreButton
  serializedVersion: 6
  m_Legacy: 0
  m_Compressed: 0
  m_UseHighQualityCurve: 1
  m_RotationCurves: []
  m_CompressedRotationCurves: []
  m_EulerCurves: []
  m_PositionCurves: []
  m_ScaleCurves: []
  m_FloatCurves: []
  m_PPtrCurves:
  - curve:
    - time: 0
      value: {fileID: 21300000, guid: fad782e945781c749a83bf4c4e7d1b98, type: 3}
    - time: 0.5
      value: {fileID: 21300000, guid: 82de795ebc8255542a807811558bc5ca, type: 3}
    - time: 0.6666667
      value: {fileID: 21300000, guid: fad782e945781c749a83bf4c4e7d1b98, type: 3}
    - time: 2
      value: {fileID: 21300000, guid: c2a4f416b7353e341911a6d21317fdd7, type: 3}
    - time: 2.1666667
      value: {fileID: 21300000, guid: 832630f0c82993f4fb0158bf1240a08a, type: 3}
    - time: 2.9
      value: {fileID: 21300000, guid: c2a4f416b7353e341911a6d21317fdd7, type: 3}
    - time: 3.0666666
      value: {fileID: 21300000, guid: 832630f0c82993f4fb0158bf1240a08a, type: 3}
    - time: 3.6333334
      value: {fileID: 21300000, guid: c2a4f416b7353e341911a6d21317fdd7, type: 3}
    - time: 3.8
      value: {fileID: 21300000, guid: 832630f0c82993f4fb0158bf1240a08a, type: 3}
    - time: 4.3166666
      value: {fileID: 21300000, guid: 1dc18ea6e1b44bc4da2cb966a1c2d100, type: 3}
    - time: 4.483333
      value: {fileID: 21300000, guid: fad782e945781c749a83bf4c4e7d1b98, type: 3}
    - time: 6
      value: {fileID: 21300000, guid: fad782e945781c749a83bf4c4e7d1b98, type: 3}
    attribute: m_Sprite
    path: 
    classID: 114
    script: {fileID: -765806418, guid: f5f67c52d1564df4a8936ccd202a3bd8, type: 3}
  m_SampleRate: 60
  m_WrapMode: 0
  m_Bounds:
    m_Center: {x: 0, y: 0, z: 0}
    m_Extent: {x: 0, y: 0, z: 0}
  m_ClipBindingConstant:
    genericBindings:
    - path: 0
      attribute: 2015549526
      script: {fileID: -765806418, guid: f5f67c52d1564df4a8936ccd202a3bd8, type: 3}
      classID: 114
      customType: 0
      isPPtrCurve: 1
    pptrCurveMapping:
    - {fileID: 21300000, guid: fad782e945781c749a83bf4c4e7d1b98, type: 3}
    - {fileID: 21300000, guid: 82de795ebc8255542a807811558bc5ca, type: 3}
    - {fileID: 21300000, guid: fad782e945781c749a83bf4c4e7d1b98, type: 3}
    - {fileID: 21300000, guid: c2a4f416b7353e341911a6d21317fdd7, type: 3}
    - {fileID: 21300000, guid: 832630f0c82993f4fb0158bf1240a08a, type: 3}
    - {fileID: 21300000, guid: c2a4f416b7353e341911a6d21317fdd7, type: 3}
    - {fileID: 21300000, guid: 832630f0c82993f4fb0158bf1240a08a, type: 3}
    - {fileID: 21300000, guid: c2a4f416b7353e341911a6d21317fdd7, type: 3}
    - {fileID: 21300000, guid: 832630f0c82993f4fb0158bf1240a08a, type: 3}
    - {fileID: 21300000, guid: 1dc18ea6e1b44bc4da2cb966a1c2d100, type: 3}
    - {fileID: 21300000, guid: fad782e945781c749a83bf4c4e7d1b98, type: 3}
    - {fileID: 21300000, guid: fad782e945781c749a83bf4c4e7d1b98, type: 3}
  m_AnimationClipSettings:
    serializedVersion: 2
    m_AdditiveReferencePoseClip: {fileID: 0}
    m_AdditiveReferencePoseTime: 0
    m_StartTime: 0
    m_StopTime: 6.016667
    m_OrientationOffsetY: 0
    m_Level: 0
    m_CycleOffset: 0
    m_HasAdditiveReferencePose: 0
    m_LoopTime: 1
    m_LoopBlend: 0
    m_LoopBlendOrientation: 0
    m_LoopBlendPositionY: 0
    m_LoopBlendPositionXZ: 0
    m_KeepOriginalOrientation: 0
    m_KeepOriginalPositionY: 1
    m_KeepOriginalPositionXZ: 0
    m_HeightFromFeet: 0
    m_Mirror: 0
  m_EditorCurves: []
  m_EulerEditorCurves: []
  m_HasGenericRootTransform: 0
  m_HasMotionFloatCurves: 0
  m_GenerateMotionCurves: 0
  m_Events: []
