%YAML 1.1
%TAG !u! tag:unity3d.com,2011:
--- !u!74 &7400000
AnimationClip:
  m_ObjectHideFlags: 0
  m_PrefabParentObject: {fileID: 0}
  m_PrefabInternal: {fileID: 0}
  m_Name: action_A
  serializedVersion: 6
  m_Legacy: 0
  m_Compressed: 0
  m_UseHighQualityCurve: 1
  m_RotationCurves: []
  m_CompressedRotationCurves: []
  m_EulerCurves:
  - curve:
      serializedVersion: 2
      m_Curve:
      - time: 0
        value: {x: -0, y: 0, z: 0}
        inSlope: {x: 0, y: -0, z: 1.92}
        outSlope: {x: 0, y: -0, z: 1.92}
        tangentMode: 0
      - time: 0.1
        value: {x: -0, y: -0, z: 0.192}
        inSlope: {x: 0, y: -0, z: 1.92}
        outSlope: {x: 0, y: -0, z: 1.92}
        tangentMode: 0
      m_PreInfinity: 2
      m_PostInfinity: 2
      m_RotationOrder: 4
    path: blesk_0
  - curve:
      serializedVersion: 2
      m_Curve:
      - time: 0
        value: {x: -0, y: 0, z: 0}
        inSlope: {x: 0, y: 0, z: 186.11598}
        outSlope: {x: 0, y: 0, z: 186.11598}
        tangentMode: 0
      - time: 0.05
        value: {x: 0, y: 0, z: 9.3057995}
        inSlope: {x: 0, y: 0, z: 1.9199982}
        outSlope: {x: 0, y: 0, z: 1.9199982}
        tangentMode: 0
      - time: 0.1
        value: {x: -0, y: -0, z: 0.192}
        inSlope: {x: 0, y: 0, z: 47.935707}
        outSlope: {x: 0, y: 0, z: 47.935707}
        tangentMode: 0
      - time: 0.45
        value: {x: 0, y: 0, z: 97.543594}
        inSlope: {x: 0, y: 0, z: 1473.4244}
        outSlope: {x: 0, y: 0, z: 1473.4244}
        tangentMode: 0
      - time: 0.5
        value: {x: 0, y: 0, z: 230.9787}
        inSlope: {x: 0, y: 0, z: 1556.6206}
        outSlope: {x: 0, y: 0, z: 1556.6206}
        tangentMode: 0
      - time: 0.55
        value: {x: 0, y: 0, z: 253.20569}
        inSlope: {x: 0, y: 0, z: 497.51984}
        outSlope: {x: 0, y: 0, z: 497.51984}
        tangentMode: 0
      - time: 0.85
        value: {x: 0, y: 0, z: 418.35568}
        inSlope: {x: 0, y: 0, z: 550.49994}
        outSlope: {x: 0, y: 0, z: 550.49994}
        tangentMode: 0
      m_PreInfinity: 2
      m_PostInfinity: 2
      m_RotationOrder: 4
    path: "\u043C\u043E\u043D\u0435\u0442\u044B_0"
  - curve:
      serializedVersion: 2
      m_Curve:
      - time: 0
        value: {x: -0, y: 0, z: 0}
        inSlope: {x: 0, y: 0, z: -241.31198}
        outSlope: {x: 0, y: 0, z: -241.31198}
        tangentMode: 0
      - time: 0.1
        value: {x: 0, y: 0, z: -24.131199}
        inSlope: {x: 0, y: 0, z: 63.156494}
        outSlope: {x: 0, y: 0, z: 63.156494}
        tangentMode: 0
      - time: 0.4
        value: {x: 0, y: 0, z: 86.156296}
        inSlope: {x: 0, y: 0, z: 568.1197}
        outSlope: {x: 0, y: 0, z: 568.1197}
        tangentMode: 0
      - time: 0.6
        value: {x: 0, y: 0, z: 239.8792}
        inSlope: {x: 0, y: 0, z: 649.4295}
        outSlope: {x: 0, y: 0, z: 649.4295}
        tangentMode: 0
      - time: 0.8
        value: {x: 0, y: 0, z: 345.9281}
        inSlope: {x: 0, y: 0, z: 1048.1066}
        outSlope: {x: 0, y: 0, z: 1048.1066}
        tangentMode: 0
      - time: 0.9
        value: {x: 0, y: 0, z: 502.5249}
        inSlope: {x: 0, y: 0, z: 995.5154}
        outSlope: {x: 0, y: 0, z: 995.5154}
        tangentMode: 0
      - time: 0.95
        value: {x: 0, y: 0, z: 523.778}
        inSlope: {x: 0, y: 0, z: 383.58267}
        outSlope: {x: 0, y: 0, z: 383.58267}
        tangentMode: 0
      - time: 1
        value: {x: 0, y: 0, z: 540.8832}
        inSlope: {x: 0, y: 0, z: 662.7159}
        outSlope: {x: 0, y: 0, z: 662.7159}
        tangentMode: 0
      - time: 1.05
        value: {x: 0, y: 0, z: 590.04956}
        inSlope: {x: 0, y: 0, z: 1015.89087}
        outSlope: {x: 0, y: 0, z: 1015.89087}
        tangentMode: 0
      - time: 1.1
        value: {x: 0, y: 0, z: 642.4723}
        inSlope: {x: 0, y: 0, z: 798.3998}
        outSlope: {x: 0, y: 0, z: 798.3998}
        tangentMode: 0
      - time: 1.15
        value: {x: 0, y: 0, z: 669.8896}
        inSlope: {x: 0, y: 0, z: 548.3465}
        outSlope: {x: 0, y: 0, z: 548.3465}
        tangentMode: 0
      m_PreInfinity: 2
      m_PostInfinity: 2
      m_RotationOrder: 4
    path: "\u043C\u043E\u043D\u0435\u0442\u044B_1"
  - curve:
      serializedVersion: 2
      m_Curve:
      - time: 0
        value: {x: -0, y: 0, z: 0}
        inSlope: {x: 0, y: -0, z: 1.92}
        outSlope: {x: 0, y: -0, z: 1.92}
        tangentMode: 0
      - time: 0.1
        value: {x: -0, y: -0, z: 0.192}
        inSlope: {x: 0, y: 0, z: 20.982084}
        outSlope: {x: 0, y: 0, z: 20.982084}
        tangentMode: 0
      - time: 0.7
        value: {x: 0, y: 0, z: 24.2185}
        inSlope: {x: 0, y: 0, z: 40.04417}
        outSlope: {x: 0, y: 0, z: 40.04417}
        tangentMode: 0
      m_PreInfinity: 2
      m_PostInfinity: 2
      m_RotationOrder: 4
    path: "\u043C\u043E\u043D\u0435\u0442\u044B_2"
  m_PositionCurves:
  - curve:
      serializedVersion: 2
      m_Curve:
      - time: 0
        value: {x: -2.06, y: 2.71, z: 0}
        inSlope: {x: 19.8, y: -17.1, z: 0}
        outSlope: {x: 19.8, y: -17.1, z: 0}
        tangentMode: 0
      - time: 0.1
        value: {x: -0.08, y: 1, z: 0}
        inSlope: {x: 1.6199999, y: -5.19, z: 0}
        outSlope: {x: 1.6199999, y: -5.19, z: 0}
        tangentMode: 0
      - time: 0.35
        value: {x: -4.22, y: 2.68, z: 0}
        inSlope: {x: -17.78, y: -2.8149996, z: 0}
        outSlope: {x: -17.78, y: -2.8149996, z: 0}
        tangentMode: 0
      - time: 0.55
        value: {x: -8.02, y: 0.21, z: 0}
        inSlope: {x: -12.933334, y: -16.708336, z: 0}
        outSlope: {x: -12.933334, y: -16.708336, z: 0}
        tangentMode: 0
      - time: 0.7
        value: {x: -9.05, y: -2.95, z: 0}
        inSlope: {x: -11.699999, y: -9.833336, z: 0}
        outSlope: {x: -11.699999, y: -9.833336, z: 0}
        tangentMode: 0
      - time: 1
        value: {x: -14.01, y: -2.53, z: 0}
        inSlope: {x: -14.5166645, y: -3.099999, z: 0}
        outSlope: {x: -14.5166645, y: -3.099999, z: 0}
        tangentMode: 0
      - time: 1.1
        value: {x: -15.26, y: -3.29, z: 0}
        inSlope: {x: -12.499997, y: -7.599998, z: 0}
        outSlope: {x: -12.499997, y: -7.599998, z: 0}
        tangentMode: 0
      m_PreInfinity: 2
      m_PostInfinity: 2
      m_RotationOrder: 4
    path: blesk_0
  - curve:
      serializedVersion: 2
      m_Curve:
      - time: 0
        value: {x: -0.07, y: -0.02, z: 0}
        inSlope: {x: -5.4, y: 6.8, z: 0}
        outSlope: {x: -5.4, y: 6.8, z: 0}
        tangentMode: 0
      - time: 0.05
        value: {x: -0.34, y: 0.32, z: 0}
        inSlope: {x: 0, y: 0.50000024, z: 0}
        outSlope: {x: 0, y: 0.50000024, z: 0}
        tangentMode: 0
      - time: 0.1
        value: {x: -0.07, y: 0.03, z: 0}
        inSlope: {x: -6.771428, y: -0.057142735, z: 0}
        outSlope: {x: -6.771428, y: -0.057142735, z: 0}
        tangentMode: 0
      - time: 0.45
        value: {x: -6.7, y: 2.02, z: 0}
        inSlope: {x: -16.971426, y: -7.3571396, z: 0}
        outSlope: {x: -16.971426, y: -7.3571396, z: 0}
        tangentMode: 0
      - time: 0.5
        value: {x: -7.45, y: 1, z: 0}
        inSlope: {x: -15.399996, y: -19.299995, z: 0}
        outSlope: {x: -15.399996, y: -19.299995, z: 0}
        tangentMode: 0
      - time: 0.55
        value: {x: -8.24, y: 0.09, z: 0}
        inSlope: {x: -14.416664, y: -10.549997, z: 0}
        outSlope: {x: -14.416664, y: -10.549997, z: 0}
        tangentMode: 0
      - time: 0.85
        value: {x: -12.15, y: -0.78, z: 0}
        inSlope: {x: -13.033332, y: -2.8999999, z: 0}
        outSlope: {x: -13.033332, y: -2.8999999, z: 0}
        tangentMode: 0
      m_PreInfinity: 2
      m_PostInfinity: 2
      m_RotationOrder: 4
    path: "\u043C\u043E\u043D\u0435\u0442\u044B_0"
  - curve:
      serializedVersion: 2
      m_Curve:
      - time: 0
        value: {x: -0.38, y: 0.87, z: 0}
        inSlope: {x: 0.39999992, y: 0, z: 0}
        outSlope: {x: 0.39999992, y: 0, z: 0}
        tangentMode: 0
      - time: 0.1
        value: {x: -0.34, y: 0.87, z: 0}
        inSlope: {x: -3.1999996, y: 4.1999993, z: 0}
        outSlope: {x: -3.1999996, y: 4.1999993, z: 0}
        tangentMode: 0
      - time: 0.15
        value: {x: -0.68, y: 1.29, z: 0}
        inSlope: {x: -10.724999, y: 8.225, z: 0}
        outSlope: {x: -10.724999, y: 8.225, z: 0}
        tangentMode: 0
      - time: 0.35
        value: {x: -3.61, y: 2.9, z: 0}
        inSlope: {x: -23.124998, y: 4.924999, z: 0}
        outSlope: {x: -23.124998, y: 4.924999, z: 0}
        tangentMode: 0
      - time: 0.4
        value: {x: -5.19, y: 2.99, z: 0}
        inSlope: {x: -24.599998, y: -10.224999, z: 0}
        outSlope: {x: -24.599998, y: -10.224999, z: 0}
        tangentMode: 0
      - time: 0.6
        value: {x: -8.71, y: -1.46, z: 0}
        inSlope: {x: -15.200001, y: -9.874998, z: 0}
        outSlope: {x: -15.200001, y: -9.874998, z: 0}
        tangentMode: 0
      - time: 0.8
        value: {x: -11.27, y: -0.96, z: 0}
        inSlope: {x: -17.099995, y: 3.4499993, z: 0}
        outSlope: {x: -17.099995, y: 3.4499993, z: 0}
        tangentMode: 0
      - time: 0.85
        value: {x: -12.34, y: -0.74, z: 0}
        inSlope: {x: -20.099998, y: -1.0000033, z: 0}
        outSlope: {x: -20.099998, y: -1.0000033, z: 0}
        tangentMode: 0
      - time: 0.9
        value: {x: -13.28, y: -1.06, z: 0}
        inSlope: {x: -13.7000065, y: -18.3, z: 0}
        outSlope: {x: -13.7000065, y: -18.3, z: 0}
        tangentMode: 0
      - time: 0.95
        value: {x: -13.71, y: -2.57, z: 0}
        inSlope: {x: -6.999996, y: -19.199997, z: 0}
        outSlope: {x: -6.999996, y: -19.199997, z: 0}
        tangentMode: 0
      - time: 1
        value: {x: -13.98, y: -2.98, z: 0}
        inSlope: {x: -7.500004, y: -1.699995, z: 0}
        outSlope: {x: -7.500004, y: -1.699995, z: 0}
        tangentMode: 0
      - time: 1.05
        value: {x: -14.46, y: -2.7399998, z: 0}
        inSlope: {x: -9.400003, y: 4.4, z: 0}
        outSlope: {x: -9.400003, y: 4.4, z: 0}
        tangentMode: 0
      - time: 1.1
        value: {x: -14.92, y: -2.54, z: 0}
        inSlope: {x: -10.900002, y: -4.400012, z: 0}
        outSlope: {x: -10.900002, y: -4.400012, z: 0}
        tangentMode: 0
      - time: 1.15
        value: {x: -15.55, y: -3.18, z: 0}
        inSlope: {x: -12.600015, y: -12.8000145, z: 0}
        outSlope: {x: -12.600015, y: -12.8000145, z: 0}
        tangentMode: 0
      m_PreInfinity: 2
      m_PostInfinity: 2
      m_RotationOrder: 4
    path: "\u043C\u043E\u043D\u0435\u0442\u044B_1"
  - curve:
      serializedVersion: 2
      m_Curve:
      - time: 0
        value: {x: -1.34, y: 2.04, z: 0}
        inSlope: {x: -0.099999905, y: 0.19999981, z: 0}
        outSlope: {x: -0.099999905, y: 0.19999981, z: 0}
        tangentMode: 0
      - time: 0.1
        value: {x: -1.35, y: 2.06, z: 0}
        inSlope: {x: -2.8166666, y: 1.3666669, z: 0}
        outSlope: {x: -2.8166666, y: 1.3666669, z: 0}
        tangentMode: 0
      - time: 0.25
        value: {x: -2.18, y: 2.44, z: 0}
        inSlope: {x: -10.666664, y: 4.866665, z: 0}
        outSlope: {x: -10.666664, y: 4.866665, z: 0}
        tangentMode: 0
      - time: 0.3
        value: {x: -2.97, y: 2.8, z: 0}
        inSlope: {x: -16.971426, y: -4.885717, z: 0}
        outSlope: {x: -16.971426, y: -4.885717, z: 0}
        tangentMode: 0
      - time: 0.65
        value: {x: -9.32, y: -3.14, z: 0}
        inSlope: {x: -10.171434, y: -7.0857143, z: 0}
        outSlope: {x: -10.171434, y: -7.0857143, z: 0}
        tangentMode: 0
      - time: 0.7
        value: {x: -9.43, y: -3, z: 0}
        inSlope: {x: -8.4, y: 7.8, z: 0}
        outSlope: {x: -8.4, y: 7.8, z: 0}
        tangentMode: 0
      - time: 0.75
        value: {x: -10.16, y: -2.36, z: 0}
        inSlope: {x: -14.599987, y: 12.799999, z: 0}
        outSlope: {x: -14.599987, y: 12.799999, z: 0}
        tangentMode: 0
      m_PreInfinity: 2
      m_PostInfinity: 2
      m_RotationOrder: 4
    path: "\u043C\u043E\u043D\u0435\u0442\u044B_2"
  m_ScaleCurves:
  - curve:
      serializedVersion: 2
      m_Curve:
      - time: 0
        value: {x: 1, y: 1, z: 1}
        inSlope: {x: 0, y: -0.12402892, z: 0}
        outSlope: {x: 0, y: -0.12402892, z: 0}
        tangentMode: 0
      - time: 0.1
        value: {x: 1, y: 0.9875971, z: 1}
        inSlope: {x: 0, y: -0.12402892, z: 0}
        outSlope: {x: 0, y: -0.12402892, z: 0}
        tangentMode: 0
      m_PreInfinity: 2
      m_PostInfinity: 2
      m_RotationOrder: 4
    path: blesk_0
  - curve:
      serializedVersion: 2
      m_Curve:
      - time: 0
        value: {x: 1, y: 1, z: 1}
        inSlope: {x: 0, y: 7.734916, z: 0}
        outSlope: {x: 0, y: 7.734916, z: 0}
        tangentMode: 0
      - time: 0.05
        value: {x: 1, y: 1.3867458, z: 1}
        inSlope: {x: 0, y: -0.12402892, z: 0}
        outSlope: {x: 0, y: -0.12402892, z: 0}
        tangentMode: 0
      - time: 0.1
        value: {x: 1, y: 0.9875971, z: 1}
        inSlope: {x: 0, y: -7.982974, z: 0}
        outSlope: {x: 0, y: -7.982974, z: 0}
        tangentMode: 0
      m_PreInfinity: 2
      m_PostInfinity: 2
      m_RotationOrder: 4
    path: "\u043C\u043E\u043D\u0435\u0442\u044B_0"
  - curve:
      serializedVersion: 2
      m_Curve:
      - time: 0
        value: {x: 1, y: 1, z: 1}
        inSlope: {x: 0, y: -0.12402892, z: 0}
        outSlope: {x: 0, y: -0.12402892, z: 0}
        tangentMode: 0
      - time: 0.1
        value: {x: 1, y: 0.9875971, z: 1}
        inSlope: {x: -0.019037167, y: 0.008910306, z: 0}
        outSlope: {x: -0.019037167, y: 0.008910306, z: 0}
        tangentMode: 0
      - time: 0.9
        value: {x: 0.96954054, y: 1.1010767, z: 1}
        inSlope: {x: 1.5287929, y: -0.80410874, z: 0}
        outSlope: {x: 1.5287929, y: -0.80410874, z: 0}
        tangentMode: 0
      - time: 1
        value: {x: 1.2791066, y: 0.92607, z: 1}
        inSlope: {x: -0.9261502, y: 3.435655, z: 0}
        outSlope: {x: -0.9261502, y: 3.435655, z: 0}
        tangentMode: 0
      - time: 1.05
        value: {x: 1.0317088, y: 1.3571384, z: 1}
        inSlope: {x: -2.4739802, y: 3.9607825, z: 0}
        outSlope: {x: -2.4739802, y: 3.9607825, z: 0}
        tangentMode: 0
      - time: 1.15
        value: {x: 1.0317088, y: 1.2871572, z: 1}
        inSlope: {x: 0, y: -0.699812, z: 0}
        outSlope: {x: 0, y: -0.699812, z: 0}
        tangentMode: 0
      m_PreInfinity: 2
      m_PostInfinity: 2
      m_RotationOrder: 4
    path: "\u043C\u043E\u043D\u0435\u0442\u044B_1"
  - curve:
      serializedVersion: 2
      m_Curve:
      - time: 0
        value: {x: 1.1331062, y: 1, z: 1}
        inSlope: {x: 0, y: -0.12402892, z: 0}
        outSlope: {x: 0, y: -0.12402892, z: 0}
        tangentMode: 0
      - time: 0.1
        value: {x: 1.1331062, y: 0.9875971, z: 1}
        inSlope: {x: 0, y: -0.16579504, z: 0}
        outSlope: {x: 0, y: -0.16579504, z: 0}
        tangentMode: 0
      - time: 0.65
        value: {x: 1.1331062, y: 0.8734385, z: 1}
        inSlope: {x: -2.6613712, y: 2.367529, z: 0}
        outSlope: {x: -2.6613712, y: 2.367529, z: 0}
        tangentMode: 0
      - time: 0.7
        value: {x: 0.86696905, y: 1.1205695, z: 1}
        inSlope: {x: -0.71161854, y: 2.4713094, z: 0}
        outSlope: {x: -0.71161854, y: 2.4713094, z: 0}
        tangentMode: 0
      - time: 0.75
        value: {x: 1.0619444, y: 1.1205695, z: 1}
        inSlope: {x: 3.8995054, y: 0, z: 0}
        outSlope: {x: 3.8995054, y: 0, z: 0}
        tangentMode: 0
      m_PreInfinity: 2
      m_PostInfinity: 2
      m_RotationOrder: 4
    path: "\u043C\u043E\u043D\u0435\u0442\u044B_2"
  m_FloatCurves:
  - curve:
      serializedVersion: 2
      m_Curve:
      - time: 0
        value: 0
        inSlope: Infinity
        outSlope: Infinity
        tangentMode: 31
      - time: 0.1
        value: 1
        inSlope: Infinity
        outSlope: Infinity
        tangentMode: 31
      - time: 0.2
        value: 0
        inSlope: Infinity
        outSlope: Infinity
        tangentMode: 31
      - time: 0.35
        value: 1
        inSlope: Infinity
        outSlope: Infinity
        tangentMode: 31
      - time: 0.4
        value: 0
        inSlope: Infinity
        outSlope: Infinity
        tangentMode: 31
      - time: 0.45
        value: 0
        inSlope: Infinity
        outSlope: Infinity
        tangentMode: 31
      - time: 0.55
        value: 1
        inSlope: Infinity
        outSlope: Infinity
        tangentMode: 31
      - time: 0.6
        value: 0
        inSlope: Infinity
        outSlope: Infinity
        tangentMode: 31
      - time: 0.7
        value: 1
        inSlope: Infinity
        outSlope: Infinity
        tangentMode: 31
      - time: 0.75
        value: 0
        inSlope: Infinity
        outSlope: Infinity
        tangentMode: 31
      - time: 1
        value: 1
        inSlope: Infinity
        outSlope: Infinity
        tangentMode: 31
      - time: 1.05
        value: 0
        inSlope: Infinity
        outSlope: Infinity
        tangentMode: 31
      - time: 1.1
        value: 0
        inSlope: Infinity
        outSlope: Infinity
        tangentMode: 31
      - time: 1.15
        value: 1
        inSlope: Infinity
        outSlope: Infinity
        tangentMode: 31
      m_PreInfinity: 2
      m_PostInfinity: 2
      m_RotationOrder: 4
    attribute: m_Enabled
    path: blesk_0
    classID: 212
    script: {fileID: 0}
  - curve:
      serializedVersion: 2
      m_Curve:
      - time: 0
        value: 1
        inSlope: Infinity
        outSlope: Infinity
        tangentMode: 31
      - time: 0.1
        value: 0
        inSlope: Infinity
        outSlope: Infinity
        tangentMode: 31
      - time: 0.45
        value: 1
        inSlope: Infinity
        outSlope: Infinity
        tangentMode: 31
      - time: 0.6
        value: 0
        inSlope: Infinity
        outSlope: Infinity
        tangentMode: 31
      - time: 0.85
        value: 1
        inSlope: Infinity
        outSlope: Infinity
        tangentMode: 31
      - time: 0.9
        value: 0
        inSlope: Infinity
        outSlope: Infinity
        tangentMode: 31
      m_PreInfinity: 2
      m_PostInfinity: 2
      m_RotationOrder: 4
    attribute: m_Enabled
    path: "\u043C\u043E\u043D\u0435\u0442\u044B_0"
    classID: 212
    script: {fileID: 0}
  - curve:
      serializedVersion: 2
      m_Curve:
      - time: 0
        value: 0
        inSlope: Infinity
        outSlope: Infinity
        tangentMode: 31
      - time: 0.1
        value: 1
        inSlope: Infinity
        outSlope: Infinity
        tangentMode: 31
      - time: 0.2
        value: 0
        inSlope: Infinity
        outSlope: Infinity
        tangentMode: 31
      - time: 0.35
        value: 1
        inSlope: Infinity
        outSlope: Infinity
        tangentMode: 31
      - time: 0.45
        value: 0
        inSlope: Infinity
        outSlope: Infinity
        tangentMode: 31
      - time: 0.6
        value: 1
        inSlope: Infinity
        outSlope: Infinity
        tangentMode: 31
      - time: 0.65
        value: 0
        inSlope: Infinity
        outSlope: Infinity
        tangentMode: 31
      - time: 0.8
        value: 1
        inSlope: Infinity
        outSlope: Infinity
        tangentMode: 31
      - time: 0.85
        value: 0
        inSlope: Infinity
        outSlope: Infinity
        tangentMode: 31
      - time: 0.9
        value: 1
        inSlope: Infinity
        outSlope: Infinity
        tangentMode: 31
      m_PreInfinity: 2
      m_PostInfinity: 2
      m_RotationOrder: 4
    attribute: m_Enabled
    path: "\u043C\u043E\u043D\u0435\u0442\u044B_1"
    classID: 212
    script: {fileID: 0}
  - curve:
      serializedVersion: 2
      m_Curve:
      - time: 0
        value: 0
        inSlope: Infinity
        outSlope: Infinity
        tangentMode: 31
      - time: 0.1
        value: 0
        inSlope: Infinity
        outSlope: Infinity
        tangentMode: 31
      - time: 0.2
        value: 1
        inSlope: Infinity
        outSlope: Infinity
        tangentMode: 31
      - time: 0.35
        value: 0
        inSlope: Infinity
        outSlope: Infinity
        tangentMode: 31
      - time: 0.65
        value: 1
        inSlope: Infinity
        outSlope: Infinity
        tangentMode: 31
      - time: 0.8
        value: 0
        inSlope: Infinity
        outSlope: Infinity
        tangentMode: 31
      m_PreInfinity: 2
      m_PostInfinity: 2
      m_RotationOrder: 4
    attribute: m_Enabled
    path: "\u043C\u043E\u043D\u0435\u0442\u044B_2"
    classID: 212
    script: {fileID: 0}
  m_PPtrCurves: []
  m_SampleRate: 20
  m_WrapMode: 0
  m_Bounds:
    m_Center: {x: 0, y: 0, z: 0}
    m_Extent: {x: 0, y: 0, z: 0}
  m_ClipBindingConstant:
    genericBindings:
    - path: 2303979306
      attribute: 1
      script: {fileID: 0}
      classID: 4
      customType: 0
      isPPtrCurve: 0
    - path: 4051141976
      attribute: 1
      script: {fileID: 0}
      classID: 4
      customType: 0
      isPPtrCurve: 0
    - path: 2255533518
      attribute: 1
      script: {fileID: 0}
      classID: 4
      customType: 0
      isPPtrCurve: 0
    - path: 528082036
      attribute: 1
      script: {fileID: 0}
      classID: 4
      customType: 0
      isPPtrCurve: 0
    - path: 2303979306
      attribute: 4
      script: {fileID: 0}
      classID: 4
      customType: 14
      isPPtrCurve: 0
    - path: 4051141976
      attribute: 4
      script: {fileID: 0}
      classID: 4
      customType: 14
      isPPtrCurve: 0
    - path: 2255533518
      attribute: 4
      script: {fileID: 0}
      classID: 4
      customType: 14
      isPPtrCurve: 0
    - path: 528082036
      attribute: 4
      script: {fileID: 0}
      classID: 4
      customType: 14
      isPPtrCurve: 0
    - path: 2303979306
      attribute: 3
      script: {fileID: 0}
      classID: 4
      customType: 0
      isPPtrCurve: 0
    - path: 4051141976
      attribute: 3
      script: {fileID: 0}
      classID: 4
      customType: 0
      isPPtrCurve: 0
    - path: 2255533518
      attribute: 3
      script: {fileID: 0}
      classID: 4
      customType: 0
      isPPtrCurve: 0
    - path: 528082036
      attribute: 3
      script: {fileID: 0}
      classID: 4
      customType: 0
      isPPtrCurve: 0
    - path: 2303979306
      attribute: 3305885265
      script: {fileID: 0}
      classID: 212
      customType: 0
      isPPtrCurve: 0
    - path: 4051141976
      attribute: 3305885265
      script: {fileID: 0}
      classID: 212
      customType: 0
      isPPtrCurve: 0
    - path: 2255533518
      attribute: 3305885265
      script: {fileID: 0}
      classID: 212
      customType: 0
      isPPtrCurve: 0
    - path: 528082036
      attribute: 3305885265
      script: {fileID: 0}
      classID: 212
      customType: 0
      isPPtrCurve: 0
    pptrCurveMapping: []
  m_AnimationClipSettings:
    serializedVersion: 2
    m_AdditiveReferencePoseClip: {fileID: 0}
    m_AdditiveReferencePoseTime: 0
    m_StartTime: 0
    m_StopTime: 1.15
    m_OrientationOffsetY: 0
    m_Level: 0
    m_CycleOffset: 0
    m_HasAdditiveReferencePose: 0
    m_LoopTime: 1
    m_LoopBlend: 0
    m_LoopBlendOrientation: 0
    m_LoopBlendPositionY: 0
    m_LoopBlendPositionXZ: 0
    m_KeepOriginalOrientation: 0
    m_KeepOriginalPositionY: 1
    m_KeepOriginalPositionXZ: 0
    m_HeightFromFeet: 0
    m_Mirror: 0
  m_EditorCurves:
  - curve:
      serializedVersion: 2
      m_Curve:
      - time: 0
        value: -2.06
        inSlope: 19.8
        outSlope: 19.8
        tangentMode: 10
      - time: 0.1
        value: -0.08
        inSlope: 1.6199999
        outSlope: 1.6199999
        tangentMode: 10
      - time: 0.35
        value: -4.22
        inSlope: -17.78
        outSlope: -17.78
        tangentMode: 10
      - time: 0.55
        value: -8.02
        inSlope: -12.933334
        outSlope: -12.933334
        tangentMode: 10
      - time: 0.7
        value: -9.05
        inSlope: -11.699999
        outSlope: -11.699999
        tangentMode: 10
      - time: 1
        value: -14.01
        inSlope: -14.5166645
        outSlope: -14.5166645
        tangentMode: 10
      - time: 1.1
        value: -15.26
        inSlope: -12.499997
        outSlope: -12.499997
        tangentMode: 10
      m_PreInfinity: 2
      m_PostInfinity: 2
      m_RotationOrder: 4
    attribute: m_LocalPosition.x
    path: blesk_0
    classID: 4
    script: {fileID: 0}
  - curve:
      serializedVersion: 2
      m_Curve:
      - time: 0
        value: 2.71
        inSlope: -17.1
        outSlope: -17.1
        tangentMode: 10
      - time: 0.1
        value: 1
        inSlope: -5.19
        outSlope: -5.19
        tangentMode: 10
      - time: 0.35
        value: 2.68
        inSlope: -2.8149996
        outSlope: -2.8149996
        tangentMode: 10
      - time: 0.55
        value: 0.21
        inSlope: -16.708336
        outSlope: -16.708336
        tangentMode: 10
      - time: 0.7
        value: -2.95
        inSlope: -9.833336
        outSlope: -9.833336
        tangentMode: 10
      - time: 1
        value: -2.53
        inSlope: -3.099999
        outSlope: -3.099999
        tangentMode: 10
      - time: 1.1
        value: -3.29
        inSlope: -7.599998
        outSlope: -7.599998
        tangentMode: 10
      m_PreInfinity: 2
      m_PostInfinity: 2
      m_RotationOrder: 4
    attribute: m_LocalPosition.y
    path: blesk_0
    classID: 4
    script: {fileID: 0}
  - curve:
      serializedVersion: 2
      m_Curve:
      - time: 0
        value: 0
        inSlope: 0
        outSlope: 0
        tangentMode: 10
      - time: 0.1
        value: 0
        inSlope: 0
        outSlope: 0
        tangentMode: 10
      - time: 0.35
        value: 0
        inSlope: 0
        outSlope: 0
        tangentMode: 10
      - time: 0.55
        value: 0
        inSlope: 0
        outSlope: 0
        tangentMode: 10
      - time: 0.7
        value: 0
        inSlope: 0
        outSlope: 0
        tangentMode: 10
      - time: 1
        value: 0
        inSlope: 0
        outSlope: 0
        tangentMode: 10
      - time: 1.1
        value: 0
        inSlope: 0
        outSlope: 0
        tangentMode: 10
      m_PreInfinity: 2
      m_PostInfinity: 2
      m_RotationOrder: 4
    attribute: m_LocalPosition.z
    path: blesk_0
    classID: 4
    script: {fileID: 0}
  - curve:
      serializedVersion: 2
      m_Curve:
      - time: 0
        value: -0
        inSlope: 0
        outSlope: 0
        tangentMode: 10
      - time: 0.1
        value: -0
        inSlope: 0
        outSlope: 0
        tangentMode: 10
      m_PreInfinity: 2
      m_PostInfinity: 2
      m_RotationOrder: 4
    attribute: localEulerAnglesRaw.x
    path: blesk_0
    classID: 4
    script: {fileID: 0}
  - curve:
      serializedVersion: 2
      m_Curve:
      - time: 0
        value: 0
        inSlope: -0
        outSlope: -0
        tangentMode: 10
      - time: 0.1
        value: -0
        inSlope: -0
        outSlope: -0
        tangentMode: 10
      m_PreInfinity: 2
      m_PostInfinity: 2
      m_RotationOrder: 4
    attribute: localEulerAnglesRaw.y
    path: blesk_0
    classID: 4
    script: {fileID: 0}
  - curve:
      serializedVersion: 2
      m_Curve:
      - time: 0
        value: 0
        inSlope: 1.92
        outSlope: 1.92
        tangentMode: 10
      - time: 0.1
        value: 0.192
        inSlope: 1.92
        outSlope: 1.92
        tangentMode: 10
      m_PreInfinity: 2
      m_PostInfinity: 2
      m_RotationOrder: 4
    attribute: localEulerAnglesRaw.z
    path: blesk_0
    classID: 4
    script: {fileID: 0}
  - curve:
      serializedVersion: 2
      m_Curve:
      - time: 0
        value: 1
        inSlope: 0
        outSlope: 0
        tangentMode: 10
      - time: 0.1
        value: 1
        inSlope: 0
        outSlope: 0
        tangentMode: 10
      m_PreInfinity: 2
      m_PostInfinity: 2
      m_RotationOrder: 4
    attribute: m_LocalScale.x
    path: blesk_0
    classID: 4
    script: {fileID: 0}
  - curve:
      serializedVersion: 2
      m_Curve:
      - time: 0
        value: 1
        inSlope: -0.12402892
        outSlope: -0.12402892
        tangentMode: 10
      - time: 0.1
        value: 0.9875971
        inSlope: -0.12402892
        outSlope: -0.12402892
        tangentMode: 10
      m_PreInfinity: 2
      m_PostInfinity: 2
      m_RotationOrder: 4
    attribute: m_LocalScale.y
    path: blesk_0
    classID: 4
    script: {fileID: 0}
  - curve:
      serializedVersion: 2
      m_Curve:
      - time: 0
        value: 1
        inSlope: 0
        outSlope: 0
        tangentMode: 10
      - time: 0.1
        value: 1
        inSlope: 0
        outSlope: 0
        tangentMode: 10
      m_PreInfinity: 2
      m_PostInfinity: 2
      m_RotationOrder: 4
    attribute: m_LocalScale.z
    path: blesk_0
    classID: 4
    script: {fileID: 0}
  - curve:
      serializedVersion: 2
      m_Curve:
      - time: 0
        value: 0
        inSlope: Infinity
        outSlope: Infinity
        tangentMode: 31
      - time: 0.1
        value: 1
        inSlope: Infinity
        outSlope: Infinity
        tangentMode: 31
      - time: 0.2
        value: 0
        inSlope: Infinity
        outSlope: Infinity
        tangentMode: 31
      - time: 0.35
        value: 1
        inSlope: Infinity
        outSlope: Infinity
        tangentMode: 31
      - time: 0.4
        value: 0
        inSlope: Infinity
        outSlope: Infinity
        tangentMode: 31
      - time: 0.45
        value: 0
        inSlope: Infinity
        outSlope: Infinity
        tangentMode: 31
      - time: 0.55
        value: 1
        inSlope: Infinity
        outSlope: Infinity
        tangentMode: 31
      - time: 0.6
        value: 0
        inSlope: Infinity
        outSlope: Infinity
        tangentMode: 31
      - time: 0.7
        value: 1
        inSlope: Infinity
        outSlope: Infinity
        tangentMode: 31
      - time: 0.75
        value: 0
        inSlope: Infinity
        outSlope: Infinity
        tangentMode: 31
      - time: 1
        value: 1
        inSlope: Infinity
        outSlope: Infinity
        tangentMode: 31
      - time: 1.05
        value: 0
        inSlope: Infinity
        outSlope: Infinity
        tangentMode: 31
      - time: 1.1
        value: 0
        inSlope: Infinity
        outSlope: Infinity
        tangentMode: 31
      - time: 1.15
        value: 1
        inSlope: Infinity
        outSlope: Infinity
        tangentMode: 31
      m_PreInfinity: 2
      m_PostInfinity: 2
      m_RotationOrder: 4
    attribute: m_Enabled
    path: blesk_0
    classID: 212
    script: {fileID: 0}
  - curve:
      serializedVersion: 2
      m_Curve:
      - time: 0
        value: -0.07
        inSlope: -5.4
        outSlope: -5.4
        tangentMode: 10
      - time: 0.05
        value: -0.34
        inSlope: 0
        outSlope: 0
        tangentMode: 10
      - time: 0.1
        value: -0.07
        inSlope: -6.771428
        outSlope: -6.771428
        tangentMode: 10
      - time: 0.45
        value: -6.7
        inSlope: -16.971426
        outSlope: -16.971426
        tangentMode: 10
      - time: 0.5
        value: -7.45
        inSlope: -15.399996
        outSlope: -15.399996
        tangentMode: 10
      - time: 0.55
        value: -8.24
        inSlope: -14.416664
        outSlope: -14.416664
        tangentMode: 10
      - time: 0.85
        value: -12.15
        inSlope: -13.033332
        outSlope: -13.033332
        tangentMode: 10
      m_PreInfinity: 2
      m_PostInfinity: 2
      m_RotationOrder: 4
    attribute: m_LocalPosition.x
    path: "\u043C\u043E\u043D\u0435\u0442\u044B_0"
    classID: 4
    script: {fileID: 0}
  - curve:
      serializedVersion: 2
      m_Curve:
      - time: 0
        value: -0.02
        inSlope: 6.8
        outSlope: 6.8
        tangentMode: 10
      - time: 0.05
        value: 0.32
        inSlope: 0.50000024
        outSlope: 0.50000024
        tangentMode: 10
      - time: 0.1
        value: 0.03
        inSlope: -0.057142735
        outSlope: -0.057142735
        tangentMode: 10
      - time: 0.45
        value: 2.02
        inSlope: -7.3571396
        outSlope: -7.3571396
        tangentMode: 10
      - time: 0.5
        value: 1
        inSlope: -19.299995
        outSlope: -19.299995
        tangentMode: 10
      - time: 0.55
        value: 0.09
        inSlope: -10.549997
        outSlope: -10.549997
        tangentMode: 10
      - time: 0.85
        value: -0.78
        inSlope: -2.8999999
        outSlope: -2.8999999
        tangentMode: 10
      m_PreInfinity: 2
      m_PostInfinity: 2
      m_RotationOrder: 4
    attribute: m_LocalPosition.y
    path: "\u043C\u043E\u043D\u0435\u0442\u044B_0"
    classID: 4
    script: {fileID: 0}
  - curve:
      serializedVersion: 2
      m_Curve:
      - time: 0
        value: 0
        inSlope: 0
        outSlope: 0
        tangentMode: 10
      - time: 0.05
        value: 0
        inSlope: 0
        outSlope: 0
        tangentMode: 10
      - time: 0.1
        value: 0
        inSlope: 0
        outSlope: 0
        tangentMode: 10
      - time: 0.45
        value: 0
        inSlope: 0
        outSlope: 0
        tangentMode: 10
      - time: 0.5
        value: 0
        inSlope: 0
        outSlope: 0
        tangentMode: 10
      - time: 0.55
        value: 0
        inSlope: 0
        outSlope: 0
        tangentMode: 10
      - time: 0.85
        value: 0
        inSlope: 0
        outSlope: 0
        tangentMode: 10
      m_PreInfinity: 2
      m_PostInfinity: 2
      m_RotationOrder: 4
    attribute: m_LocalPosition.z
    path: "\u043C\u043E\u043D\u0435\u0442\u044B_0"
    classID: 4
    script: {fileID: 0}
  - curve:
      serializedVersion: 2
      m_Curve:
      - time: 0
        value: -0
        inSlope: 0
        outSlope: 0
        tangentMode: 10
      - time: 0.05
        value: 0
        inSlope: 0
        outSlope: 0
        tangentMode: 10
      - time: 0.1
        value: -0
        inSlope: 0
        outSlope: 0
        tangentMode: 10
      - time: 0.45
        value: 0
        inSlope: 0
        outSlope: 0
        tangentMode: 10
      - time: 0.5
        value: 0
        inSlope: 0
        outSlope: 0
        tangentMode: 10
      - time: 0.55
        value: 0
        inSlope: 0
        outSlope: 0
        tangentMode: 10
      - time: 0.85
        value: 0
        inSlope: 0
        outSlope: 0
        tangentMode: 10
      m_PreInfinity: 2
      m_PostInfinity: 2
      m_RotationOrder: 4
    attribute: localEulerAnglesRaw.x
    path: "\u043C\u043E\u043D\u0435\u0442\u044B_0"
    classID: 4
    script: {fileID: 0}
  - curve:
      serializedVersion: 2
      m_Curve:
      - time: 0
        value: 0
        inSlope: 0
        outSlope: 0
        tangentMode: 10
      - time: 0.05
        value: 0
        inSlope: 0
        outSlope: 0
        tangentMode: 10
      - time: 0.1
        value: -0
        inSlope: 0
        outSlope: 0
        tangentMode: 10
      - time: 0.45
        value: 0
        inSlope: 0
        outSlope: 0
        tangentMode: 10
      - time: 0.5
        value: 0
        inSlope: 0
        outSlope: 0
        tangentMode: 10
      - time: 0.55
        value: 0
        inSlope: 0
        outSlope: 0
        tangentMode: 10
      - time: 0.85
        value: 0
        inSlope: 0
        outSlope: 0
        tangentMode: 10
      m_PreInfinity: 2
      m_PostInfinity: 2
      m_RotationOrder: 4
    attribute: localEulerAnglesRaw.y
    path: "\u043C\u043E\u043D\u0435\u0442\u044B_0"
    classID: 4
    script: {fileID: 0}
  - curve:
      serializedVersion: 2
      m_Curve:
      - time: 0
        value: 0
        inSlope: 186.11598
        outSlope: 186.11598
        tangentMode: 10
      - time: 0.05
        value: 9.3057995
        inSlope: 1.9199982
        outSlope: 1.9199982
        tangentMode: 10
      - time: 0.1
        value: 0.192
        inSlope: 47.935707
        outSlope: 47.935707
        tangentMode: 10
      - time: 0.45
        value: 97.543594
        inSlope: 1473.4244
        outSlope: 1473.4244
        tangentMode: 10
      - time: 0.5
        value: 230.9787
        inSlope: 1556.6206
        outSlope: 1556.6206
        tangentMode: 10
      - time: 0.55
        value: 253.20569
        inSlope: 497.51984
        outSlope: 497.51984
        tangentMode: 10
      - time: 0.85
        value: 418.35568
        inSlope: 550.49994
        outSlope: 550.49994
        tangentMode: 10
      m_PreInfinity: 2
      m_PostInfinity: 2
      m_RotationOrder: 4
    attribute: localEulerAnglesRaw.z
    path: "\u043C\u043E\u043D\u0435\u0442\u044B_0"
    classID: 4
    script: {fileID: 0}
  - curve:
      serializedVersion: 2
      m_Curve:
      - time: 0
        value: 1
        inSlope: 0
        outSlope: 0
        tangentMode: 10
      - time: 0.05
        value: 1
        inSlope: 0
        outSlope: 0
        tangentMode: 10
      - time: 0.1
        value: 1
        inSlope: 0
        outSlope: 0
        tangentMode: 10
      m_PreInfinity: 2
      m_PostInfinity: 2
      m_RotationOrder: 4
    attribute: m_LocalScale.x
    path: "\u043C\u043E\u043D\u0435\u0442\u044B_0"
    classID: 4
    script: {fileID: 0}
  - curve:
      serializedVersion: 2
      m_Curve:
      - time: 0
        value: 1
        inSlope: 7.734916
        outSlope: 7.734916
        tangentMode: 10
      - time: 0.05
        value: 1.3867458
        inSlope: -0.12402892
        outSlope: -0.12402892
        tangentMode: 10
      - time: 0.1
        value: 0.9875971
        inSlope: -7.982974
        outSlope: -7.982974
        tangentMode: 10
      m_PreInfinity: 2
      m_PostInfinity: 2
      m_RotationOrder: 4
    attribute: m_LocalScale.y
    path: "\u043C\u043E\u043D\u0435\u0442\u044B_0"
    classID: 4
    script: {fileID: 0}
  - curve:
      serializedVersion: 2
      m_Curve:
      - time: 0
        value: 1
        inSlope: 0
        outSlope: 0
        tangentMode: 10
      - time: 0.05
        value: 1
        inSlope: 0
        outSlope: 0
        tangentMode: 10
      - time: 0.1
        value: 1
        inSlope: 0
        outSlope: 0
        tangentMode: 10
      m_PreInfinity: 2
      m_PostInfinity: 2
      m_RotationOrder: 4
    attribute: m_LocalScale.z
    path: "\u043C\u043E\u043D\u0435\u0442\u044B_0"
    classID: 4
    script: {fileID: 0}
  - curve:
      serializedVersion: 2
      m_Curve:
      - time: 0
        value: 1
        inSlope: Infinity
        outSlope: Infinity
        tangentMode: 31
      - time: 0.1
        value: 0
        inSlope: Infinity
        outSlope: Infinity
        tangentMode: 31
      - time: 0.45
        value: 1
        inSlope: Infinity
        outSlope: Infinity
        tangentMode: 31
      - time: 0.6
        value: 0
        inSlope: Infinity
        outSlope: Infinity
        tangentMode: 31
      - time: 0.85
        value: 1
        inSlope: Infinity
        outSlope: Infinity
        tangentMode: 31
      - time: 0.9
        value: 0
        inSlope: Infinity
        outSlope: Infinity
        tangentMode: 31
      m_PreInfinity: 2
      m_PostInfinity: 2
      m_RotationOrder: 4
    attribute: m_Enabled
    path: "\u043C\u043E\u043D\u0435\u0442\u044B_0"
    classID: 212
    script: {fileID: 0}
  - curve:
      serializedVersion: 2
      m_Curve:
      - time: 0
        value: -0.38
        inSlope: 0.39999992
        outSlope: 0.39999992
        tangentMode: 10
      - time: 0.1
        value: -0.34
        inSlope: -3.1999996
        outSlope: -3.1999996
        tangentMode: 10
      - time: 0.15
        value: -0.68
        inSlope: -10.724999
        outSlope: -10.724999
        tangentMode: 10
      - time: 0.35
        value: -3.61
        inSlope: -23.124998
        outSlope: -23.124998
        tangentMode: 10
      - time: 0.4
        value: -5.19
        inSlope: -24.599998
        outSlope: -24.599998
        tangentMode: 10
      - time: 0.6
        value: -8.71
        inSlope: -15.200001
        outSlope: -15.200001
        tangentMode: 10
      - time: 0.8
        value: -11.27
        inSlope: -17.099995
        outSlope: -17.099995
        tangentMode: 10
      - time: 0.85
        value: -12.34
        inSlope: -20.099998
        outSlope: -20.099998
        tangentMode: 10
      - time: 0.9
        value: -13.28
        inSlope: -13.7000065
        outSlope: -13.7000065
        tangentMode: 10
      - time: 0.95
        value: -13.71
        inSlope: -6.999996
        outSlope: -6.999996
        tangentMode: 10
      - time: 1
        value: -13.98
        inSlope: -7.500004
        outSlope: -7.500004
        tangentMode: 10
      - time: 1.05
        value: -14.46
        inSlope: -9.400003
        outSlope: -9.400003
        tangentMode: 10
      - time: 1.1
        value: -14.92
        inSlope: -10.900002
        outSlope: -10.900002
        tangentMode: 10
      - time: 1.15
        value: -15.55
        inSlope: -12.600015
        outSlope: -12.600015
        tangentMode: 10
      m_PreInfinity: 2
      m_PostInfinity: 2
      m_RotationOrder: 4
    attribute: m_LocalPosition.x
    path: "\u043C\u043E\u043D\u0435\u0442\u044B_1"
    classID: 4
    script: {fileID: 0}
  - curve:
      serializedVersion: 2
      m_Curve:
      - time: 0
        value: 0.87
        inSlope: 0
        outSlope: 0
        tangentMode: 10
      - time: 0.1
        value: 0.87
        inSlope: 4.1999993
        outSlope: 4.1999993
        tangentMode: 10
      - time: 0.15
        value: 1.29
        inSlope: 8.225
        outSlope: 8.225
        tangentMode: 10
      - time: 0.35
        value: 2.9
        inSlope: 4.924999
        outSlope: 4.924999
        tangentMode: 10
      - time: 0.4
        value: 2.99
        inSlope: -10.224999
        outSlope: -10.224999
        tangentMode: 10
      - time: 0.6
        value: -1.46
        inSlope: -9.874998
        outSlope: -9.874998
        tangentMode: 10
      - time: 0.8
        value: -0.96
        inSlope: 3.4499993
        outSlope: 3.4499993
        tangentMode: 10
      - time: 0.85
        value: -0.74
        inSlope: -1.0000033
        outSlope: -1.0000033
        tangentMode: 10
      - time: 0.9
        value: -1.06
        inSlope: -18.3
        outSlope: -18.3
        tangentMode: 10
      - time: 0.95
        value: -2.57
        inSlope: -19.199997
        outSlope: -19.199997
        tangentMode: 10
      - time: 1
        value: -2.98
        inSlope: -1.699995
        outSlope: -1.699995
        tangentMode: 10
      - time: 1.05
        value: -2.7399998
        inSlope: 4.4
        outSlope: 4.4
        tangentMode: 10
      - time: 1.1
        value: -2.54
        inSlope: -4.400012
        outSlope: -4.400012
        tangentMode: 10
      - time: 1.15
        value: -3.18
        inSlope: -12.8000145
        outSlope: -12.8000145
        tangentMode: 10
      m_PreInfinity: 2
      m_PostInfinity: 2
      m_RotationOrder: 4
    attribute: m_LocalPosition.y
    path: "\u043C\u043E\u043D\u0435\u0442\u044B_1"
    classID: 4
    script: {fileID: 0}
  - curve:
      serializedVersion: 2
      m_Curve:
      - time: 0
        value: 0
        inSlope: 0
        outSlope: 0
        tangentMode: 10
      - time: 0.1
        value: 0
        inSlope: 0
        outSlope: 0
        tangentMode: 10
      - time: 0.15
        value: 0
        inSlope: 0
        outSlope: 0
        tangentMode: 10
      - time: 0.35
        value: 0
        inSlope: 0
        outSlope: 0
        tangentMode: 10
      - time: 0.4
        value: 0
        inSlope: 0
        outSlope: 0
        tangentMode: 10
      - time: 0.6
        value: 0
        inSlope: 0
        outSlope: 0
        tangentMode: 10
      - time: 0.8
        value: 0
        inSlope: 0
        outSlope: 0
        tangentMode: 10
      - time: 0.85
        value: 0
        inSlope: 0
        outSlope: 0
        tangentMode: 10
      - time: 0.9
        value: 0
        inSlope: 0
        outSlope: 0
        tangentMode: 10
      - time: 0.95
        value: 0
        inSlope: 0
        outSlope: 0
        tangentMode: 10
      - time: 1
        value: 0
        inSlope: 0
        outSlope: 0
        tangentMode: 10
      - time: 1.05
        value: 0
        inSlope: 0
        outSlope: 0
        tangentMode: 10
      - time: 1.1
        value: 0
        inSlope: 0
        outSlope: 0
        tangentMode: 10
      - time: 1.15
        value: 0
        inSlope: 0
        outSlope: 0
        tangentMode: 10
      m_PreInfinity: 2
      m_PostInfinity: 2
      m_RotationOrder: 4
    attribute: m_LocalPosition.z
    path: "\u043C\u043E\u043D\u0435\u0442\u044B_1"
    classID: 4
    script: {fileID: 0}
  - curve:
      serializedVersion: 2
      m_Curve:
      - time: 0
        value: -0
        inSlope: 0
        outSlope: 0
        tangentMode: 10
      - time: 0.1
        value: 0
        inSlope: 0
        outSlope: 0
        tangentMode: 10
      - time: 0.4
        value: 0
        inSlope: 0
        outSlope: 0
        tangentMode: 10
      - time: 0.6
        value: 0
        inSlope: 0
        outSlope: 0
        tangentMode: 10
      - time: 0.8
        value: 0
        inSlope: 0
        outSlope: 0
        tangentMode: 10
      - time: 0.9
        value: 0
        inSlope: 0
        outSlope: 0
        tangentMode: 10
      - time: 0.95
        value: 0
        inSlope: 0
        outSlope: 0
        tangentMode: 10
      - time: 1
        value: 0
        inSlope: 0
        outSlope: 0
        tangentMode: 10
      - time: 1.05
        value: 0
        inSlope: 0
        outSlope: 0
        tangentMode: 10
      - time: 1.1
        value: 0
        inSlope: 0
        outSlope: 0
        tangentMode: 10
      - time: 1.15
        value: 0
        inSlope: 0
        outSlope: 0
        tangentMode: 10
      m_PreInfinity: 2
      m_PostInfinity: 2
      m_RotationOrder: 4
    attribute: localEulerAnglesRaw.x
    path: "\u043C\u043E\u043D\u0435\u0442\u044B_1"
    classID: 4
    script: {fileID: 0}
  - curve:
      serializedVersion: 2
      m_Curve:
      - time: 0
        value: 0
        inSlope: 0
        outSlope: 0
        tangentMode: 10
      - time: 0.1
        value: 0
        inSlope: 0
        outSlope: 0
        tangentMode: 10
      - time: 0.4
        value: 0
        inSlope: 0
        outSlope: 0
        tangentMode: 10
      - time: 0.6
        value: 0
        inSlope: 0
        outSlope: 0
        tangentMode: 10
      - time: 0.8
        value: 0
        inSlope: 0
        outSlope: 0
        tangentMode: 10
      - time: 0.9
        value: 0
        inSlope: 0
        outSlope: 0
        tangentMode: 10
      - time: 0.95
        value: 0
        inSlope: 0
        outSlope: 0
        tangentMode: 10
      - time: 1
        value: 0
        inSlope: 0
        outSlope: 0
        tangentMode: 10
      - time: 1.05
        value: 0
        inSlope: 0
        outSlope: 0
        tangentMode: 10
      - time: 1.1
        value: 0
        inSlope: 0
        outSlope: 0
        tangentMode: 10
      - time: 1.15
        value: 0
        inSlope: 0
        outSlope: 0
        tangentMode: 10
      m_PreInfinity: 2
      m_PostInfinity: 2
      m_RotationOrder: 4
    attribute: localEulerAnglesRaw.y
    path: "\u043C\u043E\u043D\u0435\u0442\u044B_1"
    classID: 4
    script: {fileID: 0}
  - curve:
      serializedVersion: 2
      m_Curve:
      - time: 0
        value: 0
        inSlope: -241.31198
        outSlope: -241.31198
        tangentMode: 10
      - time: 0.1
        value: -24.131199
        inSlope: 63.156494
        outSlope: 63.156494
        tangentMode: 10
      - time: 0.4
        value: 86.156296
        inSlope: 568.1197
        outSlope: 568.1197
        tangentMode: 10
      - time: 0.6
        value: 239.8792
        inSlope: 649.4295
        outSlope: 649.4295
        tangentMode: 10
      - time: 0.8
        value: 345.9281
        inSlope: 1048.1066
        outSlope: 1048.1066
        tangentMode: 10
      - time: 0.9
        value: 502.5249
        inSlope: 995.5154
        outSlope: 995.5154
        tangentMode: 10
      - time: 0.95
        value: 523.778
        inSlope: 383.58267
        outSlope: 383.58267
        tangentMode: 10
      - time: 1
        value: 540.8832
        inSlope: 662.7159
        outSlope: 662.7159
        tangentMode: 10
      - time: 1.05
        value: 590.04956
        inSlope: 1015.89087
        outSlope: 1015.89087
        tangentMode: 10
      - time: 1.1
        value: 642.4723
        inSlope: 798.3998
        outSlope: 798.3998
        tangentMode: 10
      - time: 1.15
        value: 669.8896
        inSlope: 548.3465
        outSlope: 548.3465
        tangentMode: 10
      m_PreInfinity: 2
      m_PostInfinity: 2
      m_RotationOrder: 4
    attribute: localEulerAnglesRaw.z
    path: "\u043C\u043E\u043D\u0435\u0442\u044B_1"
    classID: 4
    script: {fileID: 0}
  - curve:
      serializedVersion: 2
      m_Curve:
      - time: 0
        value: 1
        inSlope: 0
        outSlope: 0
        tangentMode: 10
      - time: 0.1
        value: 1
        inSlope: -0.019037167
        outSlope: -0.019037167
        tangentMode: 10
      - time: 0.9
        value: 0.96954054
        inSlope: 1.5287929
        outSlope: 1.5287929
        tangentMode: 10
      - time: 1
        value: 1.2791066
        inSlope: -0.9261502
        outSlope: -0.9261502
        tangentMode: 10
      - time: 1.05
        value: 1.0317088
        inSlope: -2.4739802
        outSlope: -2.4739802
        tangentMode: 10
      - time: 1.15
        value: 1.0317088
        inSlope: 0
        outSlope: 0
        tangentMode: 10
      m_PreInfinity: 2
      m_PostInfinity: 2
      m_RotationOrder: 4
    attribute: m_LocalScale.x
    path: "\u043C\u043E\u043D\u0435\u0442\u044B_1"
    classID: 4
    script: {fileID: 0}
  - curve:
      serializedVersion: 2
      m_Curve:
      - time: 0
        value: 1
        inSlope: -0.12402892
        outSlope: -0.12402892
        tangentMode: 10
      - time: 0.1
        value: 0.9875971
        inSlope: 0.008910306
        outSlope: 0.008910306
        tangentMode: 10
      - time: 0.9
        value: 1.1010767
        inSlope: -0.80410874
        outSlope: -0.80410874
        tangentMode: 10
      - time: 1
        value: 0.92607
        inSlope: 3.435655
        outSlope: 3.435655
        tangentMode: 10
      - time: 1.05
        value: 1.3571384
        inSlope: 3.9607825
        outSlope: 3.9607825
        tangentMode: 10
      - time: 1.15
        value: 1.2871572
        inSlope: -0.699812
        outSlope: -0.699812
        tangentMode: 10
      m_PreInfinity: 2
      m_PostInfinity: 2
      m_RotationOrder: 4
    attribute: m_LocalScale.y
    path: "\u043C\u043E\u043D\u0435\u0442\u044B_1"
    classID: 4
    script: {fileID: 0}
  - curve:
      serializedVersion: 2
      m_Curve:
      - time: 0
        value: 1
        inSlope: 0
        outSlope: 0
        tangentMode: 10
      - time: 0.1
        value: 1
        inSlope: 0
        outSlope: 0
        tangentMode: 10
      - time: 0.9
        value: 1
        inSlope: 0
        outSlope: 0
        tangentMode: 10
      - time: 1
        value: 1
        inSlope: 0
        outSlope: 0
        tangentMode: 10
      - time: 1.05
        value: 1
        inSlope: 0
        outSlope: 0
        tangentMode: 10
      - time: 1.15
        value: 1
        inSlope: 0
        outSlope: 0
        tangentMode: 10
      m_PreInfinity: 2
      m_PostInfinity: 2
      m_RotationOrder: 4
    attribute: m_LocalScale.z
    path: "\u043C\u043E\u043D\u0435\u0442\u044B_1"
    classID: 4
    script: {fileID: 0}
  - curve:
      serializedVersion: 2
      m_Curve:
      - time: 0
        value: 0
        inSlope: Infinity
        outSlope: Infinity
        tangentMode: 31
      - time: 0.1
        value: 1
        inSlope: Infinity
        outSlope: Infinity
        tangentMode: 31
      - time: 0.2
        value: 0
        inSlope: Infinity
        outSlope: Infinity
        tangentMode: 31
      - time: 0.35
        value: 1
        inSlope: Infinity
        outSlope: Infinity
        tangentMode: 31
      - time: 0.45
        value: 0
        inSlope: Infinity
        outSlope: Infinity
        tangentMode: 31
      - time: 0.6
        value: 1
        inSlope: Infinity
        outSlope: Infinity
        tangentMode: 31
      - time: 0.65
        value: 0
        inSlope: Infinity
        outSlope: Infinity
        tangentMode: 31
      - time: 0.8
        value: 1
        inSlope: Infinity
        outSlope: Infinity
        tangentMode: 31
      - time: 0.85
        value: 0
        inSlope: Infinity
        outSlope: Infinity
        tangentMode: 31
      - time: 0.9
        value: 1
        inSlope: Infinity
        outSlope: Infinity
        tangentMode: 31
      m_PreInfinity: 2
      m_PostInfinity: 2
      m_RotationOrder: 4
    attribute: m_Enabled
    path: "\u043C\u043E\u043D\u0435\u0442\u044B_1"
    classID: 212
    script: {fileID: 0}
  - curve:
      serializedVersion: 2
      m_Curve:
      - time: 0
        value: -1.34
        inSlope: -0.099999905
        outSlope: -0.099999905
        tangentMode: 10
      - time: 0.1
        value: -1.35
        inSlope: -2.8166666
        outSlope: -2.8166666
        tangentMode: 10
      - time: 0.25
        value: -2.18
        inSlope: -10.666664
        outSlope: -10.666664
        tangentMode: 10
      - time: 0.3
        value: -2.97
        inSlope: -16.971426
        outSlope: -16.971426
        tangentMode: 10
      - time: 0.65
        value: -9.32
        inSlope: -10.171434
        outSlope: -10.171434
        tangentMode: 10
      - time: 0.7
        value: -9.43
        inSlope: -8.4
        outSlope: -8.4
        tangentMode: 10
      - time: 0.75
        value: -10.16
        inSlope: -14.599987
        outSlope: -14.599987
        tangentMode: 10
      m_PreInfinity: 2
      m_PostInfinity: 2
      m_RotationOrder: 4
    attribute: m_LocalPosition.x
    path: "\u043C\u043E\u043D\u0435\u0442\u044B_2"
    classID: 4
    script: {fileID: 0}
  - curve:
      serializedVersion: 2
      m_Curve:
      - time: 0
        value: 2.04
        inSlope: 0.19999981
        outSlope: 0.19999981
        tangentMode: 10
      - time: 0.1
        value: 2.06
        inSlope: 1.3666669
        outSlope: 1.3666669
        tangentMode: 10
      - time: 0.25
        value: 2.44
        inSlope: 4.866665
        outSlope: 4.866665
        tangentMode: 10
      - time: 0.3
        value: 2.8
        inSlope: -4.885717
        outSlope: -4.885717
        tangentMode: 10
      - time: 0.65
        value: -3.14
        inSlope: -7.0857143
        outSlope: -7.0857143
        tangentMode: 10
      - time: 0.7
        value: -3
        inSlope: 7.8
        outSlope: 7.8
        tangentMode: 10
      - time: 0.75
        value: -2.36
        inSlope: 12.799999
        outSlope: 12.799999
        tangentMode: 10
      m_PreInfinity: 2
      m_PostInfinity: 2
      m_RotationOrder: 4
    attribute: m_LocalPosition.y
    path: "\u043C\u043E\u043D\u0435\u0442\u044B_2"
    classID: 4
    script: {fileID: 0}
  - curve:
      serializedVersion: 2
      m_Curve:
      - time: 0
        value: 0
        inSlope: 0
        outSlope: 0
        tangentMode: 10
      - time: 0.1
        value: 0
        inSlope: 0
        outSlope: 0
        tangentMode: 10
      - time: 0.25
        value: 0
        inSlope: 0
        outSlope: 0
        tangentMode: 10
      - time: 0.3
        value: 0
        inSlope: 0
        outSlope: 0
        tangentMode: 10
      - time: 0.65
        value: 0
        inSlope: 0
        outSlope: 0
        tangentMode: 10
      - time: 0.7
        value: 0
        inSlope: 0
        outSlope: 0
        tangentMode: 10
      - time: 0.75
        value: 0
        inSlope: 0
        outSlope: 0
        tangentMode: 10
      m_PreInfinity: 2
      m_PostInfinity: 2
      m_RotationOrder: 4
    attribute: m_LocalPosition.z
    path: "\u043C\u043E\u043D\u0435\u0442\u044B_2"
    classID: 4
    script: {fileID: 0}
  - curve:
      serializedVersion: 2
      m_Curve:
      - time: 0
        value: -0
        inSlope: 0
        outSlope: 0
        tangentMode: 10
      - time: 0.1
        value: -0
        inSlope: 0
        outSlope: 0
        tangentMode: 10
      - time: 0.7
        value: 0
        inSlope: 0
        outSlope: 0
        tangentMode: 10
      m_PreInfinity: 2
      m_PostInfinity: 2
      m_RotationOrder: 4
    attribute: localEulerAnglesRaw.x
    path: "\u043C\u043E\u043D\u0435\u0442\u044B_2"
    classID: 4
    script: {fileID: 0}
  - curve:
      serializedVersion: 2
      m_Curve:
      - time: 0
        value: 0
        inSlope: -0
        outSlope: -0
        tangentMode: 10
      - time: 0.1
        value: -0
        inSlope: 0
        outSlope: 0
        tangentMode: 10
      - time: 0.7
        value: 0
        inSlope: 0
        outSlope: 0
        tangentMode: 10
      m_PreInfinity: 2
      m_PostInfinity: 2
      m_RotationOrder: 4
    attribute: localEulerAnglesRaw.y
    path: "\u043C\u043E\u043D\u0435\u0442\u044B_2"
    classID: 4
    script: {fileID: 0}
  - curve:
      serializedVersion: 2
      m_Curve:
      - time: 0
        value: 0
        inSlope: 1.92
        outSlope: 1.92
        tangentMode: 10
      - time: 0.1
        value: 0.192
        inSlope: 20.982084
        outSlope: 20.982084
        tangentMode: 10
      - time: 0.7
        value: 24.2185
        inSlope: 40.04417
        outSlope: 40.04417
        tangentMode: 10
      m_PreInfinity: 2
      m_PostInfinity: 2
      m_RotationOrder: 4
    attribute: localEulerAnglesRaw.z
    path: "\u043C\u043E\u043D\u0435\u0442\u044B_2"
    classID: 4
    script: {fileID: 0}
  - curve:
      serializedVersion: 2
      m_Curve:
      - time: 0
        value: 1.1331062
        inSlope: 0
        outSlope: 0
        tangentMode: 10
      - time: 0.1
        value: 1.1331062
        inSlope: 0
        outSlope: 0
        tangentMode: 10
      - time: 0.65
        value: 1.1331062
        inSlope: -2.6613712
        outSlope: -2.6613712
        tangentMode: 10
      - time: 0.7
        value: 0.86696905
        inSlope: -0.71161854
        outSlope: -0.71161854
        tangentMode: 10
      - time: 0.75
        value: 1.0619444
        inSlope: 3.8995054
        outSlope: 3.8995054
        tangentMode: 10
      m_PreInfinity: 2
      m_PostInfinity: 2
      m_RotationOrder: 4
    attribute: m_LocalScale.x
    path: "\u043C\u043E\u043D\u0435\u0442\u044B_2"
    classID: 4
    script: {fileID: 0}
  - curve:
      serializedVersion: 2
      m_Curve:
      - time: 0
        value: 1
        inSlope: -0.12402892
        outSlope: -0.12402892
        tangentMode: 10
      - time: 0.1
        value: 0.9875971
        inSlope: -0.16579504
        outSlope: -0.16579504
        tangentMode: 10
      - time: 0.65
        value: 0.8734385
        inSlope: 2.367529
        outSlope: 2.367529
        tangentMode: 10
      - time: 0.7
        value: 1.1205695
        inSlope: 2.4713094
        outSlope: 2.4713094
        tangentMode: 10
      - time: 0.75
        value: 1.1205695
        inSlope: 0
        outSlope: 0
        tangentMode: 10
      m_PreInfinity: 2
      m_PostInfinity: 2
      m_RotationOrder: 4
    attribute: m_LocalScale.y
    path: "\u043C\u043E\u043D\u0435\u0442\u044B_2"
    classID: 4
    script: {fileID: 0}
  - curve:
      serializedVersion: 2
      m_Curve:
      - time: 0
        value: 1
        inSlope: 0
        outSlope: 0
        tangentMode: 10
      - time: 0.1
        value: 1
        inSlope: 0
        outSlope: 0
        tangentMode: 10
      - time: 0.65
        value: 1
        inSlope: 0
        outSlope: 0
        tangentMode: 10
      - time: 0.7
        value: 1
        inSlope: 0
        outSlope: 0
        tangentMode: 10
      - time: 0.75
        value: 1
        inSlope: 0
        outSlope: 0
        tangentMode: 10
      m_PreInfinity: 2
      m_PostInfinity: 2
      m_RotationOrder: 4
    attribute: m_LocalScale.z
    path: "\u043C\u043E\u043D\u0435\u0442\u044B_2"
    classID: 4
    script: {fileID: 0}
  - curve:
      serializedVersion: 2
      m_Curve:
      - time: 0
        value: 0
        inSlope: Infinity
        outSlope: Infinity
        tangentMode: 31
      - time: 0.1
        value: 0
        inSlope: Infinity
        outSlope: Infinity
        tangentMode: 31
      - time: 0.2
        value: 1
        inSlope: Infinity
        outSlope: Infinity
        tangentMode: 31
      - time: 0.35
        value: 0
        inSlope: Infinity
        outSlope: Infinity
        tangentMode: 31
      - time: 0.65
        value: 1
        inSlope: Infinity
        outSlope: Infinity
        tangentMode: 31
      - time: 0.8
        value: 0
        inSlope: Infinity
        outSlope: Infinity
        tangentMode: 31
      m_PreInfinity: 2
      m_PostInfinity: 2
      m_RotationOrder: 4
    attribute: m_Enabled
    path: "\u043C\u043E\u043D\u0435\u0442\u044B_2"
    classID: 212
    script: {fileID: 0}
  m_EulerEditorCurves:
  - curve:
      serializedVersion: 2
      m_Curve: []
      m_PreInfinity: 2
      m_PostInfinity: 2
      m_RotationOrder: 4
    attribute: m_LocalEulerAngles.x
    path: blesk_0
    classID: 4
    script: {fileID: 0}
  - curve:
      serializedVersion: 2
      m_Curve: []
      m_PreInfinity: 2
      m_PostInfinity: 2
      m_RotationOrder: 4
    attribute: m_LocalEulerAngles.y
    path: blesk_0
    classID: 4
    script: {fileID: 0}
  - curve:
      serializedVersion: 2
      m_Curve: []
      m_PreInfinity: 2
      m_PostInfinity: 2
      m_RotationOrder: 4
    attribute: m_LocalEulerAngles.z
    path: blesk_0
    classID: 4
    script: {fileID: 0}
  - curve:
      serializedVersion: 2
      m_Curve: []
      m_PreInfinity: 2
      m_PostInfinity: 2
      m_RotationOrder: 4
    attribute: m_LocalEulerAngles.x
    path: "\u043C\u043E\u043D\u0435\u0442\u044B_0"
    classID: 4
    script: {fileID: 0}
  - curve:
      serializedVersion: 2
      m_Curve: []
      m_PreInfinity: 2
      m_PostInfinity: 2
      m_RotationOrder: 4
    attribute: m_LocalEulerAngles.y
    path: "\u043C\u043E\u043D\u0435\u0442\u044B_0"
    classID: 4
    script: {fileID: 0}
  - curve:
      serializedVersion: 2
      m_Curve: []
      m_PreInfinity: 2
      m_PostInfinity: 2
      m_RotationOrder: 4
    attribute: m_LocalEulerAngles.z
    path: "\u043C\u043E\u043D\u0435\u0442\u044B_0"
    classID: 4
    script: {fileID: 0}
  - curve:
      serializedVersion: 2
      m_Curve: []
      m_PreInfinity: 2
      m_PostInfinity: 2
      m_RotationOrder: 4
    attribute: m_LocalEulerAngles.x
    path: "\u043C\u043E\u043D\u0435\u0442\u044B_1"
    classID: 4
    script: {fileID: 0}
  - curve:
      serializedVersion: 2
      m_Curve: []
      m_PreInfinity: 2
      m_PostInfinity: 2
      m_RotationOrder: 4
    attribute: m_LocalEulerAngles.y
    path: "\u043C\u043E\u043D\u0435\u0442\u044B_1"
    classID: 4
    script: {fileID: 0}
  - curve:
      serializedVersion: 2
      m_Curve: []
      m_PreInfinity: 2
      m_PostInfinity: 2
      m_RotationOrder: 4
    attribute: m_LocalEulerAngles.z
    path: "\u043C\u043E\u043D\u0435\u0442\u044B_1"
    classID: 4
    script: {fileID: 0}
  - curve:
      serializedVersion: 2
      m_Curve: []
      m_PreInfinity: 2
      m_PostInfinity: 2
      m_RotationOrder: 4
    attribute: m_LocalEulerAngles.x
    path: "\u043C\u043E\u043D\u0435\u0442\u044B_2"
    classID: 4
    script: {fileID: 0}
  - curve:
      serializedVersion: 2
      m_Curve: []
      m_PreInfinity: 2
      m_PostInfinity: 2
      m_RotationOrder: 4
    attribute: m_LocalEulerAngles.y
    path: "\u043C\u043E\u043D\u0435\u0442\u044B_2"
    classID: 4
    script: {fileID: 0}
  - curve:
      serializedVersion: 2
      m_Curve: []
      m_PreInfinity: 2
      m_PostInfinity: 2
      m_RotationOrder: 4
    attribute: m_LocalEulerAngles.z
    path: "\u043C\u043E\u043D\u0435\u0442\u044B_2"
    classID: 4
    script: {fileID: 0}
  m_HasGenericRootTransform: 0
  m_HasMotionFloatCurves: 0
  m_GenerateMotionCurves: 0
  m_Events: []
