%YAML 1.1
%TAG !u! tag:unity3d.com,2011:
--- !u!74 &7400000
AnimationClip:
  m_ObjectHideFlags: 0
  m_PrefabParentObject: {fileID: 0}
  m_PrefabInternal: {fileID: 0}
  m_Name: HippoDiver_img_moved
  serializedVersion: 6
  m_Legacy: 0
  m_Compressed: 0
  m_UseHighQualityCurve: 1
  m_RotationCurves: []
  m_CompressedRotationCurves: []
  m_EulerCurves:
  - curve:
      serializedVersion: 2
      m_Curve:
      - time: 0
        value: {x: 0, y: 0, z: -17}
        inSlope: {x: 0, y: 0, z: 5.3251276}
        outSlope: {x: 0, y: 0, z: 5.3251276}
        tangentMode: 0
      - time: 1.1666666
        value: {x: 0, y: 0, z: -10.787352}
        inSlope: {x: 0, y: 0, z: 1.5662142}
        outSlope: {x: 0, y: 0, z: 1.5662142}
        tangentMode: 0
      - time: 2.5
        value: {x: 0, y: 0, z: -12.306236}
        inSlope: {x: 0, y: 0, z: -3.0121164}
        outSlope: {x: 0, y: 0, z: -3.0121164}
        tangentMode: 0
      - time: 4
        value: {x: 0, y: 0, z: -17}
        inSlope: {x: 0, y: 0, z: -2.1926992}
        outSlope: {x: 0, y: 0, z: -2.1926992}
        tangentMode: 0
      m_PreInfinity: 2
      m_PostInfinity: 2
      m_RotationOrder: 4
    path: Body/Image_Arm_right
  - curve:
      serializedVersion: 2
      m_Curve:
      - time: 0
        value: {x: 0, y: 0, z: 58.3331}
        inSlope: {x: -6.858701, y: -6.858701, z: -6.858701}
        outSlope: {x: -6.858701, y: -6.858701, z: -6.858701}
        tangentMode: 0
      - time: 1.0833334
        value: {x: -7.4302597, y: -7.4302597, z: 50.90284}
        inSlope: {x: 0.6235187, y: 0.6235187, z: -2.1555917}
        outSlope: {x: 0.6235187, y: 0.6235187, z: -2.1555917}
        tangentMode: 0
      - time: 2
        value: {x: 0, y: 0, z: 51.210926}
        inSlope: {x: 4.0528693, y: 4.0528693, z: 2.3632326}
        outSlope: {x: 4.0528693, y: 4.0528693, z: 2.3632326}
        tangentMode: 0
      - time: 4
        value: {x: 0, y: 0, z: 58.3331}
        inSlope: {x: 0, y: 0, z: 2.5475178}
        outSlope: {x: 0, y: 0, z: 2.5475178}
        tangentMode: 0
      m_PreInfinity: 2
      m_PostInfinity: 2
      m_RotationOrder: 4
    path: Body/Image_Arm_left
  - curve:
      serializedVersion: 2
      m_Curve:
      - time: 0
        value: {x: 0, y: 0, z: 0}
        inSlope: {x: 0, y: 0, z: 8.571429}
        outSlope: {x: 0, y: 0, z: 8.571429}
        tangentMode: 0
      - time: 1.1666666
        value: {x: 0, y: 0, z: 10}
        inSlope: {x: 0, y: 0, z: -3.2142854}
        outSlope: {x: 0, y: 0, z: -3.2142854}
        tangentMode: 0
      - time: 2.5
        value: {x: 0, y: 0, z: -10}
        inSlope: {x: 0, y: 0, z: -4.166667}
        outSlope: {x: 0, y: 0, z: -4.166667}
        tangentMode: 0
      - time: 4
        value: {x: 0, y: 0, z: 0}
        inSlope: {x: 0, y: 0, z: 6.6666665}
        outSlope: {x: 0, y: 0, z: 6.6666665}
        tangentMode: 0
      m_PreInfinity: 2
      m_PostInfinity: 2
      m_RotationOrder: 4
    path: Body/Image_Tail
  - curve:
      serializedVersion: 2
      m_Curve:
      - time: 0
        value: {x: 0, y: 0, z: 17}
        inSlope: {x: -0, y: 0, z: -5.4545455}
        outSlope: {x: -0, y: 0, z: -5.4545455}
        tangentMode: 0
      - time: 0.9166667
        value: {x: -0, y: 0, z: 12}
        inSlope: {x: 0, y: 0, z: -2.3272727}
        outSlope: {x: 0, y: 0, z: -2.3272727}
        tangentMode: 0
      - time: 2.1666667
        value: {x: 0, y: 0, z: 13}
        inSlope: {x: 0, y: 0, z: 1.4909091}
        outSlope: {x: 0, y: 0, z: 1.4909091}
        tangentMode: 0
      - time: 4
        value: {x: 0, y: 0, z: 17}
        inSlope: {x: 0, y: 0, z: 2.1818182}
        outSlope: {x: 0, y: 0, z: 2.1818182}
        tangentMode: 0
      m_PreInfinity: 2
      m_PostInfinity: 2
      m_RotationOrder: 4
    path: Head
  - curve:
      serializedVersion: 2
      m_Curve:
      - time: 0
        value: {x: 0, y: 0, z: 63.505898}
        inSlope: {x: -0, y: 0, z: -5.49852}
        outSlope: {x: -0, y: 0, z: -5.49852}
        tangentMode: 0
      - time: 0.5
        value: {x: -0, y: 0, z: 60.756638}
        inSlope: {x: 0, y: 0, z: -3.78049}
        outSlope: {x: 0, y: 0, z: -3.78049}
        tangentMode: 0
      - time: 1.1666666
        value: {x: -0, y: 0, z: 59.381664}
        inSlope: {x: 0, y: 0, z: -0.9642564}
        outSlope: {x: 0, y: 0, z: -0.9642564}
        tangentMode: 0
      - time: 1.8333334
        value: {x: -0, y: 0, z: 59.470963}
        inSlope: {x: 0, y: 0, z: 1.2034837}
        outSlope: {x: 0, y: 0, z: 1.2034837}
        tangentMode: 0
      - time: 2.5
        value: {x: -0, y: 0, z: 60.98631}
        inSlope: {x: 0, y: 0, z: 1.9763728}
        outSlope: {x: 0, y: 0, z: 1.9763728}
        tangentMode: 0
      - time: 4
        value: {x: 0, y: 0, z: 63.505898}
        inSlope: {x: 0, y: 0, z: 1.6797256}
        outSlope: {x: 0, y: 0, z: 1.6797256}
        tangentMode: 0
      m_PreInfinity: 2
      m_PostInfinity: 2
      m_RotationOrder: 4
    path: Body/Image_RopeHank/Image_Rope
  - curve:
      serializedVersion: 2
      m_Curve:
      - time: 0
        value: {x: 0, y: 0, z: 22.42}
        inSlope: {x: 0, y: 0, z: 0}
        outSlope: {x: 0, y: 0, z: 0}
        tangentMode: 0
      - time: 0.5
        value: {x: 0, y: 0, z: 22.42}
        inSlope: {x: 0, y: 0, z: 0}
        outSlope: {x: 0, y: 0, z: 0}
        tangentMode: 0
      - time: 4
        value: {x: 0, y: 0, z: 22.42}
        inSlope: {x: 0, y: 0, z: 0}
        outSlope: {x: 0, y: 0, z: 0}
        tangentMode: 0
      m_PreInfinity: 2
      m_PostInfinity: 2
      m_RotationOrder: 4
    path: Body/Image_RopeHank
  m_PositionCurves: []
  m_ScaleCurves: []
  m_FloatCurves:
  - curve:
      serializedVersion: 2
      m_Curve:
      - time: 0
        value: 379.9
        inSlope: -6.5203857
        outSlope: -6.5203857
        tangentMode: 10
      - time: 0.5
        value: 376.6398
        inSlope: -18.590034
        outSlope: -18.590034
        tangentMode: 10
      - time: 1.1666666
        value: 356.2
        inSlope: -16.904846
        outSlope: -16.904846
        tangentMode: 10
      - time: 1.8333334
        value: 354.1
        inSlope: 9.149987
        outSlope: 9.149987
        tangentMode: 10
      - time: 2.5
        value: 368.4
        inSlope: 16.858322
        outSlope: 16.858322
        tangentMode: 10
      - time: 4
        value: 386.8
        inSlope: 12.266663
        outSlope: 12.266663
        tangentMode: 10
      m_PreInfinity: 2
      m_PostInfinity: 2
      m_RotationOrder: 4
    attribute: m_SizeDelta.y
    path: Body/Image_RopeHank/Image_Rope
    classID: 224
    script: {fileID: 0}
  - curve:
      serializedVersion: 2
      m_Curve:
      - time: 0
        value: 61.8
        inSlope: -7
        outSlope: -7
        tangentMode: 10
      - time: 0.5
        value: 58.3
        inSlope: -6.6500006
        outSlope: -6.6500006
        tangentMode: 10
      - time: 1.1666666
        value: 54.1
        inSlope: -1.7500005
        outSlope: -1.7500005
        tangentMode: 10
      - time: 2.9166667
        value: 59
        inSlope: 2.6923077
        outSlope: 2.6923077
        tangentMode: 10
      - time: 4
        value: 61.8
        inSlope: 2.5846148
        outSlope: 2.5846148
        tangentMode: 10
      m_PreInfinity: 2
      m_PostInfinity: 2
      m_RotationOrder: 4
    attribute: m_AnchoredPosition.x
    path: Body/Image_RopeHank
    classID: 224
    script: {fileID: 0}
  - curve:
      serializedVersion: 2
      m_Curve:
      - time: 0
        value: 5.4
        inSlope: -12.6
        outSlope: -12.6
        tangentMode: 10
      - time: 0.5
        value: -0.9
        inSlope: -8.925
        outSlope: -8.925
        tangentMode: 10
      - time: 1.1666666
        value: -4.4
        inSlope: -0.8250003
        outSlope: -0.8250003
        tangentMode: 10
      - time: 2.9166667
        value: 1.9
        inSlope: 3.4153848
        outSlope: 3.4153848
        tangentMode: 10
      - time: 4
        value: 5.4
        inSlope: 3.2307694
        outSlope: 3.2307694
        tangentMode: 10
      m_PreInfinity: 2
      m_PostInfinity: 2
      m_RotationOrder: 4
    attribute: m_AnchoredPosition.y
    path: Body/Image_RopeHank
    classID: 224
    script: {fileID: 0}
  - curve:
      serializedVersion: 2
      m_Curve:
      - time: 0
        value: 41
        inSlope: -1.491333
        outSlope: -1.491333
        tangentMode: 10
      - time: 1.5
        value: 38.763
        inSlope: -0.2982666
        outSlope: -0.2982666
        tangentMode: 10
      - time: 4
        value: 41
        inSlope: 0.8947998
        outSlope: 0.8947998
        tangentMode: 10
      m_PreInfinity: 2
      m_PostInfinity: 2
      m_RotationOrder: 4
    attribute: m_SizeDelta.y
    path: Body/Image_Leg_left
    classID: 224
    script: {fileID: 0}
  - curve:
      serializedVersion: 2
      m_Curve:
      - time: 0
        value: 27
        inSlope: 0
        outSlope: 0
        tangentMode: 10
      - time: 0.5833333
        value: 27
        inSlope: 0
        outSlope: 0
        tangentMode: 10
      - time: 2.5833333
        value: 27
        inSlope: 0
        outSlope: 0
        tangentMode: 10
      - time: 4
        value: 27
        inSlope: 0
        outSlope: 0
        tangentMode: 10
      m_PreInfinity: 2
      m_PostInfinity: 2
      m_RotationOrder: 4
    attribute: m_SizeDelta.x
    path: Body/Image_Leg_right
    classID: 224
    script: {fileID: 0}
  - curve:
      serializedVersion: 2
      m_Curve:
      - time: 0
        value: 41
        inSlope: -4.51714
        outSlope: -4.51714
        tangentMode: 10
      - time: 0.5833333
        value: 38.365
        inSlope: -2.4205706
        outSlope: -2.4205706
        tangentMode: 10
      - time: 2.5833333
        value: 37.717
        inSlope: 0.99670553
        outSlope: 0.99670553
        tangentMode: 10
      - time: 4
        value: 41
        inSlope: 2.3174124
        outSlope: 2.3174124
        tangentMode: 10
      m_PreInfinity: 2
      m_PostInfinity: 2
      m_RotationOrder: 4
    attribute: m_SizeDelta.y
    path: Body/Image_Leg_right
    classID: 224
    script: {fileID: 0}
  m_PPtrCurves: []
  m_SampleRate: 12
  m_WrapMode: 0
  m_Bounds:
    m_Center: {x: 0, y: 0, z: 0}
    m_Extent: {x: 0, y: 0, z: 0}
  m_ClipBindingConstant:
    genericBindings:
    - path: 2333372030
      attribute: 4
      script: {fileID: 0}
      classID: 4
      customType: 14
      isPPtrCurve: 0
    - path: 293228750
      attribute: 4
      script: {fileID: 0}
      classID: 4
      customType: 14
      isPPtrCurve: 0
    - path: 2411862067
      attribute: 4
      script: {fileID: 0}
      classID: 4
      customType: 14
      isPPtrCurve: 0
    - path: 130111906
      attribute: 4
      script: {fileID: 0}
      classID: 4
      customType: 14
      isPPtrCurve: 0
    - path: 4239873274
      attribute: 4
      script: {fileID: 0}
      classID: 4
      customType: 14
      isPPtrCurve: 0
    - path: 4239873274
      attribute: 38095219
      script: {fileID: 0}
      classID: 224
      customType: 0
      isPPtrCurve: 0
    - path: 3692444962
      attribute: 1460864421
      script: {fileID: 0}
      classID: 224
      customType: 0
      isPPtrCurve: 0
    - path: 3692444962
      attribute: 538195251
      script: {fileID: 0}
      classID: 224
      customType: 0
      isPPtrCurve: 0
    - path: 2308817977
      attribute: 38095219
      script: {fileID: 0}
      classID: 224
      customType: 0
      isPPtrCurve: 0
    - path: 2824203861
      attribute: 38095219
      script: {fileID: 0}
      classID: 224
      customType: 0
      isPPtrCurve: 0
    - path: 3692444962
      attribute: 4
      script: {fileID: 0}
      classID: 4
      customType: 14
      isPPtrCurve: 0
    - path: 2824203861
      attribute: 1967290853
      script: {fileID: 0}
      classID: 224
      customType: 0
      isPPtrCurve: 0
    pptrCurveMapping: []
  m_AnimationClipSettings:
    serializedVersion: 2
    m_AdditiveReferencePoseClip: {fileID: 0}
    m_AdditiveReferencePoseTime: 0
    m_StartTime: 0
    m_StopTime: 4
    m_OrientationOffsetY: 0
    m_Level: 0
    m_CycleOffset: 0
    m_HasAdditiveReferencePose: 0
    m_LoopTime: 1
    m_LoopBlend: 0
    m_LoopBlendOrientation: 0
    m_LoopBlendPositionY: 0
    m_LoopBlendPositionXZ: 0
    m_KeepOriginalOrientation: 0
    m_KeepOriginalPositionY: 1
    m_KeepOriginalPositionXZ: 0
    m_HeightFromFeet: 0
    m_Mirror: 0
  m_EditorCurves:
  - curve:
      serializedVersion: 2
      m_Curve:
      - time: 0
        value: 0
        inSlope: 0
        outSlope: 0
        tangentMode: 10
      - time: 4
        value: 0
        inSlope: 0
        outSlope: 0
        tangentMode: 10
      m_PreInfinity: 2
      m_PostInfinity: 2
      m_RotationOrder: 4
    attribute: localEulerAnglesRaw.x
    path: Body/Image_Arm_right
    classID: 224
    script: {fileID: 0}
  - curve:
      serializedVersion: 2
      m_Curve:
      - time: 0
        value: 0
        inSlope: 0
        outSlope: 0
        tangentMode: 10
      - time: 2.5
        value: 0
        inSlope: 0
        outSlope: 0
        tangentMode: 10
      - time: 4
        value: 0
        inSlope: 0
        outSlope: 0
        tangentMode: 10
      m_PreInfinity: 2
      m_PostInfinity: 2
      m_RotationOrder: 4
    attribute: localEulerAnglesRaw.y
    path: Body/Image_Arm_right
    classID: 224
    script: {fileID: 0}
  - curve:
      serializedVersion: 2
      m_Curve:
      - time: 0
        value: -17
        inSlope: 5.3251276
        outSlope: 5.3251276
        tangentMode: 10
      - time: 1.1666666
        value: -10.787352
        inSlope: 1.5662142
        outSlope: 1.5662142
        tangentMode: 10
      - time: 4
        value: -17
        inSlope: -2.1926992
        outSlope: -2.1926992
        tangentMode: 10
      m_PreInfinity: 2
      m_PostInfinity: 2
      m_RotationOrder: 4
    attribute: localEulerAnglesRaw.z
    path: Body/Image_Arm_right
    classID: 224
    script: {fileID: 0}
  - curve:
      serializedVersion: 2
      m_Curve:
      - time: 0
        value: 0
        inSlope: -6.858701
        outSlope: -6.858701
        tangentMode: 10
      - time: 1.0833334
        value: -7.4302597
        inSlope: 0.6235187
        outSlope: 0.6235187
        tangentMode: 10
      - time: 2
        value: 0
        inSlope: 4.0528693
        outSlope: 4.0528693
        tangentMode: 10
      - time: 4
        value: 0
        inSlope: 0
        outSlope: 0
        tangentMode: 10
      m_PreInfinity: 2
      m_PostInfinity: 2
      m_RotationOrder: 4
    attribute: localEulerAnglesRaw.x
    path: Body/Image_Arm_left
    classID: 224
    script: {fileID: 0}
  - curve:
      serializedVersion: 2
      m_Curve:
      - time: 0
        value: 0
        inSlope: -6.858701
        outSlope: -6.858701
        tangentMode: 10
      - time: 1.0833334
        value: -7.4302597
        inSlope: 0.6235187
        outSlope: 0.6235187
        tangentMode: 10
      - time: 2
        value: 0
        inSlope: 4.0528693
        outSlope: 4.0528693
        tangentMode: 10
      - time: 4
        value: 0
        inSlope: 0
        outSlope: 0
        tangentMode: 10
      m_PreInfinity: 2
      m_PostInfinity: 2
      m_RotationOrder: 4
    attribute: localEulerAnglesRaw.y
    path: Body/Image_Arm_left
    classID: 224
    script: {fileID: 0}
  - curve:
      serializedVersion: 2
      m_Curve:
      - time: 0
        value: 58.3331
        inSlope: -6.858701
        outSlope: -6.858701
        tangentMode: 10
      - time: 1.0833334
        value: 50.90284
        inSlope: -2.1555917
        outSlope: -2.1555917
        tangentMode: 10
      - time: 4
        value: 58.3331
        inSlope: 2.5475178
        outSlope: 2.5475178
        tangentMode: 10
      m_PreInfinity: 2
      m_PostInfinity: 2
      m_RotationOrder: 4
    attribute: localEulerAnglesRaw.z
    path: Body/Image_Arm_left
    classID: 224
    script: {fileID: 0}
  - curve:
      serializedVersion: 2
      m_Curve:
      - time: 0
        value: 0
        inSlope: 0
        outSlope: 0
        tangentMode: 10
      - time: 1.1666666
        value: 0
        inSlope: 0
        outSlope: 0
        tangentMode: 10
      - time: 2.5
        value: 0
        inSlope: 0
        outSlope: 0
        tangentMode: 10
      - time: 4
        value: 0
        inSlope: 0
        outSlope: 0
        tangentMode: 10
      m_PreInfinity: 2
      m_PostInfinity: 2
      m_RotationOrder: 4
    attribute: localEulerAnglesRaw.x
    path: Body/Image_Tail
    classID: 224
    script: {fileID: 0}
  - curve:
      serializedVersion: 2
      m_Curve:
      - time: 0
        value: 0
        inSlope: 0
        outSlope: 0
        tangentMode: 10
      - time: 1.1666666
        value: 0
        inSlope: 0
        outSlope: 0
        tangentMode: 10
      - time: 2.5
        value: 0
        inSlope: 0
        outSlope: 0
        tangentMode: 10
      - time: 4
        value: 0
        inSlope: 0
        outSlope: 0
        tangentMode: 10
      m_PreInfinity: 2
      m_PostInfinity: 2
      m_RotationOrder: 4
    attribute: localEulerAnglesRaw.y
    path: Body/Image_Tail
    classID: 224
    script: {fileID: 0}
  - curve:
      serializedVersion: 2
      m_Curve:
      - time: 0
        value: 0
        inSlope: 8.571429
        outSlope: 8.571429
        tangentMode: 10
      - time: 1.1666666
        value: 10
        inSlope: -3.2142854
        outSlope: -3.2142854
        tangentMode: 10
      - time: 2.5
        value: -10
        inSlope: -4.166667
        outSlope: -4.166667
        tangentMode: 10
      - time: 4
        value: 0
        inSlope: 6.6666665
        outSlope: 6.6666665
        tangentMode: 10
      m_PreInfinity: 2
      m_PostInfinity: 2
      m_RotationOrder: 4
    attribute: localEulerAnglesRaw.z
    path: Body/Image_Tail
    classID: 224
    script: {fileID: 0}
  - curve:
      serializedVersion: 2
      m_Curve:
      - time: 0
        value: 0
        inSlope: -0
        outSlope: -0
        tangentMode: 10
      - time: 0.9166667
        value: -0
        inSlope: 0
        outSlope: 0
        tangentMode: 10
      - time: 2.1666667
        value: 0
        inSlope: 0
        outSlope: 0
        tangentMode: 10
      - time: 4
        value: 0
        inSlope: 0
        outSlope: 0
        tangentMode: 10
      m_PreInfinity: 2
      m_PostInfinity: 2
      m_RotationOrder: 4
    attribute: localEulerAnglesRaw.x
    path: Head
    classID: 224
    script: {fileID: 0}
  - curve:
      serializedVersion: 2
      m_Curve:
      - time: 0
        value: 0
        inSlope: 0
        outSlope: 0
        tangentMode: 10
      - time: 0.9166667
        value: 0
        inSlope: 0
        outSlope: 0
        tangentMode: 10
      - time: 2.1666667
        value: 0
        inSlope: 0
        outSlope: 0
        tangentMode: 10
      - time: 4
        value: 0
        inSlope: 0
        outSlope: 0
        tangentMode: 10
      m_PreInfinity: 2
      m_PostInfinity: 2
      m_RotationOrder: 4
    attribute: localEulerAnglesRaw.y
    path: Head
    classID: 224
    script: {fileID: 0}
  - curve:
      serializedVersion: 2
      m_Curve:
      - time: 0
        value: 17
        inSlope: -5.4545455
        outSlope: -5.4545455
        tangentMode: 10
      - time: 0.9166667
        value: 12
        inSlope: -2.3272727
        outSlope: -2.3272727
        tangentMode: 10
      - time: 2.1666667
        value: 13
        inSlope: 1.4909091
        outSlope: 1.4909091
        tangentMode: 10
      - time: 4
        value: 17
        inSlope: 2.1818182
        outSlope: 2.1818182
        tangentMode: 10
      m_PreInfinity: 2
      m_PostInfinity: 2
      m_RotationOrder: 4
    attribute: localEulerAnglesRaw.z
    path: Head
    classID: 224
    script: {fileID: 0}
  - curve:
      serializedVersion: 2
      m_Curve:
      - time: 0
        value: 0
        inSlope: -0
        outSlope: -0
        tangentMode: 10
      - time: 0.5
        value: -0
        inSlope: 0
        outSlope: 0
        tangentMode: 10
      - time: 1.1666666
        value: -0
        inSlope: 0
        outSlope: 0
        tangentMode: 10
      - time: 1.8333334
        value: -0
        inSlope: 0
        outSlope: 0
        tangentMode: 10
      - time: 2.5
        value: -0
        inSlope: 0
        outSlope: 0
        tangentMode: 10
      - time: 4
        value: 0
        inSlope: 0
        outSlope: 0
        tangentMode: 10
      m_PreInfinity: 2
      m_PostInfinity: 2
      m_RotationOrder: 4
    attribute: localEulerAnglesRaw.x
    path: Body/Image_RopeHank/Image_Rope
    classID: 224
    script: {fileID: 0}
  - curve:
      serializedVersion: 2
      m_Curve:
      - time: 0
        value: 0
        inSlope: 0
        outSlope: 0
        tangentMode: 10
      - time: 0.5
        value: 0
        inSlope: 0
        outSlope: 0
        tangentMode: 10
      - time: 1.1666666
        value: 0
        inSlope: 0
        outSlope: 0
        tangentMode: 10
      - time: 1.8333334
        value: 0
        inSlope: 0
        outSlope: 0
        tangentMode: 10
      - time: 2.5
        value: 0
        inSlope: 0
        outSlope: 0
        tangentMode: 10
      - time: 4
        value: 0
        inSlope: 0
        outSlope: 0
        tangentMode: 10
      m_PreInfinity: 2
      m_PostInfinity: 2
      m_RotationOrder: 4
    attribute: localEulerAnglesRaw.y
    path: Body/Image_RopeHank/Image_Rope
    classID: 224
    script: {fileID: 0}
  - curve:
      serializedVersion: 2
      m_Curve:
      - time: 0
        value: 63.505898
        inSlope: -5.49852
        outSlope: -5.49852
        tangentMode: 10
      - time: 0.5
        value: 60.756638
        inSlope: -3.78049
        outSlope: -3.78049
        tangentMode: 10
      - time: 1.1666666
        value: 59.381664
        inSlope: -0.9642564
        outSlope: -0.9642564
        tangentMode: 10
      - time: 1.8333334
        value: 59.470963
        inSlope: 1.2034837
        outSlope: 1.2034837
        tangentMode: 10
      - time: 2.5
        value: 60.98631
        inSlope: 1.9763728
        outSlope: 1.9763728
        tangentMode: 10
      - time: 4
        value: 63.505898
        inSlope: 1.6797256
        outSlope: 1.6797256
        tangentMode: 10
      m_PreInfinity: 2
      m_PostInfinity: 2
      m_RotationOrder: 4
    attribute: localEulerAnglesRaw.z
    path: Body/Image_RopeHank/Image_Rope
    classID: 224
    script: {fileID: 0}
  - curve:
      serializedVersion: 2
      m_Curve:
      - time: 0
        value: 379.9
        inSlope: -6.5203857
        outSlope: -6.5203857
        tangentMode: 10
      - time: 0.5
        value: 376.6398
        inSlope: -18.590034
        outSlope: -18.590034
        tangentMode: 10
      - time: 1.1666666
        value: 356.2
        inSlope: -16.904846
        outSlope: -16.904846
        tangentMode: 10
      - time: 1.8333334
        value: 354.1
        inSlope: 9.149987
        outSlope: 9.149987
        tangentMode: 10
      - time: 2.5
        value: 368.4
        inSlope: 16.858322
        outSlope: 16.858322
        tangentMode: 10
      - time: 4
        value: 386.8
        inSlope: 12.266663
        outSlope: 12.266663
        tangentMode: 10
      m_PreInfinity: 2
      m_PostInfinity: 2
      m_RotationOrder: 4
    attribute: m_SizeDelta.y
    path: Body/Image_RopeHank/Image_Rope
    classID: 224
    script: {fileID: 0}
  - curve:
      serializedVersion: 2
      m_Curve:
      - time: 0
        value: 0
        inSlope: 0
        outSlope: 0
        tangentMode: 10
      - time: 0.5
        value: 0
        inSlope: 0
        outSlope: 0
        tangentMode: 10
      - time: 4
        value: 0
        inSlope: 0
        outSlope: 0
        tangentMode: 10
      m_PreInfinity: 2
      m_PostInfinity: 2
      m_RotationOrder: 4
    attribute: localEulerAnglesRaw.x
    path: Body/Image_RopeHank
    classID: 224
    script: {fileID: 0}
  - curve:
      serializedVersion: 2
      m_Curve:
      - time: 0
        value: 0
        inSlope: 0
        outSlope: 0
        tangentMode: 10
      - time: 0.5
        value: 0
        inSlope: 0
        outSlope: 0
        tangentMode: 10
      - time: 4
        value: 0
        inSlope: 0
        outSlope: 0
        tangentMode: 10
      m_PreInfinity: 2
      m_PostInfinity: 2
      m_RotationOrder: 4
    attribute: localEulerAnglesRaw.y
    path: Body/Image_RopeHank
    classID: 224
    script: {fileID: 0}
  - curve:
      serializedVersion: 2
      m_Curve:
      - time: 0
        value: 22.42
        inSlope: 0
        outSlope: 0
        tangentMode: 10
      - time: 0.5
        value: 22.42
        inSlope: 0
        outSlope: 0
        tangentMode: 10
      - time: 4
        value: 22.42
        inSlope: 0
        outSlope: 0
        tangentMode: 10
      m_PreInfinity: 2
      m_PostInfinity: 2
      m_RotationOrder: 4
    attribute: localEulerAnglesRaw.z
    path: Body/Image_RopeHank
    classID: 224
    script: {fileID: 0}
  - curve:
      serializedVersion: 2
      m_Curve:
      - time: 0
        value: 61.8
        inSlope: -7
        outSlope: -7
        tangentMode: 10
      - time: 0.5
        value: 58.3
        inSlope: -6.6500006
        outSlope: -6.6500006
        tangentMode: 10
      - time: 1.1666666
        value: 54.1
        inSlope: -1.7500005
        outSlope: -1.7500005
        tangentMode: 10
      - time: 2.9166667
        value: 59
        inSlope: 2.6923077
        outSlope: 2.6923077
        tangentMode: 10
      - time: 4
        value: 61.8
        inSlope: 2.5846148
        outSlope: 2.5846148
        tangentMode: 10
      m_PreInfinity: 2
      m_PostInfinity: 2
      m_RotationOrder: 4
    attribute: m_AnchoredPosition.x
    path: Body/Image_RopeHank
    classID: 224
    script: {fileID: 0}
  - curve:
      serializedVersion: 2
      m_Curve:
      - time: 0
        value: 5.4
        inSlope: -12.6
        outSlope: -12.6
        tangentMode: 10
      - time: 0.5
        value: -0.9
        inSlope: -8.925
        outSlope: -8.925
        tangentMode: 10
      - time: 1.1666666
        value: -4.4
        inSlope: -0.8250003
        outSlope: -0.8250003
        tangentMode: 10
      - time: 2.9166667
        value: 1.9
        inSlope: 3.4153848
        outSlope: 3.4153848
        tangentMode: 10
      - time: 4
        value: 5.4
        inSlope: 3.2307694
        outSlope: 3.2307694
        tangentMode: 10
      m_PreInfinity: 2
      m_PostInfinity: 2
      m_RotationOrder: 4
    attribute: m_AnchoredPosition.y
    path: Body/Image_RopeHank
    classID: 224
    script: {fileID: 0}
  - curve:
      serializedVersion: 2
      m_Curve:
      - time: 0
        value: 41
        inSlope: -1.491333
        outSlope: -1.491333
        tangentMode: 10
      - time: 1.5
        value: 38.763
        inSlope: -0.2982666
        outSlope: -0.2982666
        tangentMode: 10
      - time: 4
        value: 41
        inSlope: 0.8947998
        outSlope: 0.8947998
        tangentMode: 10
      m_PreInfinity: 2
      m_PostInfinity: 2
      m_RotationOrder: 4
    attribute: m_SizeDelta.y
    path: Body/Image_Leg_left
    classID: 224
    script: {fileID: 0}
  - curve:
      serializedVersion: 2
      m_Curve:
      - time: 0
        value: 27
        inSlope: 0
        outSlope: 0
        tangentMode: 10
      - time: 0.5833333
        value: 27
        inSlope: 0
        outSlope: 0
        tangentMode: 10
      - time: 2.5833333
        value: 27
        inSlope: 0
        outSlope: 0
        tangentMode: 10
      - time: 4
        value: 27
        inSlope: 0
        outSlope: 0
        tangentMode: 10
      m_PreInfinity: 2
      m_PostInfinity: 2
      m_RotationOrder: 4
    attribute: m_SizeDelta.x
    path: Body/Image_Leg_right
    classID: 224
    script: {fileID: 0}
  - curve:
      serializedVersion: 2
      m_Curve:
      - time: 0
        value: 41
        inSlope: -4.51714
        outSlope: -4.51714
        tangentMode: 10
      - time: 0.5833333
        value: 38.365
        inSlope: -2.4205706
        outSlope: -2.4205706
        tangentMode: 10
      - time: 2.5833333
        value: 37.717
        inSlope: 0.99670553
        outSlope: 0.99670553
        tangentMode: 10
      - time: 4
        value: 41
        inSlope: 2.3174124
        outSlope: 2.3174124
        tangentMode: 10
      m_PreInfinity: 2
      m_PostInfinity: 2
      m_RotationOrder: 4
    attribute: m_SizeDelta.y
    path: Body/Image_Leg_right
    classID: 224
    script: {fileID: 0}
  m_EulerEditorCurves:
  - curve:
      serializedVersion: 2
      m_Curve: []
      m_PreInfinity: 2
      m_PostInfinity: 2
      m_RotationOrder: 4
    attribute: m_LocalEulerAngles.z
    path: Head
    classID: 224
    script: {fileID: 0}
  - curve:
      serializedVersion: 2
      m_Curve: []
      m_PreInfinity: 2
      m_PostInfinity: 2
      m_RotationOrder: 4
    attribute: m_LocalEulerAngles.y
    path: Head
    classID: 224
    script: {fileID: 0}
  - curve:
      serializedVersion: 2
      m_Curve: []
      m_PreInfinity: 2
      m_PostInfinity: 2
      m_RotationOrder: 4
    attribute: m_LocalEulerAngles.x
    path: Head
    classID: 224
    script: {fileID: 0}
  - curve:
      serializedVersion: 2
      m_Curve: []
      m_PreInfinity: 2
      m_PostInfinity: 2
      m_RotationOrder: 4
    attribute: m_LocalEulerAngles.z
    path: Body/Image_Arm_right
    classID: 224
    script: {fileID: 0}
  - curve:
      serializedVersion: 2
      m_Curve: []
      m_PreInfinity: 2
      m_PostInfinity: 2
      m_RotationOrder: 4
    attribute: m_LocalEulerAngles.y
    path: Body/Image_Arm_right
    classID: 224
    script: {fileID: 0}
  - curve:
      serializedVersion: 2
      m_Curve: []
      m_PreInfinity: 2
      m_PostInfinity: 2
      m_RotationOrder: 4
    attribute: m_LocalEulerAngles.x
    path: Body/Image_Arm_right
    classID: 224
    script: {fileID: 0}
  - curve:
      serializedVersion: 2
      m_Curve: []
      m_PreInfinity: 2
      m_PostInfinity: 2
      m_RotationOrder: 4
    attribute: m_LocalEulerAngles.x
    path: Body/Image_Tail
    classID: 224
    script: {fileID: 0}
  - curve:
      serializedVersion: 2
      m_Curve: []
      m_PreInfinity: 2
      m_PostInfinity: 2
      m_RotationOrder: 4
    attribute: m_LocalEulerAngles.y
    path: Body/Image_Tail
    classID: 224
    script: {fileID: 0}
  - curve:
      serializedVersion: 2
      m_Curve: []
      m_PreInfinity: 2
      m_PostInfinity: 2
      m_RotationOrder: 4
    attribute: m_LocalEulerAngles.z
    path: Body/Image_Tail
    classID: 224
    script: {fileID: 0}
  - curve:
      serializedVersion: 2
      m_Curve: []
      m_PreInfinity: 2
      m_PostInfinity: 2
      m_RotationOrder: 4
    attribute: m_LocalEulerAngles.x
    path: Body/Image_Arm_left
    classID: 224
    script: {fileID: 0}
  - curve:
      serializedVersion: 2
      m_Curve: []
      m_PreInfinity: 2
      m_PostInfinity: 2
      m_RotationOrder: 4
    attribute: m_LocalEulerAngles.y
    path: Body/Image_Arm_left
    classID: 224
    script: {fileID: 0}
  - curve:
      serializedVersion: 2
      m_Curve: []
      m_PreInfinity: 2
      m_PostInfinity: 2
      m_RotationOrder: 4
    attribute: m_LocalEulerAngles.z
    path: Body/Image_Arm_left
    classID: 224
    script: {fileID: 0}
  - curve:
      serializedVersion: 2
      m_Curve: []
      m_PreInfinity: 2
      m_PostInfinity: 2
      m_RotationOrder: 4
    attribute: m_LocalEulerAngles.z
    path: Body/Image_RopeHank
    classID: 224
    script: {fileID: 0}
  - curve:
      serializedVersion: 2
      m_Curve: []
      m_PreInfinity: 2
      m_PostInfinity: 2
      m_RotationOrder: 4
    attribute: m_LocalEulerAngles.y
    path: Body/Image_RopeHank
    classID: 224
    script: {fileID: 0}
  - curve:
      serializedVersion: 2
      m_Curve: []
      m_PreInfinity: 2
      m_PostInfinity: 2
      m_RotationOrder: 4
    attribute: m_LocalEulerAngles.x
    path: Body/Image_RopeHank
    classID: 224
    script: {fileID: 0}
  - curve:
      serializedVersion: 2
      m_Curve: []
      m_PreInfinity: 2
      m_PostInfinity: 2
      m_RotationOrder: 4
    attribute: m_LocalEulerAngles.x
    path: Body/Image_RopeHank/Image_Rope
    classID: 224
    script: {fileID: 0}
  - curve:
      serializedVersion: 2
      m_Curve: []
      m_PreInfinity: 2
      m_PostInfinity: 2
      m_RotationOrder: 4
    attribute: m_LocalEulerAngles.y
    path: Body/Image_RopeHank/Image_Rope
    classID: 224
    script: {fileID: 0}
  - curve:
      serializedVersion: 2
      m_Curve: []
      m_PreInfinity: 2
      m_PostInfinity: 2
      m_RotationOrder: 4
    attribute: m_LocalEulerAngles.z
    path: Body/Image_RopeHank/Image_Rope
    classID: 224
    script: {fileID: 0}
  m_HasGenericRootTransform: 0
  m_HasMotionFloatCurves: 0
  m_GenerateMotionCurves: 0
  m_Events: []
