%YAML 1.1
%TAG !u! tag:unity3d.com,2011:
--- !u!74 &7400000
AnimationClip:
  m_ObjectHideFlags: 0
  m_PrefabParentObject: {fileID: 0}
  m_PrefabInternal: {fileID: 0}
  m_Name: waves
  serializedVersion: 6
  m_Legacy: 0
  m_Compressed: 0
  m_UseHighQualityCurve: 1
  m_RotationCurves: []
  m_CompressedRotationCurves: []
  m_EulerCurves:
  - curve:
      serializedVersion: 2
      m_Curve:
      - time: 0
        value: {x: -0, y: 0, z: 0}
        inSlope: {x: 0, y: 0, z: -10.542166}
        outSlope: {x: 0, y: 0, z: -10.542166}
        tangentMode: 0
      - time: 0.6
        value: {x: 0, y: 0, z: -6.3252997}
        inSlope: {x: 0, y: 0, z: 7.408242}
        outSlope: {x: 0, y: 0, z: 7.408242}
        tangentMode: 0
      - time: 1.1666666
        value: {x: 0, y: 0, z: 8.0446}
        inSlope: {x: 0, y: 0, z: 5.5811496}
        outSlope: {x: 0, y: 0, z: 5.5811496}
        tangentMode: 0
      - time: 1.7333333
        value: {x: -0, y: 0, z: 0}
        inSlope: {x: -0, y: 0, z: -14.196351}
        outSlope: {x: -0, y: 0, z: -14.196351}
        tangentMode: 0
      m_PreInfinity: 2
      m_PostInfinity: 2
      m_RotationOrder: 4
    path: "\u0432\u043E\u0434\u043E\u0440\u043E\u0441\u043B\u0438_13"
  - curve:
      serializedVersion: 2
      m_Curve:
      - time: 0
        value: {x: -0, y: 0, z: 0}
        inSlope: {x: 0, y: 0, z: 15.380333}
        outSlope: {x: 0, y: 0, z: 15.380333}
        tangentMode: 0
      - time: 0.6
        value: {x: 0, y: 0, z: 9.2282}
        inSlope: {x: 0, y: 0, z: -7.9151297}
        outSlope: {x: 0, y: 0, z: -7.9151297}
        tangentMode: 0
      - time: 1.1666666
        value: {x: 0, y: 0, z: -8.4578}
        inSlope: {x: 0, y: 0, z: -8.142532}
        outSlope: {x: 0, y: 0, z: -8.142532}
        tangentMode: 0
      - time: 1.7333333
        value: {x: -0, y: 0, z: 0}
        inSlope: {x: -0, y: 0, z: 14.925528}
        outSlope: {x: -0, y: 0, z: 14.925528}
        tangentMode: 0
      m_PreInfinity: 2
      m_PostInfinity: 2
      m_RotationOrder: 4
    path: "\u0432\u043E\u0434\u043E\u0440\u043E\u0441\u043B\u0438_5"
  - curve:
      serializedVersion: 2
      m_Curve:
      - time: 0
        value: {x: -0, y: 0, z: 0}
        inSlope: {x: 0, y: 0, z: -8.629832}
        outSlope: {x: 0, y: 0, z: -8.629832}
        tangentMode: 0
      - time: 0.6
        value: {x: 0, y: 0, z: -5.1779}
        inSlope: {x: 0, y: 0, z: 7.9547324}
        outSlope: {x: 0, y: 0, z: 7.9547324}
        tangentMode: 0
      - time: 1.1666666
        value: {x: 0, y: 0, z: 8.7277}
        inSlope: {x: 0, y: 0, z: 4.5687375}
        outSlope: {x: 0, y: 0, z: 4.5687375}
        tangentMode: 0
      - time: 1.7333333
        value: {x: -0, y: 0, z: 0}
        inSlope: {x: -0, y: 0, z: -15.401822}
        outSlope: {x: -0, y: 0, z: -15.401822}
        tangentMode: 0
      m_PreInfinity: 2
      m_PostInfinity: 2
      m_RotationOrder: 4
    path: "\u0432\u043E\u0434\u043E\u0440\u043E\u0441\u043B\u0438_12"
  - curve:
      serializedVersion: 2
      m_Curve:
      - time: 0
        value: {x: -0, y: 0, z: 0}
        inSlope: {x: 0, y: 0, z: 7.077666}
        outSlope: {x: 0, y: 0, z: 7.077666}
        tangentMode: 0
      - time: 0.6
        value: {x: 0, y: 0, z: 4.2465997}
        inSlope: {x: 0, y: 0, z: -5.488433}
        outSlope: {x: 0, y: 0, z: -5.488433}
        tangentMode: 0
      - time: 1.1666666
        value: {x: 0, y: 0, z: -5.9842997}
        inSlope: {x: 0, y: 0, z: -3.7470016}
        outSlope: {x: 0, y: 0, z: -3.7470016}
        tangentMode: 0
      - time: 1.7333333
        value: {x: -0, y: 0, z: 0}
        inSlope: {x: -0, y: 0, z: 10.560528}
        outSlope: {x: -0, y: 0, z: 10.560528}
        tangentMode: 0
      m_PreInfinity: 2
      m_PostInfinity: 2
      m_RotationOrder: 4
    path: "\u0432\u043E\u0434\u043E\u0440\u043E\u0441\u043B\u0438_4"
  m_PositionCurves:
  - curve:
      serializedVersion: 2
      m_Curve:
      - time: 0
        value: {x: -0.12, y: 0.599, z: 0}
        inSlope: {x: 0.049999986, y: 0.10166674, z: 0}
        outSlope: {x: 0.049999986, y: 0.10166674, z: 0}
        tangentMode: 0
      - time: 0.6
        value: {x: -0.09, y: 0.66, z: 0}
        inSlope: {x: -0.045588247, y: 0.0243627, z: 0}
        outSlope: {x: -0.045588247, y: 0.0243627, z: 0}
        tangentMode: 0
      - time: 1.1666666
        value: {x: -0.17, y: 0.62999994, z: 0}
        inSlope: {x: -0.02647059, y: -0.05382357, z: 0}
        outSlope: {x: -0.02647059, y: -0.05382357, z: 0}
        tangentMode: 0
      - time: 1.7333333
        value: {x: -0.12, y: 0.599, z: 0}
        inSlope: {x: 0.0882353, y: -0.054705802, z: 0}
        outSlope: {x: 0.0882353, y: -0.054705802, z: 0}
        tangentMode: 0
      m_PreInfinity: 2
      m_PostInfinity: 2
      m_RotationOrder: 4
    path: "\u0432\u043E\u0434\u043E\u0440\u043E\u0441\u043B\u0438_13"
  - curve:
      serializedVersion: 2
      m_Curve:
      - time: 0
        value: {x: -0.147, y: 5.296, z: 0}
        inSlope: {x: -0.02166666, y: 0.40666658, z: 0}
        outSlope: {x: -0.02166666, y: 0.40666658, z: 0}
        tangentMode: 0
      - time: 0.6
        value: {x: -0.16, y: 5.54, z: 0}
        inSlope: {x: -0.05495098, y: 0.044509888, z: 0}
        outSlope: {x: -0.05495098, y: 0.044509888, z: 0}
        tangentMode: 0
      - time: 1.1666666
        value: {x: -0.21, y: 5.36, z: 0}
        inSlope: {x: 0.011470575, y: -0.2152941, z: 0}
        outSlope: {x: 0.011470575, y: -0.2152941, z: 0}
        tangentMode: 0
      - time: 1.7333333
        value: {x: -0.147, y: 5.296, z: 0}
        inSlope: {x: 0.111176446, y: -0.11294139, z: 0}
        outSlope: {x: 0.111176446, y: -0.11294139, z: 0}
        tangentMode: 0
      m_PreInfinity: 2
      m_PostInfinity: 2
      m_RotationOrder: 4
    path: "\u0432\u043E\u0434\u043E\u0440\u043E\u0441\u043B\u0438_5"
  - curve:
      serializedVersion: 2
      m_Curve:
      - time: 0
        value: {x: -0.102, y: 4.33, z: 0}
        inSlope: {x: 0.0033333276, y: 0.2333331, z: 0}
        outSlope: {x: 0.0033333276, y: 0.2333331, z: 0}
        tangentMode: 0
      - time: 0.6
        value: {x: -0.1, y: 4.47, z: 0}
        inSlope: {x: 0.010490252, y: 0.0019609705, z: 0}
        outSlope: {x: 0.010490252, y: 0.0019609705, z: 0}
        tangentMode: 0
      - time: 1.1666666
        value: {x: -0.08999994, y: 4.34, z: 0}
        inSlope: {x: -0.0017647007, y: -0.12352931, z: 0}
        outSlope: {x: -0.0017647007, y: -0.12352931, z: 0}
        tangentMode: 0
      - time: 1.7333333
        value: {x: -0.102, y: 4.33, z: 0}
        inSlope: {x: -0.021176577, y: -0.01764746, z: 0}
        outSlope: {x: -0.021176577, y: -0.01764746, z: 0}
        tangentMode: 0
      m_PreInfinity: 2
      m_PostInfinity: 2
      m_RotationOrder: 4
    path: "\u0432\u043E\u0434\u043E\u0440\u043E\u0441\u043B\u0438_12"
  - curve:
      serializedVersion: 2
      m_Curve:
      - time: 0
        value: {x: -0.138, y: 2.331, z: 0}
        inSlope: {x: 0.013333335, y: 0.19833325, z: 0}
        outSlope: {x: 0.013333335, y: 0.19833325, z: 0}
        tangentMode: 0
      - time: 0.6
        value: {x: -0.13, y: 2.45, z: 0}
        inSlope: {x: 0.015490044, y: 0.019754924, z: 0}
        outSlope: {x: 0.015490044, y: 0.019754924, z: 0}
        tangentMode: 0
      - time: 1.1666666
        value: {x: -0.12000017, y: 2.3600001, z: 0}
        inSlope: {x: -0.0070588225, y: -0.104999974, z: 0}
        outSlope: {x: -0.0070588225, y: -0.104999974, z: 0}
        tangentMode: 0
      - time: 1.7333333
        value: {x: -0.138, y: 2.331, z: 0}
        inSlope: {x: -0.0317644, y: -0.051176544, z: 0}
        outSlope: {x: -0.0317644, y: -0.051176544, z: 0}
        tangentMode: 0
      m_PreInfinity: 2
      m_PostInfinity: 2
      m_RotationOrder: 4
    path: "\u0432\u043E\u0434\u043E\u0440\u043E\u0441\u043B\u0438_4"
  m_ScaleCurves:
  - curve:
      serializedVersion: 2
      m_Curve:
      - time: 0
        value: {x: 1, y: 1, z: 1}
        inSlope: {x: 0, y: 0.17096737, z: 0}
        outSlope: {x: 0, y: 0.17096737, z: 0}
        tangentMode: 0
      - time: 0.6
        value: {x: 1, y: 1.1025804, z: 1}
        inSlope: {x: 0, y: 0.03671586, z: 0}
        outSlope: {x: 0, y: 0.03671586, z: 0}
        tangentMode: 0
      - time: 1.1666666
        value: {x: 1, y: 1.0473102, z: 1}
        inSlope: {x: 0, y: -0.09051214, z: 0}
        outSlope: {x: 0, y: -0.09051214, z: 0}
        tangentMode: 0
      - time: 1.7333333
        value: {x: 1, y: 1, z: 1}
        inSlope: {x: 0, y: -0.083488636, z: 0}
        outSlope: {x: 0, y: -0.083488636, z: 0}
        tangentMode: 0
      m_PreInfinity: 2
      m_PostInfinity: 2
      m_RotationOrder: 4
    path: "\u0432\u043E\u0434\u043E\u0440\u043E\u0441\u043B\u0438_13"
  - curve:
      serializedVersion: 2
      m_Curve:
      - time: 0
        value: {x: 1, y: 1, z: 1}
        inSlope: {x: 0, y: 0.26512265, z: 0}
        outSlope: {x: 0, y: 0.26512265, z: 0}
        tangentMode: 0
      - time: 0.6
        value: {x: 1, y: 1.1590736, z: 1}
        inSlope: {x: 0, y: -0.015814438, z: 0}
        outSlope: {x: 0, y: -0.015814438, z: 0}
        tangentMode: 0
      - time: 1.1666666
        value: {x: 1, y: 0.9909144, z: 1}
        inSlope: {x: 0, y: -0.14035906, z: 0}
        outSlope: {x: 0, y: -0.14035906, z: 0}
        tangentMode: 0
      - time: 1.7333333
        value: {x: 1, y: 1, z: 1}
        inSlope: {x: 0, y: 0.016033402, z: 0}
        outSlope: {x: 0, y: 0.016033402, z: 0}
        tangentMode: 0
      m_PreInfinity: 2
      m_PostInfinity: 2
      m_RotationOrder: 4
    path: "\u0432\u043E\u0434\u043E\u0440\u043E\u0441\u043B\u0438_5"
  - curve:
      serializedVersion: 2
      m_Curve:
      - time: 0
        value: {x: 1, y: 1, z: 1}
        inSlope: {x: 0, y: 0.12825349, z: 0}
        outSlope: {x: 0, y: 0.12825349, z: 0}
        tangentMode: 0
      - time: 0.6
        value: {x: 1, y: 1.0769521, z: 1}
        inSlope: {x: 0, y: 0.036629155, z: 0}
        outSlope: {x: 0, y: 0.036629155, z: 0}
        tangentMode: 0
      - time: 1.1666666
        value: {x: 1, y: 1.0457882, z: 1}
        inSlope: {x: 0, y: -0.067898914, z: 0}
        outSlope: {x: 0, y: -0.067898914, z: 0}
        tangentMode: 0
      - time: 1.7333333
        value: {x: 1, y: 1, z: 1}
        inSlope: {x: 0, y: -0.08080264, z: 0}
        outSlope: {x: 0, y: -0.08080264, z: 0}
        tangentMode: 0
      m_PreInfinity: 2
      m_PostInfinity: 2
      m_RotationOrder: 4
    path: "\u0432\u043E\u0434\u043E\u0440\u043E\u0441\u043B\u0438_12"
  - curve:
      serializedVersion: 2
      m_Curve:
      - time: 0
        value: {x: 1, y: 1, z: 1}
        inSlope: {x: 0, y: -0.028995771, z: 0}
        outSlope: {x: 0, y: -0.028995771, z: 0}
        tangentMode: 0
      - time: 0.6
        value: {x: 1, y: 0.98260254, z: 1}
        inSlope: {x: 0, y: -0.031404745, z: 0}
        outSlope: {x: 0, y: -0.031404745, z: 0}
        tangentMode: 0
      - time: 1.1666666
        value: {x: 1, y: 0.96344143, z: 1}
        inSlope: {x: 0, y: 0.015350698, z: 0}
        outSlope: {x: 0, y: 0.015350698, z: 0}
        tangentMode: 0
      - time: 1.7333333
        value: {x: 1, y: 1, z: 1}
        inSlope: {x: 0, y: 0.064515114, z: 0}
        outSlope: {x: 0, y: 0.064515114, z: 0}
        tangentMode: 0
      m_PreInfinity: 2
      m_PostInfinity: 2
      m_RotationOrder: 4
    path: "\u0432\u043E\u0434\u043E\u0440\u043E\u0441\u043B\u0438_4"
  m_FloatCurves: []
  m_PPtrCurves: []
  m_SampleRate: 30
  m_WrapMode: 0
  m_Bounds:
    m_Center: {x: 0, y: 0, z: 0}
    m_Extent: {x: 0, y: 0, z: 0}
  m_ClipBindingConstant:
    genericBindings:
    - path: 3196861885
      attribute: 1
      script: {fileID: 0}
      classID: 4
      customType: 0
      isPPtrCurve: 0
    - path: 2401900926
      attribute: 1
      script: {fileID: 0}
      classID: 4
      customType: 0
      isPPtrCurve: 0
    - path: 3381333291
      attribute: 1
      script: {fileID: 0}
      classID: 4
      customType: 0
      isPPtrCurve: 0
    - path: 4163709416
      attribute: 1
      script: {fileID: 0}
      classID: 4
      customType: 0
      isPPtrCurve: 0
    - path: 3196861885
      attribute: 4
      script: {fileID: 0}
      classID: 4
      customType: 14
      isPPtrCurve: 0
    - path: 2401900926
      attribute: 4
      script: {fileID: 0}
      classID: 4
      customType: 14
      isPPtrCurve: 0
    - path: 3381333291
      attribute: 4
      script: {fileID: 0}
      classID: 4
      customType: 14
      isPPtrCurve: 0
    - path: 4163709416
      attribute: 4
      script: {fileID: 0}
      classID: 4
      customType: 14
      isPPtrCurve: 0
    - path: 3196861885
      attribute: 3
      script: {fileID: 0}
      classID: 4
      customType: 0
      isPPtrCurve: 0
    - path: 2401900926
      attribute: 3
      script: {fileID: 0}
      classID: 4
      customType: 0
      isPPtrCurve: 0
    - path: 3381333291
      attribute: 3
      script: {fileID: 0}
      classID: 4
      customType: 0
      isPPtrCurve: 0
    - path: 4163709416
      attribute: 3
      script: {fileID: 0}
      classID: 4
      customType: 0
      isPPtrCurve: 0
    pptrCurveMapping: []
  m_AnimationClipSettings:
    serializedVersion: 2
    m_AdditiveReferencePoseClip: {fileID: 0}
    m_AdditiveReferencePoseTime: 0
    m_StartTime: 0
    m_StopTime: 1.7333333
    m_OrientationOffsetY: 0
    m_Level: 0
    m_CycleOffset: 0
    m_HasAdditiveReferencePose: 0
    m_LoopTime: 1
    m_LoopBlend: 0
    m_LoopBlendOrientation: 0
    m_LoopBlendPositionY: 0
    m_LoopBlendPositionXZ: 0
    m_KeepOriginalOrientation: 0
    m_KeepOriginalPositionY: 1
    m_KeepOriginalPositionXZ: 0
    m_HeightFromFeet: 0
    m_Mirror: 0
  m_EditorCurves:
  - curve:
      serializedVersion: 2
      m_Curve:
      - time: 0
        value: -0.12
        inSlope: 0.049999986
        outSlope: 0.049999986
        tangentMode: 10
      - time: 0.6
        value: -0.09
        inSlope: -0.045588247
        outSlope: -0.045588247
        tangentMode: 10
      - time: 1.1666666
        value: -0.17
        inSlope: -0.02647059
        outSlope: -0.02647059
        tangentMode: 10
      - time: 1.7333333
        value: -0.12
        inSlope: 0.0882353
        outSlope: 0.0882353
        tangentMode: 10
      m_PreInfinity: 2
      m_PostInfinity: 2
      m_RotationOrder: 4
    attribute: m_LocalPosition.x
    path: "\u0432\u043E\u0434\u043E\u0440\u043E\u0441\u043B\u0438_13"
    classID: 4
    script: {fileID: 0}
  - curve:
      serializedVersion: 2
      m_Curve:
      - time: 0
        value: 0.599
        inSlope: 0.10166674
        outSlope: 0.10166674
        tangentMode: 10
      - time: 0.6
        value: 0.66
        inSlope: 0.0243627
        outSlope: 0.0243627
        tangentMode: 10
      - time: 1.1666666
        value: 0.62999994
        inSlope: -0.05382357
        outSlope: -0.05382357
        tangentMode: 10
      - time: 1.7333333
        value: 0.599
        inSlope: -0.054705802
        outSlope: -0.054705802
        tangentMode: 10
      m_PreInfinity: 2
      m_PostInfinity: 2
      m_RotationOrder: 4
    attribute: m_LocalPosition.y
    path: "\u0432\u043E\u0434\u043E\u0440\u043E\u0441\u043B\u0438_13"
    classID: 4
    script: {fileID: 0}
  - curve:
      serializedVersion: 2
      m_Curve:
      - time: 0
        value: 0
        inSlope: 0
        outSlope: 0
        tangentMode: 10
      - time: 0.6
        value: 0
        inSlope: 0
        outSlope: 0
        tangentMode: 10
      - time: 1.1666666
        value: 0
        inSlope: 0
        outSlope: 0
        tangentMode: 10
      - time: 1.7333333
        value: 0
        inSlope: 0
        outSlope: 0
        tangentMode: 10
      m_PreInfinity: 2
      m_PostInfinity: 2
      m_RotationOrder: 4
    attribute: m_LocalPosition.z
    path: "\u0432\u043E\u0434\u043E\u0440\u043E\u0441\u043B\u0438_13"
    classID: 4
    script: {fileID: 0}
  - curve:
      serializedVersion: 2
      m_Curve:
      - time: 0
        value: 1
        inSlope: 0
        outSlope: 0
        tangentMode: 10
      - time: 0.6
        value: 1
        inSlope: 0
        outSlope: 0
        tangentMode: 10
      - time: 1.1666666
        value: 1
        inSlope: 0
        outSlope: 0
        tangentMode: 10
      - time: 1.7333333
        value: 1
        inSlope: 0
        outSlope: 0
        tangentMode: 10
      m_PreInfinity: 2
      m_PostInfinity: 2
      m_RotationOrder: 4
    attribute: m_LocalScale.x
    path: "\u0432\u043E\u0434\u043E\u0440\u043E\u0441\u043B\u0438_13"
    classID: 4
    script: {fileID: 0}
  - curve:
      serializedVersion: 2
      m_Curve:
      - time: 0
        value: 1
        inSlope: 0.17096737
        outSlope: 0.17096737
        tangentMode: 10
      - time: 0.6
        value: 1.1025804
        inSlope: 0.03671586
        outSlope: 0.03671586
        tangentMode: 10
      - time: 1.1666666
        value: 1.0473102
        inSlope: -0.09051214
        outSlope: -0.09051214
        tangentMode: 10
      - time: 1.7333333
        value: 1
        inSlope: -0.083488636
        outSlope: -0.083488636
        tangentMode: 10
      m_PreInfinity: 2
      m_PostInfinity: 2
      m_RotationOrder: 4
    attribute: m_LocalScale.y
    path: "\u0432\u043E\u0434\u043E\u0440\u043E\u0441\u043B\u0438_13"
    classID: 4
    script: {fileID: 0}
  - curve:
      serializedVersion: 2
      m_Curve:
      - time: 0
        value: 1
        inSlope: 0
        outSlope: 0
        tangentMode: 10
      - time: 0.6
        value: 1
        inSlope: 0
        outSlope: 0
        tangentMode: 10
      - time: 1.1666666
        value: 1
        inSlope: 0
        outSlope: 0
        tangentMode: 10
      - time: 1.7333333
        value: 1
        inSlope: 0
        outSlope: 0
        tangentMode: 10
      m_PreInfinity: 2
      m_PostInfinity: 2
      m_RotationOrder: 4
    attribute: m_LocalScale.z
    path: "\u0432\u043E\u0434\u043E\u0440\u043E\u0441\u043B\u0438_13"
    classID: 4
    script: {fileID: 0}
  - curve:
      serializedVersion: 2
      m_Curve:
      - time: 0
        value: -0.147
        inSlope: -0.02166666
        outSlope: -0.02166666
        tangentMode: 10
      - time: 0.6
        value: -0.16
        inSlope: -0.05495098
        outSlope: -0.05495098
        tangentMode: 10
      - time: 1.1666666
        value: -0.21
        inSlope: 0.011470575
        outSlope: 0.011470575
        tangentMode: 10
      - time: 1.7333333
        value: -0.147
        inSlope: 0.111176446
        outSlope: 0.111176446
        tangentMode: 10
      m_PreInfinity: 2
      m_PostInfinity: 2
      m_RotationOrder: 4
    attribute: m_LocalPosition.x
    path: "\u0432\u043E\u0434\u043E\u0440\u043E\u0441\u043B\u0438_5"
    classID: 4
    script: {fileID: 0}
  - curve:
      serializedVersion: 2
      m_Curve:
      - time: 0
        value: 5.296
        inSlope: 0.40666658
        outSlope: 0.40666658
        tangentMode: 10
      - time: 0.6
        value: 5.54
        inSlope: 0.044509888
        outSlope: 0.044509888
        tangentMode: 10
      - time: 1.1666666
        value: 5.36
        inSlope: -0.2152941
        outSlope: -0.2152941
        tangentMode: 10
      - time: 1.7333333
        value: 5.296
        inSlope: -0.11294139
        outSlope: -0.11294139
        tangentMode: 10
      m_PreInfinity: 2
      m_PostInfinity: 2
      m_RotationOrder: 4
    attribute: m_LocalPosition.y
    path: "\u0432\u043E\u0434\u043E\u0440\u043E\u0441\u043B\u0438_5"
    classID: 4
    script: {fileID: 0}
  - curve:
      serializedVersion: 2
      m_Curve:
      - time: 0
        value: 0
        inSlope: 0
        outSlope: 0
        tangentMode: 10
      - time: 0.6
        value: 0
        inSlope: 0
        outSlope: 0
        tangentMode: 10
      - time: 1.1666666
        value: 0
        inSlope: 0
        outSlope: 0
        tangentMode: 10
      - time: 1.7333333
        value: 0
        inSlope: 0
        outSlope: 0
        tangentMode: 10
      m_PreInfinity: 2
      m_PostInfinity: 2
      m_RotationOrder: 4
    attribute: m_LocalPosition.z
    path: "\u0432\u043E\u0434\u043E\u0440\u043E\u0441\u043B\u0438_5"
    classID: 4
    script: {fileID: 0}
  - curve:
      serializedVersion: 2
      m_Curve:
      - time: 0
        value: 1
        inSlope: 0
        outSlope: 0
        tangentMode: 10
      - time: 0.6
        value: 1
        inSlope: 0
        outSlope: 0
        tangentMode: 10
      - time: 1.1666666
        value: 1
        inSlope: 0
        outSlope: 0
        tangentMode: 10
      - time: 1.7333333
        value: 1
        inSlope: 0
        outSlope: 0
        tangentMode: 10
      m_PreInfinity: 2
      m_PostInfinity: 2
      m_RotationOrder: 4
    attribute: m_LocalScale.x
    path: "\u0432\u043E\u0434\u043E\u0440\u043E\u0441\u043B\u0438_5"
    classID: 4
    script: {fileID: 0}
  - curve:
      serializedVersion: 2
      m_Curve:
      - time: 0
        value: 1
        inSlope: 0.26512265
        outSlope: 0.26512265
        tangentMode: 10
      - time: 0.6
        value: 1.1590736
        inSlope: -0.015814438
        outSlope: -0.015814438
        tangentMode: 10
      - time: 1.1666666
        value: 0.9909144
        inSlope: -0.14035906
        outSlope: -0.14035906
        tangentMode: 10
      - time: 1.7333333
        value: 1
        inSlope: 0.016033402
        outSlope: 0.016033402
        tangentMode: 10
      m_PreInfinity: 2
      m_PostInfinity: 2
      m_RotationOrder: 4
    attribute: m_LocalScale.y
    path: "\u0432\u043E\u0434\u043E\u0440\u043E\u0441\u043B\u0438_5"
    classID: 4
    script: {fileID: 0}
  - curve:
      serializedVersion: 2
      m_Curve:
      - time: 0
        value: 1
        inSlope: 0
        outSlope: 0
        tangentMode: 10
      - time: 0.6
        value: 1
        inSlope: 0
        outSlope: 0
        tangentMode: 10
      - time: 1.1666666
        value: 1
        inSlope: 0
        outSlope: 0
        tangentMode: 10
      - time: 1.7333333
        value: 1
        inSlope: 0
        outSlope: 0
        tangentMode: 10
      m_PreInfinity: 2
      m_PostInfinity: 2
      m_RotationOrder: 4
    attribute: m_LocalScale.z
    path: "\u0432\u043E\u0434\u043E\u0440\u043E\u0441\u043B\u0438_5"
    classID: 4
    script: {fileID: 0}
  - curve:
      serializedVersion: 2
      m_Curve:
      - time: 0
        value: -0.102
        inSlope: 0.0033333276
        outSlope: 0.0033333276
        tangentMode: 10
      - time: 0.6
        value: -0.1
        inSlope: 0.010490252
        outSlope: 0.010490252
        tangentMode: 10
      - time: 1.1666666
        value: -0.08999994
        inSlope: -0.0017647007
        outSlope: -0.0017647007
        tangentMode: 10
      - time: 1.7333333
        value: -0.102
        inSlope: -0.021176577
        outSlope: -0.021176577
        tangentMode: 10
      m_PreInfinity: 2
      m_PostInfinity: 2
      m_RotationOrder: 4
    attribute: m_LocalPosition.x
    path: "\u0432\u043E\u0434\u043E\u0440\u043E\u0441\u043B\u0438_12"
    classID: 4
    script: {fileID: 0}
  - curve:
      serializedVersion: 2
      m_Curve:
      - time: 0
        value: 4.33
        inSlope: 0.2333331
        outSlope: 0.2333331
        tangentMode: 10
      - time: 0.6
        value: 4.47
        inSlope: 0.0019609705
        outSlope: 0.0019609705
        tangentMode: 10
      - time: 1.1666666
        value: 4.34
        inSlope: -0.12352931
        outSlope: -0.12352931
        tangentMode: 10
      - time: 1.7333333
        value: 4.33
        inSlope: -0.01764746
        outSlope: -0.01764746
        tangentMode: 10
      m_PreInfinity: 2
      m_PostInfinity: 2
      m_RotationOrder: 4
    attribute: m_LocalPosition.y
    path: "\u0432\u043E\u0434\u043E\u0440\u043E\u0441\u043B\u0438_12"
    classID: 4
    script: {fileID: 0}
  - curve:
      serializedVersion: 2
      m_Curve:
      - time: 0
        value: 0
        inSlope: 0
        outSlope: 0
        tangentMode: 10
      - time: 0.6
        value: 0
        inSlope: 0
        outSlope: 0
        tangentMode: 10
      - time: 1.1666666
        value: 0
        inSlope: 0
        outSlope: 0
        tangentMode: 10
      - time: 1.7333333
        value: 0
        inSlope: 0
        outSlope: 0
        tangentMode: 10
      m_PreInfinity: 2
      m_PostInfinity: 2
      m_RotationOrder: 4
    attribute: m_LocalPosition.z
    path: "\u0432\u043E\u0434\u043E\u0440\u043E\u0441\u043B\u0438_12"
    classID: 4
    script: {fileID: 0}
  - curve:
      serializedVersion: 2
      m_Curve:
      - time: 0
        value: 1
        inSlope: 0
        outSlope: 0
        tangentMode: 10
      - time: 0.6
        value: 1
        inSlope: 0
        outSlope: 0
        tangentMode: 10
      - time: 1.1666666
        value: 1
        inSlope: 0
        outSlope: 0
        tangentMode: 10
      - time: 1.7333333
        value: 1
        inSlope: 0
        outSlope: 0
        tangentMode: 10
      m_PreInfinity: 2
      m_PostInfinity: 2
      m_RotationOrder: 4
    attribute: m_LocalScale.x
    path: "\u0432\u043E\u0434\u043E\u0440\u043E\u0441\u043B\u0438_12"
    classID: 4
    script: {fileID: 0}
  - curve:
      serializedVersion: 2
      m_Curve:
      - time: 0
        value: 1
        inSlope: 0.12825349
        outSlope: 0.12825349
        tangentMode: 10
      - time: 0.6
        value: 1.0769521
        inSlope: 0.036629155
        outSlope: 0.036629155
        tangentMode: 10
      - time: 1.1666666
        value: 1.0457882
        inSlope: -0.067898914
        outSlope: -0.067898914
        tangentMode: 10
      - time: 1.7333333
        value: 1
        inSlope: -0.08080264
        outSlope: -0.08080264
        tangentMode: 10
      m_PreInfinity: 2
      m_PostInfinity: 2
      m_RotationOrder: 4
    attribute: m_LocalScale.y
    path: "\u0432\u043E\u0434\u043E\u0440\u043E\u0441\u043B\u0438_12"
    classID: 4
    script: {fileID: 0}
  - curve:
      serializedVersion: 2
      m_Curve:
      - time: 0
        value: 1
        inSlope: 0
        outSlope: 0
        tangentMode: 10
      - time: 0.6
        value: 1
        inSlope: 0
        outSlope: 0
        tangentMode: 10
      - time: 1.1666666
        value: 1
        inSlope: 0
        outSlope: 0
        tangentMode: 10
      - time: 1.7333333
        value: 1
        inSlope: 0
        outSlope: 0
        tangentMode: 10
      m_PreInfinity: 2
      m_PostInfinity: 2
      m_RotationOrder: 4
    attribute: m_LocalScale.z
    path: "\u0432\u043E\u0434\u043E\u0440\u043E\u0441\u043B\u0438_12"
    classID: 4
    script: {fileID: 0}
  - curve:
      serializedVersion: 2
      m_Curve:
      - time: 0
        value: -0.138
        inSlope: 0.013333335
        outSlope: 0.013333335
        tangentMode: 10
      - time: 0.6
        value: -0.13
        inSlope: 0.015490044
        outSlope: 0.015490044
        tangentMode: 10
      - time: 1.1666666
        value: -0.12000017
        inSlope: -0.0070588225
        outSlope: -0.0070588225
        tangentMode: 10
      - time: 1.7333333
        value: -0.138
        inSlope: -0.0317644
        outSlope: -0.0317644
        tangentMode: 10
      m_PreInfinity: 2
      m_PostInfinity: 2
      m_RotationOrder: 4
    attribute: m_LocalPosition.x
    path: "\u0432\u043E\u0434\u043E\u0440\u043E\u0441\u043B\u0438_4"
    classID: 4
    script: {fileID: 0}
  - curve:
      serializedVersion: 2
      m_Curve:
      - time: 0
        value: 2.331
        inSlope: 0.19833325
        outSlope: 0.19833325
        tangentMode: 10
      - time: 0.6
        value: 2.45
        inSlope: 0.019754924
        outSlope: 0.019754924
        tangentMode: 10
      - time: 1.1666666
        value: 2.3600001
        inSlope: -0.104999974
        outSlope: -0.104999974
        tangentMode: 10
      - time: 1.7333333
        value: 2.331
        inSlope: -0.051176544
        outSlope: -0.051176544
        tangentMode: 10
      m_PreInfinity: 2
      m_PostInfinity: 2
      m_RotationOrder: 4
    attribute: m_LocalPosition.y
    path: "\u0432\u043E\u0434\u043E\u0440\u043E\u0441\u043B\u0438_4"
    classID: 4
    script: {fileID: 0}
  - curve:
      serializedVersion: 2
      m_Curve:
      - time: 0
        value: 0
        inSlope: 0
        outSlope: 0
        tangentMode: 10
      - time: 0.6
        value: 0
        inSlope: 0
        outSlope: 0
        tangentMode: 10
      - time: 1.1666666
        value: 0
        inSlope: 0
        outSlope: 0
        tangentMode: 10
      - time: 1.7333333
        value: 0
        inSlope: 0
        outSlope: 0
        tangentMode: 10
      m_PreInfinity: 2
      m_PostInfinity: 2
      m_RotationOrder: 4
    attribute: m_LocalPosition.z
    path: "\u0432\u043E\u0434\u043E\u0440\u043E\u0441\u043B\u0438_4"
    classID: 4
    script: {fileID: 0}
  - curve:
      serializedVersion: 2
      m_Curve:
      - time: 0
        value: 1
        inSlope: 0
        outSlope: 0
        tangentMode: 10
      - time: 0.6
        value: 1
        inSlope: 0
        outSlope: 0
        tangentMode: 10
      - time: 1.1666666
        value: 1
        inSlope: 0
        outSlope: 0
        tangentMode: 10
      - time: 1.7333333
        value: 1
        inSlope: 0
        outSlope: 0
        tangentMode: 10
      m_PreInfinity: 2
      m_PostInfinity: 2
      m_RotationOrder: 4
    attribute: m_LocalScale.x
    path: "\u0432\u043E\u0434\u043E\u0440\u043E\u0441\u043B\u0438_4"
    classID: 4
    script: {fileID: 0}
  - curve:
      serializedVersion: 2
      m_Curve:
      - time: 0
        value: 1
        inSlope: -0.028995771
        outSlope: -0.028995771
        tangentMode: 10
      - time: 0.6
        value: 0.98260254
        inSlope: -0.031404745
        outSlope: -0.031404745
        tangentMode: 10
      - time: 1.1666666
        value: 0.96344143
        inSlope: 0.015350698
        outSlope: 0.015350698
        tangentMode: 10
      - time: 1.7333333
        value: 1
        inSlope: 0.064515114
        outSlope: 0.064515114
        tangentMode: 10
      m_PreInfinity: 2
      m_PostInfinity: 2
      m_RotationOrder: 4
    attribute: m_LocalScale.y
    path: "\u0432\u043E\u0434\u043E\u0440\u043E\u0441\u043B\u0438_4"
    classID: 4
    script: {fileID: 0}
  - curve:
      serializedVersion: 2
      m_Curve:
      - time: 0
        value: 1
        inSlope: 0
        outSlope: 0
        tangentMode: 10
      - time: 0.6
        value: 1
        inSlope: 0
        outSlope: 0
        tangentMode: 10
      - time: 1.1666666
        value: 1
        inSlope: 0
        outSlope: 0
        tangentMode: 10
      - time: 1.7333333
        value: 1
        inSlope: 0
        outSlope: 0
        tangentMode: 10
      m_PreInfinity: 2
      m_PostInfinity: 2
      m_RotationOrder: 4
    attribute: m_LocalScale.z
    path: "\u0432\u043E\u0434\u043E\u0440\u043E\u0441\u043B\u0438_4"
    classID: 4
    script: {fileID: 0}
  - curve:
      serializedVersion: 2
      m_Curve:
      - time: 0
        value: -0
        inSlope: 0
        outSlope: 0
        tangentMode: 10
      - time: 0.6
        value: 0
        inSlope: 0
        outSlope: 0
        tangentMode: 10
      - time: 1.1666666
        value: 0
        inSlope: 0
        outSlope: 0
        tangentMode: 10
      - time: 1.7333333
        value: -0
        inSlope: -0
        outSlope: -0
        tangentMode: 10
      m_PreInfinity: 2
      m_PostInfinity: 2
      m_RotationOrder: 4
    attribute: localEulerAnglesRaw.x
    path: "\u0432\u043E\u0434\u043E\u0440\u043E\u0441\u043B\u0438_13"
    classID: 4
    script: {fileID: 0}
  - curve:
      serializedVersion: 2
      m_Curve:
      - time: 0
        value: 0
        inSlope: 0
        outSlope: 0
        tangentMode: 10
      - time: 0.6
        value: 0
        inSlope: 0
        outSlope: 0
        tangentMode: 10
      - time: 1.1666666
        value: 0
        inSlope: 0
        outSlope: 0
        tangentMode: 10
      - time: 1.7333333
        value: 0
        inSlope: 0
        outSlope: 0
        tangentMode: 10
      m_PreInfinity: 2
      m_PostInfinity: 2
      m_RotationOrder: 4
    attribute: localEulerAnglesRaw.y
    path: "\u0432\u043E\u0434\u043E\u0440\u043E\u0441\u043B\u0438_13"
    classID: 4
    script: {fileID: 0}
  - curve:
      serializedVersion: 2
      m_Curve:
      - time: 0
        value: 0
        inSlope: -10.542166
        outSlope: -10.542166
        tangentMode: 10
      - time: 0.6
        value: -6.3252997
        inSlope: 7.408242
        outSlope: 7.408242
        tangentMode: 10
      - time: 1.1666666
        value: 8.0446
        inSlope: 5.5811496
        outSlope: 5.5811496
        tangentMode: 10
      - time: 1.7333333
        value: 0
        inSlope: -14.196351
        outSlope: -14.196351
        tangentMode: 10
      m_PreInfinity: 2
      m_PostInfinity: 2
      m_RotationOrder: 4
    attribute: localEulerAnglesRaw.z
    path: "\u0432\u043E\u0434\u043E\u0440\u043E\u0441\u043B\u0438_13"
    classID: 4
    script: {fileID: 0}
  - curve:
      serializedVersion: 2
      m_Curve:
      - time: 0
        value: -0
        inSlope: 0
        outSlope: 0
        tangentMode: 10
      - time: 0.6
        value: 0
        inSlope: 0
        outSlope: 0
        tangentMode: 10
      - time: 1.1666666
        value: 0
        inSlope: 0
        outSlope: 0
        tangentMode: 10
      - time: 1.7333333
        value: -0
        inSlope: -0
        outSlope: -0
        tangentMode: 10
      m_PreInfinity: 2
      m_PostInfinity: 2
      m_RotationOrder: 4
    attribute: localEulerAnglesRaw.x
    path: "\u0432\u043E\u0434\u043E\u0440\u043E\u0441\u043B\u0438_5"
    classID: 4
    script: {fileID: 0}
  - curve:
      serializedVersion: 2
      m_Curve:
      - time: 0
        value: 0
        inSlope: 0
        outSlope: 0
        tangentMode: 10
      - time: 0.6
        value: 0
        inSlope: 0
        outSlope: 0
        tangentMode: 10
      - time: 1.1666666
        value: 0
        inSlope: 0
        outSlope: 0
        tangentMode: 10
      - time: 1.7333333
        value: 0
        inSlope: 0
        outSlope: 0
        tangentMode: 10
      m_PreInfinity: 2
      m_PostInfinity: 2
      m_RotationOrder: 4
    attribute: localEulerAnglesRaw.y
    path: "\u0432\u043E\u0434\u043E\u0440\u043E\u0441\u043B\u0438_5"
    classID: 4
    script: {fileID: 0}
  - curve:
      serializedVersion: 2
      m_Curve:
      - time: 0
        value: 0
        inSlope: 15.380333
        outSlope: 15.380333
        tangentMode: 10
      - time: 0.6
        value: 9.2282
        inSlope: -7.9151297
        outSlope: -7.9151297
        tangentMode: 10
      - time: 1.1666666
        value: -8.4578
        inSlope: -8.142532
        outSlope: -8.142532
        tangentMode: 10
      - time: 1.7333333
        value: 0
        inSlope: 14.925528
        outSlope: 14.925528
        tangentMode: 10
      m_PreInfinity: 2
      m_PostInfinity: 2
      m_RotationOrder: 4
    attribute: localEulerAnglesRaw.z
    path: "\u0432\u043E\u0434\u043E\u0440\u043E\u0441\u043B\u0438_5"
    classID: 4
    script: {fileID: 0}
  - curve:
      serializedVersion: 2
      m_Curve:
      - time: 0
        value: -0
        inSlope: 0
        outSlope: 0
        tangentMode: 10
      - time: 0.6
        value: 0
        inSlope: 0
        outSlope: 0
        tangentMode: 10
      - time: 1.1666666
        value: 0
        inSlope: 0
        outSlope: 0
        tangentMode: 10
      - time: 1.7333333
        value: -0
        inSlope: -0
        outSlope: -0
        tangentMode: 10
      m_PreInfinity: 2
      m_PostInfinity: 2
      m_RotationOrder: 4
    attribute: localEulerAnglesRaw.x
    path: "\u0432\u043E\u0434\u043E\u0440\u043E\u0441\u043B\u0438_12"
    classID: 4
    script: {fileID: 0}
  - curve:
      serializedVersion: 2
      m_Curve:
      - time: 0
        value: 0
        inSlope: 0
        outSlope: 0
        tangentMode: 10
      - time: 0.6
        value: 0
        inSlope: 0
        outSlope: 0
        tangentMode: 10
      - time: 1.1666666
        value: 0
        inSlope: 0
        outSlope: 0
        tangentMode: 10
      - time: 1.7333333
        value: 0
        inSlope: 0
        outSlope: 0
        tangentMode: 10
      m_PreInfinity: 2
      m_PostInfinity: 2
      m_RotationOrder: 4
    attribute: localEulerAnglesRaw.y
    path: "\u0432\u043E\u0434\u043E\u0440\u043E\u0441\u043B\u0438_12"
    classID: 4
    script: {fileID: 0}
  - curve:
      serializedVersion: 2
      m_Curve:
      - time: 0
        value: 0
        inSlope: -8.629832
        outSlope: -8.629832
        tangentMode: 10
      - time: 0.6
        value: -5.1779
        inSlope: 7.9547324
        outSlope: 7.9547324
        tangentMode: 10
      - time: 1.1666666
        value: 8.7277
        inSlope: 4.5687375
        outSlope: 4.5687375
        tangentMode: 10
      - time: 1.7333333
        value: 0
        inSlope: -15.401822
        outSlope: -15.401822
        tangentMode: 10
      m_PreInfinity: 2
      m_PostInfinity: 2
      m_RotationOrder: 4
    attribute: localEulerAnglesRaw.z
    path: "\u0432\u043E\u0434\u043E\u0440\u043E\u0441\u043B\u0438_12"
    classID: 4
    script: {fileID: 0}
  - curve:
      serializedVersion: 2
      m_Curve:
      - time: 0
        value: -0
        inSlope: 0
        outSlope: 0
        tangentMode: 10
      - time: 0.6
        value: 0
        inSlope: 0
        outSlope: 0
        tangentMode: 10
      - time: 1.1666666
        value: 0
        inSlope: 0
        outSlope: 0
        tangentMode: 10
      - time: 1.7333333
        value: -0
        inSlope: -0
        outSlope: -0
        tangentMode: 10
      m_PreInfinity: 2
      m_PostInfinity: 2
      m_RotationOrder: 4
    attribute: localEulerAnglesRaw.x
    path: "\u0432\u043E\u0434\u043E\u0440\u043E\u0441\u043B\u0438_4"
    classID: 4
    script: {fileID: 0}
  - curve:
      serializedVersion: 2
      m_Curve:
      - time: 0
        value: 0
        inSlope: 0
        outSlope: 0
        tangentMode: 10
      - time: 0.6
        value: 0
        inSlope: 0
        outSlope: 0
        tangentMode: 10
      - time: 1.1666666
        value: 0
        inSlope: 0
        outSlope: 0
        tangentMode: 10
      - time: 1.7333333
        value: 0
        inSlope: 0
        outSlope: 0
        tangentMode: 10
      m_PreInfinity: 2
      m_PostInfinity: 2
      m_RotationOrder: 4
    attribute: localEulerAnglesRaw.y
    path: "\u0432\u043E\u0434\u043E\u0440\u043E\u0441\u043B\u0438_4"
    classID: 4
    script: {fileID: 0}
  - curve:
      serializedVersion: 2
      m_Curve:
      - time: 0
        value: 0
        inSlope: 7.077666
        outSlope: 7.077666
        tangentMode: 10
      - time: 0.6
        value: 4.2465997
        inSlope: -5.488433
        outSlope: -5.488433
        tangentMode: 10
      - time: 1.1666666
        value: -5.9842997
        inSlope: -3.7470016
        outSlope: -3.7470016
        tangentMode: 10
      - time: 1.7333333
        value: 0
        inSlope: 10.560528
        outSlope: 10.560528
        tangentMode: 10
      m_PreInfinity: 2
      m_PostInfinity: 2
      m_RotationOrder: 4
    attribute: localEulerAnglesRaw.z
    path: "\u0432\u043E\u0434\u043E\u0440\u043E\u0441\u043B\u0438_4"
    classID: 4
    script: {fileID: 0}
  m_EulerEditorCurves:
  - curve:
      serializedVersion: 2
      m_Curve: []
      m_PreInfinity: 2
      m_PostInfinity: 2
      m_RotationOrder: 4
    attribute: m_LocalEulerAngles.z
    path: "\u0432\u043E\u0434\u043E\u0440\u043E\u0441\u043B\u0438_13"
    classID: 4
    script: {fileID: 0}
  - curve:
      serializedVersion: 2
      m_Curve: []
      m_PreInfinity: 2
      m_PostInfinity: 2
      m_RotationOrder: 4
    attribute: m_LocalEulerAngles.y
    path: "\u0432\u043E\u0434\u043E\u0440\u043E\u0441\u043B\u0438_13"
    classID: 4
    script: {fileID: 0}
  - curve:
      serializedVersion: 2
      m_Curve: []
      m_PreInfinity: 2
      m_PostInfinity: 2
      m_RotationOrder: 4
    attribute: m_LocalEulerAngles.x
    path: "\u0432\u043E\u0434\u043E\u0440\u043E\u0441\u043B\u0438_13"
    classID: 4
    script: {fileID: 0}
  - curve:
      serializedVersion: 2
      m_Curve: []
      m_PreInfinity: 2
      m_PostInfinity: 2
      m_RotationOrder: 4
    attribute: m_LocalEulerAngles.z
    path: "\u0432\u043E\u0434\u043E\u0440\u043E\u0441\u043B\u0438_12"
    classID: 4
    script: {fileID: 0}
  - curve:
      serializedVersion: 2
      m_Curve: []
      m_PreInfinity: 2
      m_PostInfinity: 2
      m_RotationOrder: 4
    attribute: m_LocalEulerAngles.y
    path: "\u0432\u043E\u0434\u043E\u0440\u043E\u0441\u043B\u0438_12"
    classID: 4
    script: {fileID: 0}
  - curve:
      serializedVersion: 2
      m_Curve: []
      m_PreInfinity: 2
      m_PostInfinity: 2
      m_RotationOrder: 4
    attribute: m_LocalEulerAngles.x
    path: "\u0432\u043E\u0434\u043E\u0440\u043E\u0441\u043B\u0438_12"
    classID: 4
    script: {fileID: 0}
  - curve:
      serializedVersion: 2
      m_Curve: []
      m_PreInfinity: 2
      m_PostInfinity: 2
      m_RotationOrder: 4
    attribute: m_LocalEulerAngles.z
    path: "\u0432\u043E\u0434\u043E\u0440\u043E\u0441\u043B\u0438_4"
    classID: 4
    script: {fileID: 0}
  - curve:
      serializedVersion: 2
      m_Curve: []
      m_PreInfinity: 2
      m_PostInfinity: 2
      m_RotationOrder: 4
    attribute: m_LocalEulerAngles.y
    path: "\u0432\u043E\u0434\u043E\u0440\u043E\u0441\u043B\u0438_4"
    classID: 4
    script: {fileID: 0}
  - curve:
      serializedVersion: 2
      m_Curve: []
      m_PreInfinity: 2
      m_PostInfinity: 2
      m_RotationOrder: 4
    attribute: m_LocalEulerAngles.x
    path: "\u0432\u043E\u0434\u043E\u0440\u043E\u0441\u043B\u0438_4"
    classID: 4
    script: {fileID: 0}
  - curve:
      serializedVersion: 2
      m_Curve: []
      m_PreInfinity: 2
      m_PostInfinity: 2
      m_RotationOrder: 4
    attribute: m_LocalEulerAngles.x
    path: "\u0432\u043E\u0434\u043E\u0440\u043E\u0441\u043B\u0438_5"
    classID: 4
    script: {fileID: 0}
  - curve:
      serializedVersion: 2
      m_Curve: []
      m_PreInfinity: 2
      m_PostInfinity: 2
      m_RotationOrder: 4
    attribute: m_LocalEulerAngles.y
    path: "\u0432\u043E\u0434\u043E\u0440\u043E\u0441\u043B\u0438_5"
    classID: 4
    script: {fileID: 0}
  - curve:
      serializedVersion: 2
      m_Curve: []
      m_PreInfinity: 2
      m_PostInfinity: 2
      m_RotationOrder: 4
    attribute: m_LocalEulerAngles.z
    path: "\u0432\u043E\u0434\u043E\u0440\u043E\u0441\u043B\u0438_5"
    classID: 4
    script: {fileID: 0}
  m_HasGenericRootTransform: 0
  m_HasMotionFloatCurves: 0
  m_GenerateMotionCurves: 0
  m_Events: []
