%YAML 1.1
%TAG !u! tag:unity3d.com,2011:
--- !u!74 &7400000
AnimationClip:
  m_ObjectHideFlags: 0
  m_PrefabParentObject: {fileID: 0}
  m_PrefabInternal: {fileID: 0}
  m_Name: waves
  serializedVersion: 6
  m_Legacy: 0
  m_Compressed: 0
  m_UseHighQualityCurve: 1
  m_RotationCurves: []
  m_CompressedRotationCurves: []
  m_EulerCurves:
  - curve:
      serializedVersion: 2
      m_Curve:
      - time: 0
        value: {x: -0, y: 0, z: 0}
        inSlope: {x: 0, y: 0, z: 20.1848}
        outSlope: {x: 0, y: 0, z: 20.1848}
        tangentMode: 0
      - time: 0.5
        value: {x: 0, y: 0, z: 10.0924}
        inSlope: {x: 0, y: 0, z: -21.916744}
        outSlope: {x: 0, y: 0, z: -21.916744}
        tangentMode: 0
      - time: 0.96666664
        value: {x: 0, y: 0, z: -19.782799}
        inSlope: {x: 0, y: 0, z: -10.813286}
        outSlope: {x: 0, y: 0, z: -10.813286}
        tangentMode: 0
      - time: 1.4333333
        value: {x: -0, y: 0, z: 0}
        inSlope: {x: -0, y: 0, z: 42.391716}
        outSlope: {x: -0, y: 0, z: 42.391716}
        tangentMode: 0
      m_PreInfinity: 2
      m_PostInfinity: 2
      m_RotationOrder: 4
    path: "\u0432\u043E\u0434\u043E\u0440\u043E\u0441\u043B\u0438_7"
  - curve:
      serializedVersion: 2
      m_Curve:
      - time: 0
        value: {x: -0, y: 0, z: 0}
        inSlope: {x: 0, y: 0, z: -12.5794}
        outSlope: {x: 0, y: 0, z: -12.5794}
        tangentMode: 0
      - time: 0.5
        value: {x: 0, y: 0, z: -6.2897}
        inSlope: {x: 0, y: 0, z: 4.534943}
        outSlope: {x: 0, y: 0, z: 4.534943}
        tangentMode: 0
      - time: 0.96666664
        value: {x: 0, y: 0, z: 3.8133}
        inSlope: {x: 0, y: 0, z: 6.7389646}
        outSlope: {x: 0, y: 0, z: 6.7389646}
        tangentMode: 0
      - time: 1.4333333
        value: {x: -0, y: 0, z: 0}
        inSlope: {x: -0, y: 0, z: -8.171357}
        outSlope: {x: -0, y: 0, z: -8.171357}
        tangentMode: 0
      m_PreInfinity: 2
      m_PostInfinity: 2
      m_RotationOrder: 4
    path: "\u0432\u043E\u0434\u043E\u0440\u043E\u0441\u043B\u0438_0"
  - curve:
      serializedVersion: 2
      m_Curve:
      - time: 0
        value: {x: -0, y: 0, z: 0}
        inSlope: {x: 0, y: 0, z: 10.338799}
        outSlope: {x: 0, y: 0, z: 10.338799}
        tangentMode: 0
      - time: 0.5
        value: {x: 0, y: 0, z: 5.1693997}
        inSlope: {x: 0, y: 0, z: -18.077496}
        outSlope: {x: 0, y: 0, z: -18.077496}
        tangentMode: 0
      - time: 0.96666664
        value: {x: 0, y: 0, z: -16.5277}
        inSlope: {x: 0, y: 0, z: -5.538643}
        outSlope: {x: 0, y: 0, z: -5.538643}
        tangentMode: 0
      - time: 1.4333333
        value: {x: -0, y: 0, z: 0}
        inSlope: {x: -0, y: 0, z: 35.416504}
        outSlope: {x: -0, y: 0, z: 35.416504}
        tangentMode: 0
      m_PreInfinity: 2
      m_PostInfinity: 2
      m_RotationOrder: 4
    path: "\u0432\u043E\u0434\u043E\u0440\u043E\u0441\u043B\u0438_8"
  - curve:
      serializedVersion: 2
      m_Curve:
      - time: 0
        value: {x: -0, y: 0, z: 0}
        inSlope: {x: 0, y: 0, z: 26.5124}
        outSlope: {x: 0, y: 0, z: 26.5124}
        tangentMode: 0
      - time: 0.5
        value: {x: 0, y: 0, z: 13.2562}
        inSlope: {x: 0, y: 0, z: -11.116231}
        outSlope: {x: 0, y: 0, z: -11.116231}
        tangentMode: 0
      - time: 0.96666664
        value: {x: 0, y: 0, z: -9.4914}
        inSlope: {x: 0, y: 0, z: -14.2030735}
        outSlope: {x: 0, y: 0, z: -14.2030735}
        tangentMode: 0
      - time: 1.4333333
        value: {x: -0, y: 0, z: 0}
        inSlope: {x: -0, y: 0, z: 20.338715}
        outSlope: {x: -0, y: 0, z: 20.338715}
        tangentMode: 0
      m_PreInfinity: 2
      m_PostInfinity: 2
      m_RotationOrder: 4
    path: "\u0432\u043E\u0434\u043E\u0440\u043E\u0441\u043B\u0438_11"
  - curve:
      serializedVersion: 2
      m_Curve:
      - time: 0
        value: {x: -0, y: 0, z: 0}
        inSlope: {x: 0, y: 0, z: -0.96459997}
        outSlope: {x: 0, y: 0, z: -0.96459997}
        tangentMode: 0
      - time: 0.5
        value: {x: -0, y: 0, z: -0.48229998}
        inSlope: {x: 0, y: 0, z: -13.225872}
        outSlope: {x: 0, y: 0, z: -13.225872}
        tangentMode: 0
      - time: 0.96666664
        value: {x: 0, y: 0, z: -12.3763}
        inSlope: {x: 0, y: 0, z: 0.5167494}
        outSlope: {x: 0, y: 0, z: 0.5167494}
        tangentMode: 0
      - time: 1.4333333
        value: {x: -0, y: 0, z: 0}
        inSlope: {x: -0, y: 0, z: 26.520643}
        outSlope: {x: -0, y: 0, z: 26.520643}
        tangentMode: 0
      m_PreInfinity: 2
      m_PostInfinity: 2
      m_RotationOrder: 4
    path: "\u0432\u043E\u0434\u043E\u0440\u043E\u0441\u043B\u0438_10"
  - curve:
      serializedVersion: 2
      m_Curve:
      - time: 0
        value: {x: -0, y: 0, z: 0}
        inSlope: {x: 0, y: 0, z: 19.9488}
        outSlope: {x: 0, y: 0, z: 19.9488}
        tangentMode: 0
      - time: 0.5
        value: {x: 0, y: 0, z: 9.9744}
        inSlope: {x: 0, y: 0, z: -18.961885}
        outSlope: {x: 0, y: 0, z: -18.961885}
        tangentMode: 0
      - time: 0.96666664
        value: {x: 0, y: 0, z: -17.032799}
        inSlope: {x: 0, y: 0, z: -10.686857}
        outSlope: {x: 0, y: 0, z: -10.686857}
        tangentMode: 0
      - time: 1.4333333
        value: {x: -0, y: 0, z: 0}
        inSlope: {x: -0, y: 0, z: 36.498856}
        outSlope: {x: -0, y: 0, z: 36.498856}
        tangentMode: 0
      m_PreInfinity: 2
      m_PostInfinity: 2
      m_RotationOrder: 4
    path: "\u0432\u043E\u0434\u043E\u0440\u043E\u0441\u043B\u0438_9"
  m_PositionCurves:
  - curve:
      serializedVersion: 2
      m_Curve:
      - time: 0
        value: {x: -0.437, y: 0.734, z: 0}
        inSlope: {x: -0.18599993, y: 0.11199999, z: 0}
        outSlope: {x: -0.18599993, y: 0.11199999, z: 0}
        tangentMode: 0
      - time: 0.5
        value: {x: -0.53, y: 0.79, z: 0}
        inSlope: {x: 0.19628575, y: 0.33457136, z: 0}
        outSlope: {x: 0.19628575, y: 0.33457136, z: 0}
        tangentMode: 0
      - time: 0.96666664
        value: {x: -0.26, y: 1.05, z: 0}
        inSlope: {x: 0.09964283, y: -0.060000002, z: 0}
        outSlope: {x: 0.09964283, y: -0.060000002, z: 0}
        tangentMode: 0
      - time: 1.4333333
        value: {x: -0.437, y: 0.734, z: 0}
        inSlope: {x: -0.37928578, y: -0.67714274, z: 0}
        outSlope: {x: -0.37928578, y: -0.67714274, z: 0}
        tangentMode: 0
      m_PreInfinity: 2
      m_PostInfinity: 2
      m_RotationOrder: 4
    path: "\u0432\u043E\u0434\u043E\u0440\u043E\u0441\u043B\u0438_7"
  - curve:
      serializedVersion: 2
      m_Curve:
      - time: 0
        value: {x: 0.248, y: 1.171, z: 0}
        inSlope: {x: 0.22400004, y: -0.04200077, z: 0}
        outSlope: {x: 0.22400004, y: -0.04200077, z: 0}
        tangentMode: 0
      - time: 0.5
        value: {x: 0.36, y: 1.1499996, z: 0}
        inSlope: {x: -0.091571435, y: -0.05314283, z: 0}
        outSlope: {x: -0.091571435, y: -0.05314283, z: 0}
        tangentMode: 0
      - time: 0.96666664
        value: {x: 0.17, y: 1.12, z: 0}
        inSlope: {x: -0.12000003, y: 0.022500414, z: 0}
        outSlope: {x: -0.12000003, y: 0.022500414, z: 0}
        tangentMode: 0
      - time: 1.4333333
        value: {x: 0.248, y: 1.171, z: 0}
        inSlope: {x: 0.16714285, y: 0.10928572, z: 0}
        outSlope: {x: 0.16714285, y: 0.10928572, z: 0}
        tangentMode: 0
      m_PreInfinity: 2
      m_PostInfinity: 2
      m_RotationOrder: 4
    path: "\u0432\u043E\u0434\u043E\u0440\u043E\u0441\u043B\u0438_0"
  - curve:
      serializedVersion: 2
      m_Curve:
      - time: 0
        value: {x: 0.015, y: 3.158, z: 0}
        inSlope: {x: 0.13, y: 0.004000187, z: 0}
        outSlope: {x: 0.13, y: 0.004000187, z: 0}
        tangentMode: 0
      - time: 0.5
        value: {x: 0.08, y: 3.16, z: 0}
        inSlope: {x: 0.3114286, y: 0.034142923, z: 0}
        outSlope: {x: 0.3114286, y: 0.034142923, z: 0}
        tangentMode: 0
      - time: 0.96666664
        value: {x: 0.31, y: 3.19, z: 0}
        inSlope: {x: -0.06964286, y: -0.0021429583, z: 0}
        outSlope: {x: -0.06964286, y: -0.0021429583, z: 0}
        tangentMode: 0
      - time: 1.4333333
        value: {x: 0.015, y: 3.158, z: 0}
        inSlope: {x: -0.6321429, y: -0.068571575, z: 0}
        outSlope: {x: -0.6321429, y: -0.068571575, z: 0}
        tangentMode: 0
      m_PreInfinity: 2
      m_PostInfinity: 2
      m_RotationOrder: 4
    path: "\u0432\u043E\u0434\u043E\u0440\u043E\u0441\u043B\u0438_11"
  - curve:
      serializedVersion: 2
      m_Curve:
      - time: 0
        value: {x: 0.404, y: 2.715, z: 0}
        inSlope: {x: 0.43199998, y: 0.17000008, z: 0}
        outSlope: {x: 0.43199998, y: 0.17000008, z: 0}
        tangentMode: 0
      - time: 0.5
        value: {x: 0.62, y: 2.8, z: 0}
        inSlope: {x: 0.15171427, y: -0.19357139, z: 0}
        outSlope: {x: 0.15171427, y: -0.19357139, z: 0}
        tangentMode: 0
      - time: 0.96666664
        value: {x: 0.56, y: 2.54, z: 0}
        inSlope: {x: -0.23142856, y: -0.09107147, z: 0}
        outSlope: {x: -0.23142856, y: -0.09107147, z: 0}
        tangentMode: 0
      - time: 1.4333333
        value: {x: 0.404, y: 2.715, z: 0}
        inSlope: {x: -0.3342857, y: 0.3749999, z: 0}
        outSlope: {x: -0.3342857, y: 0.3749999, z: 0}
        tangentMode: 0
      m_PreInfinity: 2
      m_PostInfinity: 2
      m_RotationOrder: 4
    path: "\u0432\u043E\u0434\u043E\u0440\u043E\u0441\u043B\u0438_10"
  - curve:
      serializedVersion: 2
      m_Curve:
      - time: 0
        value: {x: -0.271, y: 2.639, z: 0}
        inSlope: {x: 0.20199999, y: 0.18200016, z: 0}
        outSlope: {x: 0.20199999, y: 0.18200016, z: 0}
        tangentMode: 0
      - time: 0.5
        value: {x: -0.17, y: 2.73, z: 0}
        inSlope: {x: 0.29385716, y: 0.39100006, z: 0}
        outSlope: {x: 0.29385716, y: 0.39100006, z: 0}
        tangentMode: 0
      - time: 0.96666664
        value: {x: 0.01, y: 3.01, z: 0}
        inSlope: {x: -0.108214274, y: -0.097500086, z: 0}
        outSlope: {x: -0.108214274, y: -0.097500086, z: 0}
        tangentMode: 0
      - time: 1.4333333
        value: {x: -0.271, y: 2.639, z: 0}
        inSlope: {x: -0.6021429, y: -0.79500014, z: 0}
        outSlope: {x: -0.6021429, y: -0.79500014, z: 0}
        tangentMode: 0
      m_PreInfinity: 2
      m_PostInfinity: 2
      m_RotationOrder: 4
    path: "\u0432\u043E\u0434\u043E\u0440\u043E\u0441\u043B\u0438_9"
  - curve:
      serializedVersion: 2
      m_Curve:
      - time: 0
        value: {x: -0.278, y: 1.28, z: 0}
        inSlope: {x: 0.136, y: -0.099999905, z: 0}
        outSlope: {x: 0.136, y: -0.099999905, z: 0}
        tangentMode: 0
      - time: 0.5
        value: {x: -0.21, y: 1.23, z: 0}
        inSlope: {x: 0.20728572, y: 0.15357143, z: 0}
        outSlope: {x: 0.20728572, y: 0.15357143, z: 0}
        tangentMode: 0
      - time: 0.96666664
        value: {x: -0.08, y: 1.42, z: 0}
        inSlope: {x: -0.07285716, y: 0.053571388, z: 0}
        outSlope: {x: -0.07285716, y: 0.053571388, z: 0}
        tangentMode: 0
      - time: 1.4333333
        value: {x: -0.278, y: 1.28, z: 0}
        inSlope: {x: -0.42428574, y: -0.29999998, z: 0}
        outSlope: {x: -0.42428574, y: -0.29999998, z: 0}
        tangentMode: 0
      m_PreInfinity: 2
      m_PostInfinity: 2
      m_RotationOrder: 4
    path: "\u0432\u043E\u0434\u043E\u0440\u043E\u0441\u043B\u0438_8"
  m_ScaleCurves:
  - curve:
      serializedVersion: 2
      m_Curve:
      - time: 0
        value: {x: 1, y: 1, z: 1}
        inSlope: {x: 0, y: -0.03646612, z: 0}
        outSlope: {x: 0, y: -0.03646612, z: 0}
        tangentMode: 0
      - time: 0.5
        value: {x: 1, y: 0.98176694, z: 1}
        inSlope: {x: 0, y: -0.01823306, z: 0}
        outSlope: {x: 0, y: -0.01823306, z: 0}
        tangentMode: 0
      - time: 0.96666664
        value: {x: 1, y: 0.98176694, z: 1}
        inSlope: {x: 0, y: 0.019535424, z: 0}
        outSlope: {x: 0, y: 0.019535424, z: 0}
        tangentMode: 0
      - time: 1.4333333
        value: {x: 1, y: 1, z: 1}
        inSlope: {x: 0, y: 0.03907085, z: 0}
        outSlope: {x: 0, y: 0.03907085, z: 0}
        tangentMode: 0
      m_PreInfinity: 2
      m_PostInfinity: 2
      m_RotationOrder: 4
    path: "\u0432\u043E\u0434\u043E\u0440\u043E\u0441\u043B\u0438_7"
  - curve:
      serializedVersion: 2
      m_Curve:
      - time: 0
        value: {x: 1, y: 1, z: 1}
        inSlope: {x: 0, y: -0.03646612, z: 0}
        outSlope: {x: 0, y: -0.03646612, z: 0}
        tangentMode: 0
      - time: 0.5
        value: {x: 1, y: 0.98176694, z: 1}
        inSlope: {x: 0, y: -0.01823306, z: 0}
        outSlope: {x: 0, y: -0.01823306, z: 0}
        tangentMode: 0
      - time: 0.96666664
        value: {x: 1, y: 0.98176694, z: 1}
        inSlope: {x: 0, y: 0.019535424, z: 0}
        outSlope: {x: 0, y: 0.019535424, z: 0}
        tangentMode: 0
      - time: 1.4333333
        value: {x: 1, y: 1, z: 1}
        inSlope: {x: 0, y: 0.03907085, z: 0}
        outSlope: {x: 0, y: 0.03907085, z: 0}
        tangentMode: 0
      m_PreInfinity: 2
      m_PostInfinity: 2
      m_RotationOrder: 4
    path: "\u0432\u043E\u0434\u043E\u0440\u043E\u0441\u043B\u0438_0"
  - curve:
      serializedVersion: 2
      m_Curve:
      - time: 0
        value: {x: 1, y: 1, z: 1}
        inSlope: {x: 0, y: -0.03646612, z: 0}
        outSlope: {x: 0, y: -0.03646612, z: 0}
        tangentMode: 0
      - time: 0.5
        value: {x: 1, y: 0.98176694, z: 1}
        inSlope: {x: 0, y: -0.01823306, z: 0}
        outSlope: {x: 0, y: -0.01823306, z: 0}
        tangentMode: 0
      - time: 0.96666664
        value: {x: 1, y: 0.98176694, z: 1}
        inSlope: {x: 0, y: 0.019535424, z: 0}
        outSlope: {x: 0, y: 0.019535424, z: 0}
        tangentMode: 0
      - time: 1.4333333
        value: {x: 1, y: 1, z: 1}
        inSlope: {x: 0, y: 0.03907085, z: 0}
        outSlope: {x: 0, y: 0.03907085, z: 0}
        tangentMode: 0
      m_PreInfinity: 2
      m_PostInfinity: 2
      m_RotationOrder: 4
    path: "\u0432\u043E\u0434\u043E\u0440\u043E\u0441\u043B\u0438_8"
  - curve:
      serializedVersion: 2
      m_Curve:
      - time: 0
        value: {x: 1, y: 1, z: 1}
        inSlope: {x: 0, y: -0.03646612, z: 0}
        outSlope: {x: 0, y: -0.03646612, z: 0}
        tangentMode: 0
      - time: 0.5
        value: {x: 1, y: 0.98176694, z: 1}
        inSlope: {x: 0, y: -0.01823306, z: 0}
        outSlope: {x: 0, y: -0.01823306, z: 0}
        tangentMode: 0
      - time: 0.96666664
        value: {x: 1, y: 0.98176694, z: 1}
        inSlope: {x: 0, y: 0.019535424, z: 0}
        outSlope: {x: 0, y: 0.019535424, z: 0}
        tangentMode: 0
      - time: 1.4333333
        value: {x: 1, y: 1, z: 1}
        inSlope: {x: 0, y: 0.03907085, z: 0}
        outSlope: {x: 0, y: 0.03907085, z: 0}
        tangentMode: 0
      m_PreInfinity: 2
      m_PostInfinity: 2
      m_RotationOrder: 4
    path: "\u0432\u043E\u0434\u043E\u0440\u043E\u0441\u043B\u0438_11"
  - curve:
      serializedVersion: 2
      m_Curve:
      - time: 0
        value: {x: 1, y: 1, z: 1}
        inSlope: {x: 0, y: 0.049907207, z: 0}
        outSlope: {x: 0, y: 0.049907207, z: 0}
        tangentMode: 0
      - time: 0.5
        value: {x: 1, y: 1.0249536, z: 1}
        inSlope: {x: 0, y: 0.024953604, z: 0}
        outSlope: {x: 0, y: 0.024953604, z: 0}
        tangentMode: 0
      - time: 0.96666664
        value: {x: 1, y: 1.0249536, z: 1}
        inSlope: {x: 0, y: -0.026736006, z: 0}
        outSlope: {x: 0, y: -0.026736006, z: 0}
        tangentMode: 0
      - time: 1.4333333
        value: {x: 1, y: 1, z: 1}
        inSlope: {x: 0, y: -0.053472012, z: 0}
        outSlope: {x: 0, y: -0.053472012, z: 0}
        tangentMode: 0
      m_PreInfinity: 2
      m_PostInfinity: 2
      m_RotationOrder: 4
    path: "\u0432\u043E\u0434\u043E\u0440\u043E\u0441\u043B\u0438_10"
  - curve:
      serializedVersion: 2
      m_Curve:
      - time: 0
        value: {x: 1, y: 1, z: 1}
        inSlope: {x: 0, y: 0.14445257, z: 0}
        outSlope: {x: 0, y: 0.14445257, z: 0}
        tangentMode: 0
      - time: 0.5
        value: {x: 1, y: 1.0722263, z: 1}
        inSlope: {x: 0, y: 0.072226286, z: 0}
        outSlope: {x: 0, y: 0.072226286, z: 0}
        tangentMode: 0
      - time: 0.96666664
        value: {x: 1, y: 1.0722263, z: 1}
        inSlope: {x: 0, y: -0.077385314, z: 0}
        outSlope: {x: 0, y: -0.077385314, z: 0}
        tangentMode: 0
      - time: 1.4333333
        value: {x: 1, y: 1, z: 1}
        inSlope: {x: 0, y: -0.15477063, z: 0}
        outSlope: {x: 0, y: -0.15477063, z: 0}
        tangentMode: 0
      m_PreInfinity: 2
      m_PostInfinity: 2
      m_RotationOrder: 4
    path: "\u0432\u043E\u0434\u043E\u0440\u043E\u0441\u043B\u0438_9"
  m_FloatCurves: []
  m_PPtrCurves: []
  m_SampleRate: 30
  m_WrapMode: 0
  m_Bounds:
    m_Center: {x: 0, y: 0, z: 0}
    m_Extent: {x: 0, y: 0, z: 0}
  m_ClipBindingConstant:
    genericBindings:
    - path: 1629780050
      attribute: 1
      script: {fileID: 0}
      classID: 4
      customType: 0
      isPPtrCurve: 0
    - path: 4282445297
      attribute: 1
      script: {fileID: 0}
      classID: 4
      customType: 0
      isPPtrCurve: 0
    - path: 1350720657
      attribute: 1
      script: {fileID: 0}
      classID: 4
      customType: 0
      isPPtrCurve: 0
    - path: 663055367
      attribute: 1
      script: {fileID: 0}
      classID: 4
      customType: 0
      isPPtrCurve: 0
    - path: 2258392405
      attribute: 1
      script: {fileID: 0}
      classID: 4
      customType: 0
      isPPtrCurve: 0
    - path: 4053493187
      attribute: 1
      script: {fileID: 0}
      classID: 4
      customType: 0
      isPPtrCurve: 0
    - path: 1629780050
      attribute: 4
      script: {fileID: 0}
      classID: 4
      customType: 14
      isPPtrCurve: 0
    - path: 4282445297
      attribute: 4
      script: {fileID: 0}
      classID: 4
      customType: 14
      isPPtrCurve: 0
    - path: 4053493187
      attribute: 4
      script: {fileID: 0}
      classID: 4
      customType: 14
      isPPtrCurve: 0
    - path: 1350720657
      attribute: 4
      script: {fileID: 0}
      classID: 4
      customType: 14
      isPPtrCurve: 0
    - path: 663055367
      attribute: 4
      script: {fileID: 0}
      classID: 4
      customType: 14
      isPPtrCurve: 0
    - path: 2258392405
      attribute: 4
      script: {fileID: 0}
      classID: 4
      customType: 14
      isPPtrCurve: 0
    - path: 1629780050
      attribute: 3
      script: {fileID: 0}
      classID: 4
      customType: 0
      isPPtrCurve: 0
    - path: 4282445297
      attribute: 3
      script: {fileID: 0}
      classID: 4
      customType: 0
      isPPtrCurve: 0
    - path: 4053493187
      attribute: 3
      script: {fileID: 0}
      classID: 4
      customType: 0
      isPPtrCurve: 0
    - path: 1350720657
      attribute: 3
      script: {fileID: 0}
      classID: 4
      customType: 0
      isPPtrCurve: 0
    - path: 663055367
      attribute: 3
      script: {fileID: 0}
      classID: 4
      customType: 0
      isPPtrCurve: 0
    - path: 2258392405
      attribute: 3
      script: {fileID: 0}
      classID: 4
      customType: 0
      isPPtrCurve: 0
    pptrCurveMapping: []
  m_AnimationClipSettings:
    serializedVersion: 2
    m_AdditiveReferencePoseClip: {fileID: 0}
    m_AdditiveReferencePoseTime: 0
    m_StartTime: 0
    m_StopTime: 1.4333333
    m_OrientationOffsetY: 0
    m_Level: 0
    m_CycleOffset: 0
    m_HasAdditiveReferencePose: 0
    m_LoopTime: 1
    m_LoopBlend: 0
    m_LoopBlendOrientation: 0
    m_LoopBlendPositionY: 0
    m_LoopBlendPositionXZ: 0
    m_KeepOriginalOrientation: 0
    m_KeepOriginalPositionY: 1
    m_KeepOriginalPositionXZ: 0
    m_HeightFromFeet: 0
    m_Mirror: 0
  m_EditorCurves:
  - curve:
      serializedVersion: 2
      m_Curve:
      - time: 0
        value: -0.437
        inSlope: -0.18599993
        outSlope: -0.18599993
        tangentMode: 10
      - time: 0.5
        value: -0.53
        inSlope: 0.19628575
        outSlope: 0.19628575
        tangentMode: 10
      - time: 0.96666664
        value: -0.26
        inSlope: 0.09964283
        outSlope: 0.09964283
        tangentMode: 10
      - time: 1.4333333
        value: -0.437
        inSlope: -0.37928578
        outSlope: -0.37928578
        tangentMode: 10
      m_PreInfinity: 2
      m_PostInfinity: 2
      m_RotationOrder: 4
    attribute: m_LocalPosition.x
    path: "\u0432\u043E\u0434\u043E\u0440\u043E\u0441\u043B\u0438_7"
    classID: 4
    script: {fileID: 0}
  - curve:
      serializedVersion: 2
      m_Curve:
      - time: 0
        value: 0.734
        inSlope: 0.11199999
        outSlope: 0.11199999
        tangentMode: 10
      - time: 0.5
        value: 0.79
        inSlope: 0.33457136
        outSlope: 0.33457136
        tangentMode: 10
      - time: 0.96666664
        value: 1.05
        inSlope: -0.060000002
        outSlope: -0.060000002
        tangentMode: 10
      - time: 1.4333333
        value: 0.734
        inSlope: -0.67714274
        outSlope: -0.67714274
        tangentMode: 10
      m_PreInfinity: 2
      m_PostInfinity: 2
      m_RotationOrder: 4
    attribute: m_LocalPosition.y
    path: "\u0432\u043E\u0434\u043E\u0440\u043E\u0441\u043B\u0438_7"
    classID: 4
    script: {fileID: 0}
  - curve:
      serializedVersion: 2
      m_Curve:
      - time: 0
        value: 0
        inSlope: 0
        outSlope: 0
        tangentMode: 10
      - time: 0.5
        value: 0
        inSlope: 0
        outSlope: 0
        tangentMode: 10
      - time: 0.96666664
        value: 0
        inSlope: 0
        outSlope: 0
        tangentMode: 10
      - time: 1.4333333
        value: 0
        inSlope: 0
        outSlope: 0
        tangentMode: 10
      m_PreInfinity: 2
      m_PostInfinity: 2
      m_RotationOrder: 4
    attribute: m_LocalPosition.z
    path: "\u0432\u043E\u0434\u043E\u0440\u043E\u0441\u043B\u0438_7"
    classID: 4
    script: {fileID: 0}
  - curve:
      serializedVersion: 2
      m_Curve:
      - time: 0
        value: 1
        inSlope: 0
        outSlope: 0
        tangentMode: 10
      - time: 0.5
        value: 1
        inSlope: 0
        outSlope: 0
        tangentMode: 10
      - time: 0.96666664
        value: 1
        inSlope: 0
        outSlope: 0
        tangentMode: 10
      - time: 1.4333333
        value: 1
        inSlope: 0
        outSlope: 0
        tangentMode: 10
      m_PreInfinity: 2
      m_PostInfinity: 2
      m_RotationOrder: 4
    attribute: m_LocalScale.x
    path: "\u0432\u043E\u0434\u043E\u0440\u043E\u0441\u043B\u0438_7"
    classID: 4
    script: {fileID: 0}
  - curve:
      serializedVersion: 2
      m_Curve:
      - time: 0
        value: 1
        inSlope: -0.03646612
        outSlope: -0.03646612
        tangentMode: 10
      - time: 0.5
        value: 0.98176694
        inSlope: -0.01823306
        outSlope: -0.01823306
        tangentMode: 10
      - time: 0.96666664
        value: 0.98176694
        inSlope: 0.019535424
        outSlope: 0.019535424
        tangentMode: 10
      - time: 1.4333333
        value: 1
        inSlope: 0.03907085
        outSlope: 0.03907085
        tangentMode: 10
      m_PreInfinity: 2
      m_PostInfinity: 2
      m_RotationOrder: 4
    attribute: m_LocalScale.y
    path: "\u0432\u043E\u0434\u043E\u0440\u043E\u0441\u043B\u0438_7"
    classID: 4
    script: {fileID: 0}
  - curve:
      serializedVersion: 2
      m_Curve:
      - time: 0
        value: 1
        inSlope: 0
        outSlope: 0
        tangentMode: 10
      - time: 0.5
        value: 1
        inSlope: 0
        outSlope: 0
        tangentMode: 10
      - time: 0.96666664
        value: 1
        inSlope: 0
        outSlope: 0
        tangentMode: 10
      - time: 1.4333333
        value: 1
        inSlope: 0
        outSlope: 0
        tangentMode: 10
      m_PreInfinity: 2
      m_PostInfinity: 2
      m_RotationOrder: 4
    attribute: m_LocalScale.z
    path: "\u0432\u043E\u0434\u043E\u0440\u043E\u0441\u043B\u0438_7"
    classID: 4
    script: {fileID: 0}
  - curve:
      serializedVersion: 2
      m_Curve:
      - time: 0
        value: 0.248
        inSlope: 0.22400004
        outSlope: 0.22400004
        tangentMode: 10
      - time: 0.5
        value: 0.36
        inSlope: -0.091571435
        outSlope: -0.091571435
        tangentMode: 10
      - time: 0.96666664
        value: 0.17
        inSlope: -0.12000003
        outSlope: -0.12000003
        tangentMode: 10
      - time: 1.4333333
        value: 0.248
        inSlope: 0.16714285
        outSlope: 0.16714285
        tangentMode: 10
      m_PreInfinity: 2
      m_PostInfinity: 2
      m_RotationOrder: 4
    attribute: m_LocalPosition.x
    path: "\u0432\u043E\u0434\u043E\u0440\u043E\u0441\u043B\u0438_0"
    classID: 4
    script: {fileID: 0}
  - curve:
      serializedVersion: 2
      m_Curve:
      - time: 0
        value: 1.171
        inSlope: -0.04200077
        outSlope: -0.04200077
        tangentMode: 10
      - time: 0.5
        value: 1.1499996
        inSlope: -0.05314283
        outSlope: -0.05314283
        tangentMode: 10
      - time: 0.96666664
        value: 1.12
        inSlope: 0.022500414
        outSlope: 0.022500414
        tangentMode: 10
      - time: 1.4333333
        value: 1.171
        inSlope: 0.10928572
        outSlope: 0.10928572
        tangentMode: 10
      m_PreInfinity: 2
      m_PostInfinity: 2
      m_RotationOrder: 4
    attribute: m_LocalPosition.y
    path: "\u0432\u043E\u0434\u043E\u0440\u043E\u0441\u043B\u0438_0"
    classID: 4
    script: {fileID: 0}
  - curve:
      serializedVersion: 2
      m_Curve:
      - time: 0
        value: 0
        inSlope: 0
        outSlope: 0
        tangentMode: 10
      - time: 0.5
        value: 0
        inSlope: 0
        outSlope: 0
        tangentMode: 10
      - time: 0.96666664
        value: 0
        inSlope: 0
        outSlope: 0
        tangentMode: 10
      - time: 1.4333333
        value: 0
        inSlope: 0
        outSlope: 0
        tangentMode: 10
      m_PreInfinity: 2
      m_PostInfinity: 2
      m_RotationOrder: 4
    attribute: m_LocalPosition.z
    path: "\u0432\u043E\u0434\u043E\u0440\u043E\u0441\u043B\u0438_0"
    classID: 4
    script: {fileID: 0}
  - curve:
      serializedVersion: 2
      m_Curve:
      - time: 0
        value: 1
        inSlope: 0
        outSlope: 0
        tangentMode: 10
      - time: 0.5
        value: 1
        inSlope: 0
        outSlope: 0
        tangentMode: 10
      - time: 0.96666664
        value: 1
        inSlope: 0
        outSlope: 0
        tangentMode: 10
      - time: 1.4333333
        value: 1
        inSlope: 0
        outSlope: 0
        tangentMode: 10
      m_PreInfinity: 2
      m_PostInfinity: 2
      m_RotationOrder: 4
    attribute: m_LocalScale.x
    path: "\u0432\u043E\u0434\u043E\u0440\u043E\u0441\u043B\u0438_0"
    classID: 4
    script: {fileID: 0}
  - curve:
      serializedVersion: 2
      m_Curve:
      - time: 0
        value: 1
        inSlope: -0.03646612
        outSlope: -0.03646612
        tangentMode: 10
      - time: 0.5
        value: 0.98176694
        inSlope: -0.01823306
        outSlope: -0.01823306
        tangentMode: 10
      - time: 0.96666664
        value: 0.98176694
        inSlope: 0.019535424
        outSlope: 0.019535424
        tangentMode: 10
      - time: 1.4333333
        value: 1
        inSlope: 0.03907085
        outSlope: 0.03907085
        tangentMode: 10
      m_PreInfinity: 2
      m_PostInfinity: 2
      m_RotationOrder: 4
    attribute: m_LocalScale.y
    path: "\u0432\u043E\u0434\u043E\u0440\u043E\u0441\u043B\u0438_0"
    classID: 4
    script: {fileID: 0}
  - curve:
      serializedVersion: 2
      m_Curve:
      - time: 0
        value: 1
        inSlope: 0
        outSlope: 0
        tangentMode: 10
      - time: 0.5
        value: 1
        inSlope: 0
        outSlope: 0
        tangentMode: 10
      - time: 0.96666664
        value: 1
        inSlope: 0
        outSlope: 0
        tangentMode: 10
      - time: 1.4333333
        value: 1
        inSlope: 0
        outSlope: 0
        tangentMode: 10
      m_PreInfinity: 2
      m_PostInfinity: 2
      m_RotationOrder: 4
    attribute: m_LocalScale.z
    path: "\u0432\u043E\u0434\u043E\u0440\u043E\u0441\u043B\u0438_0"
    classID: 4
    script: {fileID: 0}
  - curve:
      serializedVersion: 2
      m_Curve:
      - time: 0
        value: 1
        inSlope: 0
        outSlope: 0
        tangentMode: 10
      - time: 0.5
        value: 1
        inSlope: 0
        outSlope: 0
        tangentMode: 10
      - time: 0.96666664
        value: 1
        inSlope: 0
        outSlope: 0
        tangentMode: 10
      - time: 1.4333333
        value: 1
        inSlope: 0
        outSlope: 0
        tangentMode: 10
      m_PreInfinity: 2
      m_PostInfinity: 2
      m_RotationOrder: 4
    attribute: m_LocalScale.x
    path: "\u0432\u043E\u0434\u043E\u0440\u043E\u0441\u043B\u0438_8"
    classID: 4
    script: {fileID: 0}
  - curve:
      serializedVersion: 2
      m_Curve:
      - time: 0
        value: 1
        inSlope: -0.03646612
        outSlope: -0.03646612
        tangentMode: 10
      - time: 0.5
        value: 0.98176694
        inSlope: -0.01823306
        outSlope: -0.01823306
        tangentMode: 10
      - time: 0.96666664
        value: 0.98176694
        inSlope: 0.019535424
        outSlope: 0.019535424
        tangentMode: 10
      - time: 1.4333333
        value: 1
        inSlope: 0.03907085
        outSlope: 0.03907085
        tangentMode: 10
      m_PreInfinity: 2
      m_PostInfinity: 2
      m_RotationOrder: 4
    attribute: m_LocalScale.y
    path: "\u0432\u043E\u0434\u043E\u0440\u043E\u0441\u043B\u0438_8"
    classID: 4
    script: {fileID: 0}
  - curve:
      serializedVersion: 2
      m_Curve:
      - time: 0
        value: 1
        inSlope: 0
        outSlope: 0
        tangentMode: 10
      - time: 0.5
        value: 1
        inSlope: 0
        outSlope: 0
        tangentMode: 10
      - time: 0.96666664
        value: 1
        inSlope: 0
        outSlope: 0
        tangentMode: 10
      - time: 1.4333333
        value: 1
        inSlope: 0
        outSlope: 0
        tangentMode: 10
      m_PreInfinity: 2
      m_PostInfinity: 2
      m_RotationOrder: 4
    attribute: m_LocalScale.z
    path: "\u0432\u043E\u0434\u043E\u0440\u043E\u0441\u043B\u0438_8"
    classID: 4
    script: {fileID: 0}
  - curve:
      serializedVersion: 2
      m_Curve:
      - time: 0
        value: 0.015
        inSlope: 0.13
        outSlope: 0.13
        tangentMode: 10
      - time: 0.5
        value: 0.08
        inSlope: 0.3114286
        outSlope: 0.3114286
        tangentMode: 10
      - time: 0.96666664
        value: 0.31
        inSlope: -0.06964286
        outSlope: -0.06964286
        tangentMode: 10
      - time: 1.4333333
        value: 0.015
        inSlope: -0.6321429
        outSlope: -0.6321429
        tangentMode: 10
      m_PreInfinity: 2
      m_PostInfinity: 2
      m_RotationOrder: 4
    attribute: m_LocalPosition.x
    path: "\u0432\u043E\u0434\u043E\u0440\u043E\u0441\u043B\u0438_11"
    classID: 4
    script: {fileID: 0}
  - curve:
      serializedVersion: 2
      m_Curve:
      - time: 0
        value: 3.158
        inSlope: 0.004000187
        outSlope: 0.004000187
        tangentMode: 10
      - time: 0.5
        value: 3.16
        inSlope: 0.034142923
        outSlope: 0.034142923
        tangentMode: 10
      - time: 0.96666664
        value: 3.19
        inSlope: -0.0021429583
        outSlope: -0.0021429583
        tangentMode: 10
      - time: 1.4333333
        value: 3.158
        inSlope: -0.068571575
        outSlope: -0.068571575
        tangentMode: 10
      m_PreInfinity: 2
      m_PostInfinity: 2
      m_RotationOrder: 4
    attribute: m_LocalPosition.y
    path: "\u0432\u043E\u0434\u043E\u0440\u043E\u0441\u043B\u0438_11"
    classID: 4
    script: {fileID: 0}
  - curve:
      serializedVersion: 2
      m_Curve:
      - time: 0
        value: 0
        inSlope: 0
        outSlope: 0
        tangentMode: 10
      - time: 0.5
        value: 0
        inSlope: 0
        outSlope: 0
        tangentMode: 10
      - time: 0.96666664
        value: 0
        inSlope: 0
        outSlope: 0
        tangentMode: 10
      - time: 1.4333333
        value: 0
        inSlope: 0
        outSlope: 0
        tangentMode: 10
      m_PreInfinity: 2
      m_PostInfinity: 2
      m_RotationOrder: 4
    attribute: m_LocalPosition.z
    path: "\u0432\u043E\u0434\u043E\u0440\u043E\u0441\u043B\u0438_11"
    classID: 4
    script: {fileID: 0}
  - curve:
      serializedVersion: 2
      m_Curve:
      - time: 0
        value: 1
        inSlope: 0
        outSlope: 0
        tangentMode: 10
      - time: 0.5
        value: 1
        inSlope: 0
        outSlope: 0
        tangentMode: 10
      - time: 0.96666664
        value: 1
        inSlope: 0
        outSlope: 0
        tangentMode: 10
      - time: 1.4333333
        value: 1
        inSlope: 0
        outSlope: 0
        tangentMode: 10
      m_PreInfinity: 2
      m_PostInfinity: 2
      m_RotationOrder: 4
    attribute: m_LocalScale.x
    path: "\u0432\u043E\u0434\u043E\u0440\u043E\u0441\u043B\u0438_11"
    classID: 4
    script: {fileID: 0}
  - curve:
      serializedVersion: 2
      m_Curve:
      - time: 0
        value: 1
        inSlope: -0.03646612
        outSlope: -0.03646612
        tangentMode: 10
      - time: 0.5
        value: 0.98176694
        inSlope: -0.01823306
        outSlope: -0.01823306
        tangentMode: 10
      - time: 0.96666664
        value: 0.98176694
        inSlope: 0.019535424
        outSlope: 0.019535424
        tangentMode: 10
      - time: 1.4333333
        value: 1
        inSlope: 0.03907085
        outSlope: 0.03907085
        tangentMode: 10
      m_PreInfinity: 2
      m_PostInfinity: 2
      m_RotationOrder: 4
    attribute: m_LocalScale.y
    path: "\u0432\u043E\u0434\u043E\u0440\u043E\u0441\u043B\u0438_11"
    classID: 4
    script: {fileID: 0}
  - curve:
      serializedVersion: 2
      m_Curve:
      - time: 0
        value: 1
        inSlope: 0
        outSlope: 0
        tangentMode: 10
      - time: 0.5
        value: 1
        inSlope: 0
        outSlope: 0
        tangentMode: 10
      - time: 0.96666664
        value: 1
        inSlope: 0
        outSlope: 0
        tangentMode: 10
      - time: 1.4333333
        value: 1
        inSlope: 0
        outSlope: 0
        tangentMode: 10
      m_PreInfinity: 2
      m_PostInfinity: 2
      m_RotationOrder: 4
    attribute: m_LocalScale.z
    path: "\u0432\u043E\u0434\u043E\u0440\u043E\u0441\u043B\u0438_11"
    classID: 4
    script: {fileID: 0}
  - curve:
      serializedVersion: 2
      m_Curve:
      - time: 0
        value: 0.404
        inSlope: 0.43199998
        outSlope: 0.43199998
        tangentMode: 10
      - time: 0.5
        value: 0.62
        inSlope: 0.15171427
        outSlope: 0.15171427
        tangentMode: 10
      - time: 0.96666664
        value: 0.56
        inSlope: -0.23142856
        outSlope: -0.23142856
        tangentMode: 10
      - time: 1.4333333
        value: 0.404
        inSlope: -0.3342857
        outSlope: -0.3342857
        tangentMode: 10
      m_PreInfinity: 2
      m_PostInfinity: 2
      m_RotationOrder: 4
    attribute: m_LocalPosition.x
    path: "\u0432\u043E\u0434\u043E\u0440\u043E\u0441\u043B\u0438_10"
    classID: 4
    script: {fileID: 0}
  - curve:
      serializedVersion: 2
      m_Curve:
      - time: 0
        value: 2.715
        inSlope: 0.17000008
        outSlope: 0.17000008
        tangentMode: 10
      - time: 0.5
        value: 2.8
        inSlope: -0.19357139
        outSlope: -0.19357139
        tangentMode: 10
      - time: 0.96666664
        value: 2.54
        inSlope: -0.09107147
        outSlope: -0.09107147
        tangentMode: 10
      - time: 1.4333333
        value: 2.715
        inSlope: 0.3749999
        outSlope: 0.3749999
        tangentMode: 10
      m_PreInfinity: 2
      m_PostInfinity: 2
      m_RotationOrder: 4
    attribute: m_LocalPosition.y
    path: "\u0432\u043E\u0434\u043E\u0440\u043E\u0441\u043B\u0438_10"
    classID: 4
    script: {fileID: 0}
  - curve:
      serializedVersion: 2
      m_Curve:
      - time: 0
        value: 0
        inSlope: 0
        outSlope: 0
        tangentMode: 10
      - time: 0.5
        value: 0
        inSlope: 0
        outSlope: 0
        tangentMode: 10
      - time: 0.96666664
        value: 0
        inSlope: 0
        outSlope: 0
        tangentMode: 10
      - time: 1.4333333
        value: 0
        inSlope: 0
        outSlope: 0
        tangentMode: 10
      m_PreInfinity: 2
      m_PostInfinity: 2
      m_RotationOrder: 4
    attribute: m_LocalPosition.z
    path: "\u0432\u043E\u0434\u043E\u0440\u043E\u0441\u043B\u0438_10"
    classID: 4
    script: {fileID: 0}
  - curve:
      serializedVersion: 2
      m_Curve:
      - time: 0
        value: 1
        inSlope: 0
        outSlope: 0
        tangentMode: 10
      - time: 0.5
        value: 1
        inSlope: 0
        outSlope: 0
        tangentMode: 10
      - time: 0.96666664
        value: 1
        inSlope: 0
        outSlope: 0
        tangentMode: 10
      - time: 1.4333333
        value: 1
        inSlope: 0
        outSlope: 0
        tangentMode: 10
      m_PreInfinity: 2
      m_PostInfinity: 2
      m_RotationOrder: 4
    attribute: m_LocalScale.x
    path: "\u0432\u043E\u0434\u043E\u0440\u043E\u0441\u043B\u0438_10"
    classID: 4
    script: {fileID: 0}
  - curve:
      serializedVersion: 2
      m_Curve:
      - time: 0
        value: 1
        inSlope: 0.049907207
        outSlope: 0.049907207
        tangentMode: 10
      - time: 0.5
        value: 1.0249536
        inSlope: 0.024953604
        outSlope: 0.024953604
        tangentMode: 10
      - time: 0.96666664
        value: 1.0249536
        inSlope: -0.026736006
        outSlope: -0.026736006
        tangentMode: 10
      - time: 1.4333333
        value: 1
        inSlope: -0.053472012
        outSlope: -0.053472012
        tangentMode: 10
      m_PreInfinity: 2
      m_PostInfinity: 2
      m_RotationOrder: 4
    attribute: m_LocalScale.y
    path: "\u0432\u043E\u0434\u043E\u0440\u043E\u0441\u043B\u0438_10"
    classID: 4
    script: {fileID: 0}
  - curve:
      serializedVersion: 2
      m_Curve:
      - time: 0
        value: 1
        inSlope: 0
        outSlope: 0
        tangentMode: 10
      - time: 0.5
        value: 1
        inSlope: 0
        outSlope: 0
        tangentMode: 10
      - time: 0.96666664
        value: 1
        inSlope: 0
        outSlope: 0
        tangentMode: 10
      - time: 1.4333333
        value: 1
        inSlope: 0
        outSlope: 0
        tangentMode: 10
      m_PreInfinity: 2
      m_PostInfinity: 2
      m_RotationOrder: 4
    attribute: m_LocalScale.z
    path: "\u0432\u043E\u0434\u043E\u0440\u043E\u0441\u043B\u0438_10"
    classID: 4
    script: {fileID: 0}
  - curve:
      serializedVersion: 2
      m_Curve:
      - time: 0
        value: -0.271
        inSlope: 0.20199999
        outSlope: 0.20199999
        tangentMode: 10
      - time: 0.5
        value: -0.17
        inSlope: 0.29385716
        outSlope: 0.29385716
        tangentMode: 10
      - time: 0.96666664
        value: 0.01
        inSlope: -0.108214274
        outSlope: -0.108214274
        tangentMode: 10
      - time: 1.4333333
        value: -0.271
        inSlope: -0.6021429
        outSlope: -0.6021429
        tangentMode: 10
      m_PreInfinity: 2
      m_PostInfinity: 2
      m_RotationOrder: 4
    attribute: m_LocalPosition.x
    path: "\u0432\u043E\u0434\u043E\u0440\u043E\u0441\u043B\u0438_9"
    classID: 4
    script: {fileID: 0}
  - curve:
      serializedVersion: 2
      m_Curve:
      - time: 0
        value: 2.639
        inSlope: 0.18200016
        outSlope: 0.18200016
        tangentMode: 10
      - time: 0.5
        value: 2.73
        inSlope: 0.39100006
        outSlope: 0.39100006
        tangentMode: 10
      - time: 0.96666664
        value: 3.01
        inSlope: -0.097500086
        outSlope: -0.097500086
        tangentMode: 10
      - time: 1.4333333
        value: 2.639
        inSlope: -0.79500014
        outSlope: -0.79500014
        tangentMode: 10
      m_PreInfinity: 2
      m_PostInfinity: 2
      m_RotationOrder: 4
    attribute: m_LocalPosition.y
    path: "\u0432\u043E\u0434\u043E\u0440\u043E\u0441\u043B\u0438_9"
    classID: 4
    script: {fileID: 0}
  - curve:
      serializedVersion: 2
      m_Curve:
      - time: 0
        value: 0
        inSlope: 0
        outSlope: 0
        tangentMode: 10
      - time: 0.5
        value: 0
        inSlope: 0
        outSlope: 0
        tangentMode: 10
      - time: 0.96666664
        value: 0
        inSlope: 0
        outSlope: 0
        tangentMode: 10
      - time: 1.4333333
        value: 0
        inSlope: 0
        outSlope: 0
        tangentMode: 10
      m_PreInfinity: 2
      m_PostInfinity: 2
      m_RotationOrder: 4
    attribute: m_LocalPosition.z
    path: "\u0432\u043E\u0434\u043E\u0440\u043E\u0441\u043B\u0438_9"
    classID: 4
    script: {fileID: 0}
  - curve:
      serializedVersion: 2
      m_Curve:
      - time: 0
        value: 1
        inSlope: 0
        outSlope: 0
        tangentMode: 10
      - time: 0.5
        value: 1
        inSlope: 0
        outSlope: 0
        tangentMode: 10
      - time: 0.96666664
        value: 1
        inSlope: 0
        outSlope: 0
        tangentMode: 10
      - time: 1.4333333
        value: 1
        inSlope: 0
        outSlope: 0
        tangentMode: 10
      m_PreInfinity: 2
      m_PostInfinity: 2
      m_RotationOrder: 4
    attribute: m_LocalScale.x
    path: "\u0432\u043E\u0434\u043E\u0440\u043E\u0441\u043B\u0438_9"
    classID: 4
    script: {fileID: 0}
  - curve:
      serializedVersion: 2
      m_Curve:
      - time: 0
        value: 1
        inSlope: 0.14445257
        outSlope: 0.14445257
        tangentMode: 10
      - time: 0.5
        value: 1.0722263
        inSlope: 0.072226286
        outSlope: 0.072226286
        tangentMode: 10
      - time: 0.96666664
        value: 1.0722263
        inSlope: -0.077385314
        outSlope: -0.077385314
        tangentMode: 10
      - time: 1.4333333
        value: 1
        inSlope: -0.15477063
        outSlope: -0.15477063
        tangentMode: 10
      m_PreInfinity: 2
      m_PostInfinity: 2
      m_RotationOrder: 4
    attribute: m_LocalScale.y
    path: "\u0432\u043E\u0434\u043E\u0440\u043E\u0441\u043B\u0438_9"
    classID: 4
    script: {fileID: 0}
  - curve:
      serializedVersion: 2
      m_Curve:
      - time: 0
        value: 1
        inSlope: 0
        outSlope: 0
        tangentMode: 10
      - time: 0.5
        value: 1
        inSlope: 0
        outSlope: 0
        tangentMode: 10
      - time: 0.96666664
        value: 1
        inSlope: 0
        outSlope: 0
        tangentMode: 10
      - time: 1.4333333
        value: 1
        inSlope: 0
        outSlope: 0
        tangentMode: 10
      m_PreInfinity: 2
      m_PostInfinity: 2
      m_RotationOrder: 4
    attribute: m_LocalScale.z
    path: "\u0432\u043E\u0434\u043E\u0440\u043E\u0441\u043B\u0438_9"
    classID: 4
    script: {fileID: 0}
  - curve:
      serializedVersion: 2
      m_Curve:
      - time: 0
        value: -0.278
        inSlope: 0.136
        outSlope: 0.136
        tangentMode: 10
      - time: 0.5
        value: -0.21
        inSlope: 0.20728572
        outSlope: 0.20728572
        tangentMode: 10
      - time: 0.96666664
        value: -0.08
        inSlope: -0.07285716
        outSlope: -0.07285716
        tangentMode: 10
      - time: 1.4333333
        value: -0.278
        inSlope: -0.42428574
        outSlope: -0.42428574
        tangentMode: 10
      m_PreInfinity: 2
      m_PostInfinity: 2
      m_RotationOrder: 4
    attribute: m_LocalPosition.x
    path: "\u0432\u043E\u0434\u043E\u0440\u043E\u0441\u043B\u0438_8"
    classID: 4
    script: {fileID: 0}
  - curve:
      serializedVersion: 2
      m_Curve:
      - time: 0
        value: 1.28
        inSlope: -0.099999905
        outSlope: -0.099999905
        tangentMode: 10
      - time: 0.5
        value: 1.23
        inSlope: 0.15357143
        outSlope: 0.15357143
        tangentMode: 10
      - time: 0.96666664
        value: 1.42
        inSlope: 0.053571388
        outSlope: 0.053571388
        tangentMode: 10
      - time: 1.4333333
        value: 1.28
        inSlope: -0.29999998
        outSlope: -0.29999998
        tangentMode: 10
      m_PreInfinity: 2
      m_PostInfinity: 2
      m_RotationOrder: 4
    attribute: m_LocalPosition.y
    path: "\u0432\u043E\u0434\u043E\u0440\u043E\u0441\u043B\u0438_8"
    classID: 4
    script: {fileID: 0}
  - curve:
      serializedVersion: 2
      m_Curve:
      - time: 0
        value: 0
        inSlope: 0
        outSlope: 0
        tangentMode: 10
      - time: 0.5
        value: 0
        inSlope: 0
        outSlope: 0
        tangentMode: 10
      - time: 0.96666664
        value: 0
        inSlope: 0
        outSlope: 0
        tangentMode: 10
      - time: 1.4333333
        value: 0
        inSlope: 0
        outSlope: 0
        tangentMode: 10
      m_PreInfinity: 2
      m_PostInfinity: 2
      m_RotationOrder: 4
    attribute: m_LocalPosition.z
    path: "\u0432\u043E\u0434\u043E\u0440\u043E\u0441\u043B\u0438_8"
    classID: 4
    script: {fileID: 0}
  - curve:
      serializedVersion: 2
      m_Curve:
      - time: 0
        value: -0
        inSlope: 0
        outSlope: 0
        tangentMode: 10
      - time: 0.5
        value: 0
        inSlope: 0
        outSlope: 0
        tangentMode: 10
      - time: 0.96666664
        value: 0
        inSlope: 0
        outSlope: 0
        tangentMode: 10
      - time: 1.4333333
        value: -0
        inSlope: -0
        outSlope: -0
        tangentMode: 10
      m_PreInfinity: 2
      m_PostInfinity: 2
      m_RotationOrder: 4
    attribute: localEulerAnglesRaw.x
    path: "\u0432\u043E\u0434\u043E\u0440\u043E\u0441\u043B\u0438_7"
    classID: 4
    script: {fileID: 0}
  - curve:
      serializedVersion: 2
      m_Curve:
      - time: 0
        value: 0
        inSlope: 0
        outSlope: 0
        tangentMode: 10
      - time: 0.5
        value: 0
        inSlope: 0
        outSlope: 0
        tangentMode: 10
      - time: 0.96666664
        value: 0
        inSlope: 0
        outSlope: 0
        tangentMode: 10
      - time: 1.4333333
        value: 0
        inSlope: 0
        outSlope: 0
        tangentMode: 10
      m_PreInfinity: 2
      m_PostInfinity: 2
      m_RotationOrder: 4
    attribute: localEulerAnglesRaw.y
    path: "\u0432\u043E\u0434\u043E\u0440\u043E\u0441\u043B\u0438_7"
    classID: 4
    script: {fileID: 0}
  - curve:
      serializedVersion: 2
      m_Curve:
      - time: 0
        value: 0
        inSlope: 20.1848
        outSlope: 20.1848
        tangentMode: 10
      - time: 0.5
        value: 10.0924
        inSlope: -21.916744
        outSlope: -21.916744
        tangentMode: 10
      - time: 0.96666664
        value: -19.782799
        inSlope: -10.813286
        outSlope: -10.813286
        tangentMode: 10
      - time: 1.4333333
        value: 0
        inSlope: 42.391716
        outSlope: 42.391716
        tangentMode: 10
      m_PreInfinity: 2
      m_PostInfinity: 2
      m_RotationOrder: 4
    attribute: localEulerAnglesRaw.z
    path: "\u0432\u043E\u0434\u043E\u0440\u043E\u0441\u043B\u0438_7"
    classID: 4
    script: {fileID: 0}
  - curve:
      serializedVersion: 2
      m_Curve:
      - time: 0
        value: -0
        inSlope: 0
        outSlope: 0
        tangentMode: 10
      - time: 0.5
        value: 0
        inSlope: 0
        outSlope: 0
        tangentMode: 10
      - time: 0.96666664
        value: 0
        inSlope: 0
        outSlope: 0
        tangentMode: 10
      - time: 1.4333333
        value: -0
        inSlope: -0
        outSlope: -0
        tangentMode: 10
      m_PreInfinity: 2
      m_PostInfinity: 2
      m_RotationOrder: 4
    attribute: localEulerAnglesRaw.x
    path: "\u0432\u043E\u0434\u043E\u0440\u043E\u0441\u043B\u0438_0"
    classID: 4
    script: {fileID: 0}
  - curve:
      serializedVersion: 2
      m_Curve:
      - time: 0
        value: 0
        inSlope: 0
        outSlope: 0
        tangentMode: 10
      - time: 0.5
        value: 0
        inSlope: 0
        outSlope: 0
        tangentMode: 10
      - time: 0.96666664
        value: 0
        inSlope: 0
        outSlope: 0
        tangentMode: 10
      - time: 1.4333333
        value: 0
        inSlope: 0
        outSlope: 0
        tangentMode: 10
      m_PreInfinity: 2
      m_PostInfinity: 2
      m_RotationOrder: 4
    attribute: localEulerAnglesRaw.y
    path: "\u0432\u043E\u0434\u043E\u0440\u043E\u0441\u043B\u0438_0"
    classID: 4
    script: {fileID: 0}
  - curve:
      serializedVersion: 2
      m_Curve:
      - time: 0
        value: 0
        inSlope: -12.5794
        outSlope: -12.5794
        tangentMode: 10
      - time: 0.5
        value: -6.2897
        inSlope: 4.534943
        outSlope: 4.534943
        tangentMode: 10
      - time: 0.96666664
        value: 3.8133
        inSlope: 6.7389646
        outSlope: 6.7389646
        tangentMode: 10
      - time: 1.4333333
        value: 0
        inSlope: -8.171357
        outSlope: -8.171357
        tangentMode: 10
      m_PreInfinity: 2
      m_PostInfinity: 2
      m_RotationOrder: 4
    attribute: localEulerAnglesRaw.z
    path: "\u0432\u043E\u0434\u043E\u0440\u043E\u0441\u043B\u0438_0"
    classID: 4
    script: {fileID: 0}
  - curve:
      serializedVersion: 2
      m_Curve:
      - time: 0
        value: -0
        inSlope: 0
        outSlope: 0
        tangentMode: 10
      - time: 0.5
        value: 0
        inSlope: 0
        outSlope: 0
        tangentMode: 10
      - time: 0.96666664
        value: 0
        inSlope: 0
        outSlope: 0
        tangentMode: 10
      - time: 1.4333333
        value: -0
        inSlope: -0
        outSlope: -0
        tangentMode: 10
      m_PreInfinity: 2
      m_PostInfinity: 2
      m_RotationOrder: 4
    attribute: localEulerAnglesRaw.x
    path: "\u0432\u043E\u0434\u043E\u0440\u043E\u0441\u043B\u0438_8"
    classID: 4
    script: {fileID: 0}
  - curve:
      serializedVersion: 2
      m_Curve:
      - time: 0
        value: 0
        inSlope: 0
        outSlope: 0
        tangentMode: 10
      - time: 0.5
        value: 0
        inSlope: 0
        outSlope: 0
        tangentMode: 10
      - time: 0.96666664
        value: 0
        inSlope: 0
        outSlope: 0
        tangentMode: 10
      - time: 1.4333333
        value: 0
        inSlope: 0
        outSlope: 0
        tangentMode: 10
      m_PreInfinity: 2
      m_PostInfinity: 2
      m_RotationOrder: 4
    attribute: localEulerAnglesRaw.y
    path: "\u0432\u043E\u0434\u043E\u0440\u043E\u0441\u043B\u0438_8"
    classID: 4
    script: {fileID: 0}
  - curve:
      serializedVersion: 2
      m_Curve:
      - time: 0
        value: 0
        inSlope: 10.338799
        outSlope: 10.338799
        tangentMode: 10
      - time: 0.5
        value: 5.1693997
        inSlope: -18.077496
        outSlope: -18.077496
        tangentMode: 10
      - time: 0.96666664
        value: -16.5277
        inSlope: -5.538643
        outSlope: -5.538643
        tangentMode: 10
      - time: 1.4333333
        value: 0
        inSlope: 35.416504
        outSlope: 35.416504
        tangentMode: 10
      m_PreInfinity: 2
      m_PostInfinity: 2
      m_RotationOrder: 4
    attribute: localEulerAnglesRaw.z
    path: "\u0432\u043E\u0434\u043E\u0440\u043E\u0441\u043B\u0438_8"
    classID: 4
    script: {fileID: 0}
  - curve:
      serializedVersion: 2
      m_Curve:
      - time: 0
        value: -0
        inSlope: 0
        outSlope: 0
        tangentMode: 10
      - time: 0.5
        value: 0
        inSlope: 0
        outSlope: 0
        tangentMode: 10
      - time: 0.96666664
        value: 0
        inSlope: 0
        outSlope: 0
        tangentMode: 10
      - time: 1.4333333
        value: -0
        inSlope: -0
        outSlope: -0
        tangentMode: 10
      m_PreInfinity: 2
      m_PostInfinity: 2
      m_RotationOrder: 4
    attribute: localEulerAnglesRaw.x
    path: "\u0432\u043E\u0434\u043E\u0440\u043E\u0441\u043B\u0438_11"
    classID: 4
    script: {fileID: 0}
  - curve:
      serializedVersion: 2
      m_Curve:
      - time: 0
        value: 0
        inSlope: 0
        outSlope: 0
        tangentMode: 10
      - time: 0.5
        value: 0
        inSlope: 0
        outSlope: 0
        tangentMode: 10
      - time: 0.96666664
        value: 0
        inSlope: 0
        outSlope: 0
        tangentMode: 10
      - time: 1.4333333
        value: 0
        inSlope: 0
        outSlope: 0
        tangentMode: 10
      m_PreInfinity: 2
      m_PostInfinity: 2
      m_RotationOrder: 4
    attribute: localEulerAnglesRaw.y
    path: "\u0432\u043E\u0434\u043E\u0440\u043E\u0441\u043B\u0438_11"
    classID: 4
    script: {fileID: 0}
  - curve:
      serializedVersion: 2
      m_Curve:
      - time: 0
        value: 0
        inSlope: 26.5124
        outSlope: 26.5124
        tangentMode: 10
      - time: 0.5
        value: 13.2562
        inSlope: -11.116231
        outSlope: -11.116231
        tangentMode: 10
      - time: 0.96666664
        value: -9.4914
        inSlope: -14.2030735
        outSlope: -14.2030735
        tangentMode: 10
      - time: 1.4333333
        value: 0
        inSlope: 20.338715
        outSlope: 20.338715
        tangentMode: 10
      m_PreInfinity: 2
      m_PostInfinity: 2
      m_RotationOrder: 4
    attribute: localEulerAnglesRaw.z
    path: "\u0432\u043E\u0434\u043E\u0440\u043E\u0441\u043B\u0438_11"
    classID: 4
    script: {fileID: 0}
  - curve:
      serializedVersion: 2
      m_Curve:
      - time: 0
        value: -0
        inSlope: 0
        outSlope: 0
        tangentMode: 10
      - time: 0.5
        value: -0
        inSlope: 0
        outSlope: 0
        tangentMode: 10
      - time: 0.96666664
        value: 0
        inSlope: 0
        outSlope: 0
        tangentMode: 10
      - time: 1.4333333
        value: -0
        inSlope: -0
        outSlope: -0
        tangentMode: 10
      m_PreInfinity: 2
      m_PostInfinity: 2
      m_RotationOrder: 4
    attribute: localEulerAnglesRaw.x
    path: "\u0432\u043E\u0434\u043E\u0440\u043E\u0441\u043B\u0438_10"
    classID: 4
    script: {fileID: 0}
  - curve:
      serializedVersion: 2
      m_Curve:
      - time: 0
        value: 0
        inSlope: 0
        outSlope: 0
        tangentMode: 10
      - time: 0.5
        value: 0
        inSlope: 0
        outSlope: 0
        tangentMode: 10
      - time: 0.96666664
        value: 0
        inSlope: 0
        outSlope: 0
        tangentMode: 10
      - time: 1.4333333
        value: 0
        inSlope: 0
        outSlope: 0
        tangentMode: 10
      m_PreInfinity: 2
      m_PostInfinity: 2
      m_RotationOrder: 4
    attribute: localEulerAnglesRaw.y
    path: "\u0432\u043E\u0434\u043E\u0440\u043E\u0441\u043B\u0438_10"
    classID: 4
    script: {fileID: 0}
  - curve:
      serializedVersion: 2
      m_Curve:
      - time: 0
        value: 0
        inSlope: -0.96459997
        outSlope: -0.96459997
        tangentMode: 10
      - time: 0.5
        value: -0.48229998
        inSlope: -13.225872
        outSlope: -13.225872
        tangentMode: 10
      - time: 0.96666664
        value: -12.3763
        inSlope: 0.5167494
        outSlope: 0.5167494
        tangentMode: 10
      - time: 1.4333333
        value: 0
        inSlope: 26.520643
        outSlope: 26.520643
        tangentMode: 10
      m_PreInfinity: 2
      m_PostInfinity: 2
      m_RotationOrder: 4
    attribute: localEulerAnglesRaw.z
    path: "\u0432\u043E\u0434\u043E\u0440\u043E\u0441\u043B\u0438_10"
    classID: 4
    script: {fileID: 0}
  - curve:
      serializedVersion: 2
      m_Curve:
      - time: 0
        value: -0
        inSlope: 0
        outSlope: 0
        tangentMode: 10
      - time: 0.5
        value: 0
        inSlope: 0
        outSlope: 0
        tangentMode: 10
      - time: 0.96666664
        value: 0
        inSlope: 0
        outSlope: 0
        tangentMode: 10
      - time: 1.4333333
        value: -0
        inSlope: -0
        outSlope: -0
        tangentMode: 10
      m_PreInfinity: 2
      m_PostInfinity: 2
      m_RotationOrder: 4
    attribute: localEulerAnglesRaw.x
    path: "\u0432\u043E\u0434\u043E\u0440\u043E\u0441\u043B\u0438_9"
    classID: 4
    script: {fileID: 0}
  - curve:
      serializedVersion: 2
      m_Curve:
      - time: 0
        value: 0
        inSlope: 0
        outSlope: 0
        tangentMode: 10
      - time: 0.5
        value: 0
        inSlope: 0
        outSlope: 0
        tangentMode: 10
      - time: 0.96666664
        value: 0
        inSlope: 0
        outSlope: 0
        tangentMode: 10
      - time: 1.4333333
        value: 0
        inSlope: 0
        outSlope: 0
        tangentMode: 10
      m_PreInfinity: 2
      m_PostInfinity: 2
      m_RotationOrder: 4
    attribute: localEulerAnglesRaw.y
    path: "\u0432\u043E\u0434\u043E\u0440\u043E\u0441\u043B\u0438_9"
    classID: 4
    script: {fileID: 0}
  - curve:
      serializedVersion: 2
      m_Curve:
      - time: 0
        value: 0
        inSlope: 19.9488
        outSlope: 19.9488
        tangentMode: 10
      - time: 0.5
        value: 9.9744
        inSlope: -18.961885
        outSlope: -18.961885
        tangentMode: 10
      - time: 0.96666664
        value: -17.032799
        inSlope: -10.686857
        outSlope: -10.686857
        tangentMode: 10
      - time: 1.4333333
        value: 0
        inSlope: 36.498856
        outSlope: 36.498856
        tangentMode: 10
      m_PreInfinity: 2
      m_PostInfinity: 2
      m_RotationOrder: 4
    attribute: localEulerAnglesRaw.z
    path: "\u0432\u043E\u0434\u043E\u0440\u043E\u0441\u043B\u0438_9"
    classID: 4
    script: {fileID: 0}
  m_EulerEditorCurves:
  - curve:
      serializedVersion: 2
      m_Curve: []
      m_PreInfinity: 2
      m_PostInfinity: 2
      m_RotationOrder: 4
    attribute: m_LocalEulerAngles.z
    path: "\u0432\u043E\u0434\u043E\u0440\u043E\u0441\u043B\u0438_11"
    classID: 4
    script: {fileID: 0}
  - curve:
      serializedVersion: 2
      m_Curve: []
      m_PreInfinity: 2
      m_PostInfinity: 2
      m_RotationOrder: 4
    attribute: m_LocalEulerAngles.y
    path: "\u0432\u043E\u0434\u043E\u0440\u043E\u0441\u043B\u0438_11"
    classID: 4
    script: {fileID: 0}
  - curve:
      serializedVersion: 2
      m_Curve: []
      m_PreInfinity: 2
      m_PostInfinity: 2
      m_RotationOrder: 4
    attribute: m_LocalEulerAngles.x
    path: "\u0432\u043E\u0434\u043E\u0440\u043E\u0441\u043B\u0438_11"
    classID: 4
    script: {fileID: 0}
  - curve:
      serializedVersion: 2
      m_Curve: []
      m_PreInfinity: 2
      m_PostInfinity: 2
      m_RotationOrder: 4
    attribute: m_LocalEulerAngles.z
    path: "\u0432\u043E\u0434\u043E\u0440\u043E\u0441\u043B\u0438_10"
    classID: 4
    script: {fileID: 0}
  - curve:
      serializedVersion: 2
      m_Curve: []
      m_PreInfinity: 2
      m_PostInfinity: 2
      m_RotationOrder: 4
    attribute: m_LocalEulerAngles.y
    path: "\u0432\u043E\u0434\u043E\u0440\u043E\u0441\u043B\u0438_10"
    classID: 4
    script: {fileID: 0}
  - curve:
      serializedVersion: 2
      m_Curve: []
      m_PreInfinity: 2
      m_PostInfinity: 2
      m_RotationOrder: 4
    attribute: m_LocalEulerAngles.x
    path: "\u0432\u043E\u0434\u043E\u0440\u043E\u0441\u043B\u0438_10"
    classID: 4
    script: {fileID: 0}
  - curve:
      serializedVersion: 2
      m_Curve: []
      m_PreInfinity: 2
      m_PostInfinity: 2
      m_RotationOrder: 4
    attribute: m_LocalEulerAngles.z
    path: "\u0432\u043E\u0434\u043E\u0440\u043E\u0441\u043B\u0438_7"
    classID: 4
    script: {fileID: 0}
  - curve:
      serializedVersion: 2
      m_Curve: []
      m_PreInfinity: 2
      m_PostInfinity: 2
      m_RotationOrder: 4
    attribute: m_LocalEulerAngles.y
    path: "\u0432\u043E\u0434\u043E\u0440\u043E\u0441\u043B\u0438_7"
    classID: 4
    script: {fileID: 0}
  - curve:
      serializedVersion: 2
      m_Curve: []
      m_PreInfinity: 2
      m_PostInfinity: 2
      m_RotationOrder: 4
    attribute: m_LocalEulerAngles.x
    path: "\u0432\u043E\u0434\u043E\u0440\u043E\u0441\u043B\u0438_7"
    classID: 4
    script: {fileID: 0}
  - curve:
      serializedVersion: 2
      m_Curve: []
      m_PreInfinity: 2
      m_PostInfinity: 2
      m_RotationOrder: 4
    attribute: m_LocalEulerAngles.z
    path: "\u0432\u043E\u0434\u043E\u0440\u043E\u0441\u043B\u0438_8"
    classID: 4
    script: {fileID: 0}
  - curve:
      serializedVersion: 2
      m_Curve: []
      m_PreInfinity: 2
      m_PostInfinity: 2
      m_RotationOrder: 4
    attribute: m_LocalEulerAngles.y
    path: "\u0432\u043E\u0434\u043E\u0440\u043E\u0441\u043B\u0438_8"
    classID: 4
    script: {fileID: 0}
  - curve:
      serializedVersion: 2
      m_Curve: []
      m_PreInfinity: 2
      m_PostInfinity: 2
      m_RotationOrder: 4
    attribute: m_LocalEulerAngles.x
    path: "\u0432\u043E\u0434\u043E\u0440\u043E\u0441\u043B\u0438_8"
    classID: 4
    script: {fileID: 0}
  - curve:
      serializedVersion: 2
      m_Curve: []
      m_PreInfinity: 2
      m_PostInfinity: 2
      m_RotationOrder: 4
    attribute: m_LocalEulerAngles.z
    path: "\u0432\u043E\u0434\u043E\u0440\u043E\u0441\u043B\u0438_0"
    classID: 4
    script: {fileID: 0}
  - curve:
      serializedVersion: 2
      m_Curve: []
      m_PreInfinity: 2
      m_PostInfinity: 2
      m_RotationOrder: 4
    attribute: m_LocalEulerAngles.y
    path: "\u0432\u043E\u0434\u043E\u0440\u043E\u0441\u043B\u0438_0"
    classID: 4
    script: {fileID: 0}
  - curve:
      serializedVersion: 2
      m_Curve: []
      m_PreInfinity: 2
      m_PostInfinity: 2
      m_RotationOrder: 4
    attribute: m_LocalEulerAngles.x
    path: "\u0432\u043E\u0434\u043E\u0440\u043E\u0441\u043B\u0438_0"
    classID: 4
    script: {fileID: 0}
  - curve:
      serializedVersion: 2
      m_Curve: []
      m_PreInfinity: 2
      m_PostInfinity: 2
      m_RotationOrder: 4
    attribute: m_LocalEulerAngles.x
    path: "\u0432\u043E\u0434\u043E\u0440\u043E\u0441\u043B\u0438_9"
    classID: 4
    script: {fileID: 0}
  - curve:
      serializedVersion: 2
      m_Curve: []
      m_PreInfinity: 2
      m_PostInfinity: 2
      m_RotationOrder: 4
    attribute: m_LocalEulerAngles.y
    path: "\u0432\u043E\u0434\u043E\u0440\u043E\u0441\u043B\u0438_9"
    classID: 4
    script: {fileID: 0}
  - curve:
      serializedVersion: 2
      m_Curve: []
      m_PreInfinity: 2
      m_PostInfinity: 2
      m_RotationOrder: 4
    attribute: m_LocalEulerAngles.z
    path: "\u0432\u043E\u0434\u043E\u0440\u043E\u0441\u043B\u0438_9"
    classID: 4
    script: {fileID: 0}
  m_HasGenericRootTransform: 0
  m_HasMotionFloatCurves: 0
  m_GenerateMotionCurves: 0
  m_Events: []
