%YAML 1.1
%TAG !u! tag:unity3d.com,2011:
--- !u!74 &7400000
AnimationClip:
  m_ObjectHideFlags: 0
  m_PrefabParentObject: {fileID: 0}
  m_PrefabInternal: {fileID: 0}
  m_Name: move
  serializedVersion: 6
  m_Legacy: 0
  m_Compressed: 0
  m_UseHighQualityCurve: 1
  m_RotationCurves: []
  m_CompressedRotationCurves: []
  m_EulerCurves:
  - curve:
      serializedVersion: 2
      m_Curve:
      - time: 0
        value: {x: 0, y: 0, z: 0.17}
        inSlope: {x: -0, y: -0, z: 0}
        outSlope: {x: -0, y: -0, z: 0}
        tangentMode: 0
      - time: 0.15
        value: {x: -0, y: -0, z: 0.17}
        inSlope: {x: 0, y: 0, z: 0}
        outSlope: {x: 0, y: 0, z: 0}
        tangentMode: 0
      - time: 0.43333334
        value: {x: 0, y: 0, z: 0.17}
        inSlope: {x: 0, y: 0, z: 0}
        outSlope: {x: 0, y: 0, z: 0}
        tangentMode: 0
      - time: 0.51666665
        value: {x: 0, y: 0, z: 0.17}
        inSlope: {x: 0, y: 0, z: 0}
        outSlope: {x: 0, y: 0, z: 0}
        tangentMode: 0
      - time: 0.76666665
        value: {x: 0, y: 0, z: 0.17}
        inSlope: {x: 0, y: 0, z: 0}
        outSlope: {x: 0, y: 0, z: 0}
        tangentMode: 0
      m_PreInfinity: 2
      m_PostInfinity: 2
      m_RotationOrder: 4
    path: "\u043D\u0430\u0440\u0432\u0430\u043B-\u0432\u043E\u0441\u0441\u0442\u0430\u043D\u043E\u0432\u043B\u0435\u043D\u043E_0"
  - curve:
      serializedVersion: 2
      m_Curve:
      - time: 0
        value: {x: 0, y: 0, z: 131.3611}
        inSlope: {x: 0, y: 0, z: -249.86266}
        outSlope: {x: 0, y: 0, z: -249.86266}
        tangentMode: 0
      - time: 0.15
        value: {x: 0, y: 0, z: 93.8817}
        inSlope: {x: 0, y: 0, z: -109.06892}
        outSlope: {x: 0, y: 0, z: -109.06892}
        tangentMode: 0
      - time: 0.43333334
        value: {x: 0, y: 0, z: 102.8704}
        inSlope: {x: 0, y: 0, z: 191.94743}
        outSlope: {x: 0, y: 0, z: 191.94743}
        tangentMode: 0
      - time: 0.51666665
        value: {x: 0, y: 0, z: 132.2179}
        inSlope: {x: 0, y: 0, z: 174.37143}
        outSlope: {x: 0, y: 0, z: 174.37143}
        tangentMode: 0
      - time: 0.76666665
        value: {x: 0, y: 0, z: 131.3611}
        inSlope: {x: 0, y: 0, z: -3.427185}
        outSlope: {x: 0, y: 0, z: -3.427185}
        tangentMode: 0
      m_PreInfinity: 2
      m_PostInfinity: 2
      m_RotationOrder: 4
    path: "\u043D\u0430\u0440\u0432\u0430\u043B-\u0432\u043E\u0441\u0441\u0442\u0430\u043D\u043E\u0432\u043B\u0435\u043D\u043E_2"
  - curve:
      serializedVersion: 2
      m_Curve:
      - time: 0
        value: {x: 0, y: 0, z: -6.9298553}
        inSlope: {x: 0, y: 0, z: -9.990965}
        outSlope: {x: 0, y: 0, z: -9.990965}
        tangentMode: 0
      - time: 0.15
        value: {x: 0, y: 0, z: -8.4285}
        inSlope: {x: 0, y: 0, z: 15.371137}
        outSlope: {x: 0, y: 0, z: 15.371137}
        tangentMode: 0
      - time: 0.43333334
        value: {x: 0, y: 0, z: 3.112584}
        inSlope: {x: 0, y: 0, z: 37.164917}
        outSlope: {x: 0, y: 0, z: 37.164917}
        tangentMode: 0
      - time: 0.51666665
        value: {x: 0, y: 0, z: 5.9122996}
        inSlope: {x: 0, y: 0, z: -8.886013}
        outSlope: {x: 0, y: 0, z: -8.886013}
        tangentMode: 0
      - time: 0.76666665
        value: {x: 0, y: 0, z: -6.9298553}
        inSlope: {x: 0, y: 0, z: -51.36862}
        outSlope: {x: 0, y: 0, z: -51.36862}
        tangentMode: 0
      m_PreInfinity: 2
      m_PostInfinity: 2
      m_RotationOrder: 4
    path: "\u043D\u0430\u0440\u0432\u0430\u043B-\u0432\u043E\u0441\u0441\u0442\u0430\u043D\u043E\u0432\u043B\u0435\u043D\u043E_3"
  - curve:
      serializedVersion: 2
      m_Curve:
      - time: 0
        value: {x: 0, y: 0, z: 9.556051}
        inSlope: {x: 0, y: 0, z: 13.068987}
        outSlope: {x: 0, y: 0, z: 13.068987}
        tangentMode: 0
      - time: 0.15
        value: {x: 0, y: 0, z: 11.516399}
        inSlope: {x: 0, y: 0, z: -15.128329}
        outSlope: {x: 0, y: 0, z: -15.128329}
        tangentMode: 0
      - time: 0.43333334
        value: {x: 0, y: 0, z: -0.7592}
        inSlope: {x: 0, y: 0, z: -36.308228}
        outSlope: {x: 0, y: 0, z: -36.308228}
        tangentMode: 0
      - time: 0.51666665
        value: {x: 0, y: 0, z: -3.2001}
        inSlope: {x: 0, y: 0, z: 10.8668995}
        outSlope: {x: 0, y: 0, z: 10.8668995}
        tangentMode: 0
      - time: 0.76666665
        value: {x: 0, y: 0, z: 9.556051}
        inSlope: {x: 0, y: 0, z: 51.024605}
        outSlope: {x: 0, y: 0, z: 51.024605}
        tangentMode: 0
      m_PreInfinity: 2
      m_PostInfinity: 2
      m_RotationOrder: 4
    path: "\u043D\u0430\u0440\u0432\u0430\u043B-\u0432\u043E\u0441\u0441\u0442\u0430\u043D\u043E\u0432\u043B\u0435\u043D\u043E_4"
  - curve:
      serializedVersion: 2
      m_Curve:
      - time: 0
        value: {x: 0, y: 0, z: -46.4841}
        inSlope: {x: 0, y: 0, z: -64.10532}
        outSlope: {x: 0, y: 0, z: -64.10532}
        tangentMode: 0
      - time: 0.15
        value: {x: 0, y: 0, z: -56.0999}
        inSlope: {x: 0, y: 0, z: 18.65281}
        outSlope: {x: 0, y: 0, z: 18.65281}
        tangentMode: 0
      - time: 0.43333334
        value: {x: 0, y: 0, z: -27.366798}
        inSlope: {x: 0, y: 0, z: 96.72188}
        outSlope: {x: 0, y: 0, z: 96.72188}
        tangentMode: 0
      - time: 0.51666665
        value: {x: 0, y: 0, z: -19.6974}
        inSlope: {x: 0, y: 0, z: -7.5569954}
        outSlope: {x: 0, y: 0, z: -7.5569954}
        tangentMode: 0
      - time: 0.76666665
        value: {x: 0, y: 0, z: -46.4841}
        inSlope: {x: 0, y: 0, z: -107.146805}
        outSlope: {x: 0, y: 0, z: -107.146805}
        tangentMode: 0
      m_PreInfinity: 2
      m_PostInfinity: 2
      m_RotationOrder: 4
    path: "\u043D\u0430\u0440\u0432\u0430\u043B-\u0432\u043E\u0441\u0441\u0442\u0430\u043D\u043E\u0432\u043B\u0435\u043D\u043E_5
      (1)"
  - curve:
      serializedVersion: 2
      m_Curve:
      - time: 0
        value: {x: 0, y: 0, z: 19.2232}
        inSlope: {x: 0, y: 0, z: 112.543976}
        outSlope: {x: 0, y: 0, z: 112.543976}
        tangentMode: 0
      - time: 0.15
        value: {x: 0, y: 0, z: 36.104797}
        inSlope: {x: 0, y: 0, z: 43.56717}
        outSlope: {x: 0, y: 0, z: 43.56717}
        tangentMode: 0
      - time: 0.43333334
        value: {x: 0, y: 0, z: 28.9054}
        inSlope: {x: 0, y: 0, z: -70.798035}
        outSlope: {x: 0, y: 0, z: -70.798035}
        tangentMode: 0
      - time: 0.51666665
        value: {x: 0, y: 0, z: 19.2232}
        inSlope: {x: 0, y: 0, z: -58.093212}
        outSlope: {x: 0, y: 0, z: -58.093212}
        tangentMode: 0
      - time: 0.76666665
        value: {x: 0, y: 0, z: 19.2232}
        inSlope: {x: 0, y: 0, z: 0}
        outSlope: {x: 0, y: 0, z: 0}
        tangentMode: 0
      m_PreInfinity: 2
      m_PostInfinity: 2
      m_RotationOrder: 4
    path: "\u043D\u0430\u0440\u0432\u0430\u043B-\u0432\u043E\u0441\u0441\u0442\u0430\u043D\u043E\u0432\u043B\u0435\u043D\u043E_5"
  - curve:
      serializedVersion: 2
      m_Curve:
      - time: 0
        value: {x: 0, y: 0, z: 0}
        inSlope: {x: -0, y: 0, z: 0}
        outSlope: {x: -0, y: 0, z: 0}
        tangentMode: 0
      - time: 0.15
        value: {x: -0, y: 0, z: 0}
        inSlope: {x: 0, y: 0, z: 0}
        outSlope: {x: 0, y: 0, z: 0}
        tangentMode: 0
      - time: 0.43333334
        value: {x: 0, y: 0, z: 0}
        inSlope: {x: 0, y: 0, z: 0}
        outSlope: {x: 0, y: 0, z: 0}
        tangentMode: 0
      - time: 0.51666665
        value: {x: 0, y: 0, z: 0}
        inSlope: {x: 0, y: 0, z: 0}
        outSlope: {x: 0, y: 0, z: 0}
        tangentMode: 0
      - time: 0.76666665
        value: {x: 0, y: 0, z: 0}
        inSlope: {x: 0, y: 0, z: 0}
        outSlope: {x: 0, y: 0, z: 0}
        tangentMode: 0
      m_PreInfinity: 2
      m_PostInfinity: 2
      m_RotationOrder: 4
    path: "\u043D\u0430\u0440\u0432\u0430\u043B-\u0432\u043E\u0441\u0441\u0442\u0430\u043D\u043E\u0432\u043B\u0435\u043D\u043E_4/\u043D\u0430\u0440\u0432\u0430\u043B-\u0432\u043E\u0441\u0441\u0442\u0430\u043D\u043E\u0432\u043B\u0435\u043D\u043E_6"
  m_PositionCurves:
  - curve:
      serializedVersion: 2
      m_Curve:
      - time: 0
        value: {x: 3.6354291, y: -0.20092502, z: 0}
        inSlope: {x: 0.16380627, y: 0.9395001, z: 0}
        outSlope: {x: 0.16380627, y: 0.9395001, z: 0}
        tangentMode: 0
      - time: 0.15
        value: {x: 3.66, y: -0.06, z: 0}
        inSlope: {x: -0.055234946, y: 0.25259286, z: 0}
        outSlope: {x: -0.055234946, y: 0.25259286, z: 0}
        tangentMode: 0
      - time: 0.43333334
        value: {x: 3.5822885, y: -0.18305574, z: 0}
        inSlope: {x: -0.15086956, y: -0.6188228, z: 0}
        outSlope: {x: -0.15086956, y: -0.6188228, z: 0}
        tangentMode: 0
      - time: 0.51666665
        value: {x: 3.58, y: -0.25, z: 0}
        inSlope: {x: 0.09712696, y: -0.30351567, z: 0}
        outSlope: {x: 0.09712696, y: -0.30351567, z: 0}
        tangentMode: 0
      - time: 0.76666665
        value: {x: 3.6354291, y: -0.20092502, z: 0}
        inSlope: {x: 0.22171688, y: 0.19629991, z: 0}
        outSlope: {x: 0.22171688, y: 0.19629991, z: 0}
        tangentMode: 0
      m_PreInfinity: 2
      m_PostInfinity: 2
      m_RotationOrder: 4
    path: "\u043D\u0430\u0440\u0432\u0430\u043B-\u0432\u043E\u0441\u0441\u0442\u0430\u043D\u043E\u0432\u043B\u0435\u043D\u043E_0"
  - curve:
      serializedVersion: 2
      m_Curve:
      - time: 0
        value: {x: 6.98, y: -0.39, z: 0}
        inSlope: {x: 0.2666664, y: 0.2666666, z: 0}
        outSlope: {x: 0.2666664, y: 0.2666666, z: 0}
        tangentMode: 0
      - time: 0.15
        value: {x: 7.02, y: -0.35, z: 0}
        inSlope: {x: -0.18431357, y: 0.62745094, z: 0}
        outSlope: {x: -0.18431357, y: 0.62745094, z: 0}
        tangentMode: 0
      - time: 0.43333334
        value: {x: 6.84, y: -0.07, z: 0}
        inSlope: {x: 0.16235289, y: 1.0341178, z: 0}
        outSlope: {x: 0.16235289, y: 1.0341178, z: 0}
        tangentMode: 0
      - time: 0.51666665
        value: {x: 6.92, y: 0.02, z: 0}
        inSlope: {x: 0.59999955, y: -0.27999985, z: 0}
        outSlope: {x: 0.59999955, y: -0.27999985, z: 0}
        tangentMode: 0
      - time: 0.76666665
        value: {x: 6.98, y: -0.39, z: 0}
        inSlope: {x: 0.23999977, y: -1.64, z: 0}
        outSlope: {x: 0.23999977, y: -1.64, z: 0}
        tangentMode: 0
      m_PreInfinity: 2
      m_PostInfinity: 2
      m_RotationOrder: 4
    path: "\u043D\u0430\u0440\u0432\u0430\u043B-\u0432\u043E\u0441\u0441\u0442\u0430\u043D\u043E\u0432\u043B\u0435\u043D\u043E_2"
  - curve:
      serializedVersion: 2
      m_Curve:
      - time: 0
        value: {x: 5.0680456, y: -0.3034403, z: 0}
        inSlope: {x: 0.479695, y: 0.88960195, z: 0}
        outSlope: {x: 0.479695, y: 0.88960195, z: 0}
        tangentMode: 0
      - time: 0.15
        value: {x: 5.14, y: -0.17, z: 0}
        inSlope: {x: 0.021069273, y: 0.3122516, z: 0}
        outSlope: {x: 0.021069273, y: 0.3122516, z: 0}
        tangentMode: 0
      - time: 0.43333334
        value: {x: 5.0160255, y: -0.24511132, z: 0}
        inSlope: {x: -0.2549301, y: -0.46188164, z: 0}
        outSlope: {x: -0.2549301, y: -0.46188164, z: 0}
        tangentMode: 0
      - time: 0.51666665
        value: {x: 5.01, y: -0.3, z: 0}
        inSlope: {x: 0.07993888, y: -0.33621284, z: 0}
        outSlope: {x: 0.07993888, y: -0.33621284, z: 0}
        tangentMode: 0
      - time: 0.76666665
        value: {x: 5.0680456, y: -0.3034403, z: 0}
        inSlope: {x: 0.23218155, y: -0.013761163, z: 0}
        outSlope: {x: 0.23218155, y: -0.013761163, z: 0}
        tangentMode: 0
      m_PreInfinity: 2
      m_PostInfinity: 2
      m_RotationOrder: 4
    path: "\u043D\u0430\u0440\u0432\u0430\u043B-\u0432\u043E\u0441\u0441\u0442\u0430\u043D\u043E\u0432\u043B\u0435\u043D\u043E_3"
  - curve:
      serializedVersion: 2
      m_Curve:
      - time: 0
        value: {x: 2.333579, y: -0.02362106, z: 0}
        inSlope: {x: -0.090527534, y: 0.9574737, z: 0}
        outSlope: {x: -0.090527534, y: 0.9574737, z: 0}
        tangentMode: 0
      - time: 0.15
        value: {x: 2.32, y: 0.12, z: 0}
        inSlope: {x: -0.05200947, y: 0.23347628, z: 0}
        outSlope: {x: -0.05200947, y: 0.23347628, z: 0}
        tangentMode: 0
      - time: 0.43333334
        value: {x: 2.3161774, y: -0.01898098, z: 0}
        inSlope: {x: 0.016188262, y: -0.6713757, z: 0}
        outSlope: {x: 0.016188262, y: -0.6713757, z: 0}
        tangentMode: 0
      - time: 0.51666665
        value: {x: 2.3199997, y: -0.09000015, z: 0}
        inSlope: {x: 0.050092705, y: -0.29335696, z: 0}
        outSlope: {x: 0.050092705, y: -0.29335696, z: 0}
        tangentMode: 0
      - time: 0.76666665
        value: {x: 2.333579, y: -0.02362106, z: 0}
        inSlope: {x: 0.054317474, y: 0.26551637, z: 0}
        outSlope: {x: 0.054317474, y: 0.26551637, z: 0}
        tangentMode: 0
      m_PreInfinity: 2
      m_PostInfinity: 2
      m_RotationOrder: 4
    path: "\u043D\u0430\u0440\u0432\u0430\u043B-\u0432\u043E\u0441\u0441\u0442\u0430\u043D\u043E\u0432\u043B\u0435\u043D\u043E_4"
  - curve:
      serializedVersion: 2
      m_Curve:
      - time: 0
        value: {x: 2.885, y: -0.684, z: 0}
        inSlope: {x: -0.8333333, y: 1.4266667, z: 0}
        outSlope: {x: -0.8333333, y: 1.4266667, z: 0}
        tangentMode: 0
      - time: 0.15
        value: {x: 2.76, y: -0.47, z: 0}
        inSlope: {x: -0.39901876, y: 0.57215655, z: 0}
        outSlope: {x: -0.39901876, y: 0.57215655, z: 0}
        tangentMode: 0
      - time: 0.43333334
        value: {x: 2.7700005, y: -0.5500002, z: 0}
        inSlope: {x: 0.70764667, y: -1.3411759, z: 0}
        outSlope: {x: 0.70764667, y: -1.3411759, z: 0}
        tangentMode: 0
      - time: 0.51666665
        value: {x: 2.8850002, y: -0.75, z: 0}
        inSlope: {x: 0.6899983, y: -1.0679991, z: 0}
        outSlope: {x: 0.6899983, y: -1.0679991, z: 0}
        tangentMode: 0
      - time: 0.76666665
        value: {x: 2.885, y: -0.684, z: 0}
        inSlope: {x: -0.0000009536743, y: 0.26399994, z: 0}
        outSlope: {x: -0.0000009536743, y: 0.26399994, z: 0}
        tangentMode: 0
      m_PreInfinity: 2
      m_PostInfinity: 2
      m_RotationOrder: 4
    path: "\u043D\u0430\u0440\u0432\u0430\u043B-\u0432\u043E\u0441\u0441\u0442\u0430\u043D\u043E\u0432\u043B\u0435\u043D\u043E_5
      (1)"
  - curve:
      serializedVersion: 2
      m_Curve:
      - time: 0
        value: {x: 3.159, y: -0.596, z: 0}
        inSlope: {x: 0.07333437, y: 0.77333647, z: 0}
        outSlope: {x: 0.07333437, y: 0.77333647, z: 0}
        tangentMode: 0
      - time: 0.15
        value: {x: 3.17, y: -0.47999954, z: 0}
        inSlope: {x: 0.017255988, y: 0.18196204, z: 0}
        outSlope: {x: 0.017255988, y: 0.18196204, z: 0}
        tangentMode: 0
      - time: 0.43333334
        value: {x: 3.1590004, y: -0.5959997, z: 0}
        inSlope: {x: -0.01941406, y: -0.58870816, z: 0}
        outSlope: {x: -0.01941406, y: -0.58870816, z: 0}
        tangentMode: 0
      - time: 0.51666665
        value: {x: 3.159, y: -0.66, z: 0}
        inSlope: {x: -0.0000028610236, y: -0.25600192, z: 0}
        outSlope: {x: -0.0000028610236, y: -0.25600192, z: 0}
        tangentMode: 0
      - time: 0.76666665
        value: {x: 3.159, y: -0.596, z: 0}
        inSlope: {x: 0, y: 0.25600004, z: 0}
        outSlope: {x: 0, y: 0.25600004, z: 0}
        tangentMode: 0
      m_PreInfinity: 2
      m_PostInfinity: 2
      m_RotationOrder: 4
    path: "\u043D\u0430\u0440\u0432\u0430\u043B-\u0432\u043E\u0441\u0441\u0442\u0430\u043D\u043E\u0432\u043B\u0435\u043D\u043E_5"
  - curve:
      serializedVersion: 2
      m_Curve:
      - time: 0
        value: {x: -0.28999996, y: 0.015000001, z: 0}
        inSlope: {x: 0, y: 0, z: 0}
        outSlope: {x: 0, y: 0, z: 0}
        tangentMode: 0
      - time: 0.15
        value: {x: -0.28999996, y: 0.015000001, z: 0}
        inSlope: {x: 0, y: 0, z: 0}
        outSlope: {x: 0, y: 0, z: 0}
        tangentMode: 0
      - time: 0.43333334
        value: {x: -0.28999996, y: 0.015000001, z: 0}
        inSlope: {x: 0, y: 0, z: 0}
        outSlope: {x: 0, y: 0, z: 0}
        tangentMode: 0
      - time: 0.51666665
        value: {x: -0.28999996, y: 0.015000001, z: 0}
        inSlope: {x: 0, y: 0, z: 0}
        outSlope: {x: 0, y: 0, z: 0}
        tangentMode: 0
      - time: 0.76666665
        value: {x: -0.28999996, y: 0.015000001, z: 0}
        inSlope: {x: 0, y: 0, z: 0}
        outSlope: {x: 0, y: 0, z: 0}
        tangentMode: 0
      m_PreInfinity: 2
      m_PostInfinity: 2
      m_RotationOrder: 4
    path: "\u043D\u0430\u0440\u0432\u0430\u043B-\u0432\u043E\u0441\u0441\u0442\u0430\u043D\u043E\u0432\u043B\u0435\u043D\u043E_4/\u043D\u0430\u0440\u0432\u0430\u043B-\u0432\u043E\u0441\u0441\u0442\u0430\u043D\u043E\u0432\u043B\u0435\u043D\u043E_6"
  m_ScaleCurves:
  - curve:
      serializedVersion: 2
      m_Curve:
      - time: 0
        value: {x: 1.0448883, y: 1, z: 1}
        inSlope: {x: 0.2776106, y: 0, z: 0}
        outSlope: {x: 0.2776106, y: 0, z: 0}
        tangentMode: 0
      - time: 0.15
        value: {x: 1.0865299, y: 1, z: 1}
        inSlope: {x: 0.034587696, y: 0, z: 0}
        outSlope: {x: 0.034587696, y: 0, z: 0}
        tangentMode: 0
      - time: 0.43333334
        value: {x: 1.0274732, y: 1, z: 1}
        inSlope: {x: -0.17212471, y: 0, z: 0}
        outSlope: {x: -0.17212471, y: 0, z: 0}
        tangentMode: 0
      - time: 0.51666665
        value: {x: 1.0161554, y: 1, z: 1}
        inSlope: {x: -0.010441318, y: 0, z: 0}
        outSlope: {x: -0.010441318, y: 0, z: 0}
        tangentMode: 0
      - time: 0.76666665
        value: {x: 1.0448883, y: 1, z: 1}
        inSlope: {x: 0.11493158, y: 0, z: 0}
        outSlope: {x: 0.11493158, y: 0, z: 0}
        tangentMode: 0
      m_PreInfinity: 2
      m_PostInfinity: 2
      m_RotationOrder: 4
    path: "\u043D\u0430\u0440\u0432\u0430\u043B-\u0432\u043E\u0441\u0441\u0442\u0430\u043D\u043E\u0432\u043B\u0435\u043D\u043E_0"
  - curve:
      serializedVersion: 2
      m_Curve:
      - time: 0
        value: {x: 1, y: 1.2259566, z: 1}
        inSlope: {x: 0, y: -0.839506, z: 0}
        outSlope: {x: 0, y: -0.839506, z: 0}
        tangentMode: 0
      - time: 0.15
        value: {x: 1, y: 1.1000307, z: 1}
        inSlope: {x: 0, y: -0.5314679, z: 0}
        outSlope: {x: 0, y: -0.5314679, z: 0}
        tangentMode: 0
      - time: 0.43333334
        value: {x: 1, y: 1.0367255, z: 1}
        inSlope: {x: 0, y: 0.26811597, z: 0}
        outSlope: {x: 0, y: 0.26811597, z: 0}
        tangentMode: 0
      - time: 0.51666665
        value: {x: 1, y: 1.1000307, z: 1}
        inSlope: {x: 0, y: 0.63168275, z: 0}
        outSlope: {x: 0, y: 0.63168275, z: 0}
        tangentMode: 0
      - time: 0.76666665
        value: {x: 1, y: 1.2259566, z: 1}
        inSlope: {x: 0, y: 0.5037036, z: 0}
        outSlope: {x: 0, y: 0.5037036, z: 0}
        tangentMode: 0
      m_PreInfinity: 2
      m_PostInfinity: 2
      m_RotationOrder: 4
    path: "\u043D\u0430\u0440\u0432\u0430\u043B-\u0432\u043E\u0441\u0441\u0442\u0430\u043D\u043E\u0432\u043B\u0435\u043D\u043E_2"
  - curve:
      serializedVersion: 2
      m_Curve:
      - time: 0
        value: {x: 1.0434327, y: 1.009888, z: 1}
        inSlope: {x: 0.12513478, y: 0.0069260593, z: 0}
        outSlope: {x: 0.12513478, y: 0.0069260593, z: 0}
        tangentMode: 0
      - time: 0.15
        value: {x: 1.0622029, y: 1.010927, z: 1}
        inSlope: {x: 0.07189264, y: -0.039521, z: 0}
        outSlope: {x: 0.07189264, y: -0.039521, z: 0}
        tangentMode: 0
      - time: 0.43333334
        value: {x: 1.0674872, y: 0.98656934, z: 1}
        inSlope: {x: -0.022380613, y: -0.07413629, z: 0}
        outSlope: {x: -0.022380613, y: -0.07413629, z: 0}
        tangentMode: 0
      - time: 0.51666665
        value: {x: 1.0622029, y: 0.9813773, z: 1}
        inSlope: {x: -0.0692463, y: 0.025869243, z: 0}
        outSlope: {x: -0.0692463, y: 0.025869243, z: 0}
        tangentMode: 0
      - time: 0.76666665
        value: {x: 1.0434327, y: 1.009888, z: 1}
        inSlope: {x: -0.07508087, y: 0.114043, z: 0}
        outSlope: {x: -0.07508087, y: 0.114043, z: 0}
        tangentMode: 0
      m_PreInfinity: 2
      m_PostInfinity: 2
      m_RotationOrder: 4
    path: "\u043D\u0430\u0440\u0432\u0430\u043B-\u0432\u043E\u0441\u0441\u0442\u0430\u043D\u043E\u0432\u043B\u0435\u043D\u043E_3"
  - curve:
      serializedVersion: 2
      m_Curve:
      - time: 0
        value: {x: 1.0301608, y: 1, z: 1}
        inSlope: {x: 0.08689721, y: 0, z: 0}
        outSlope: {x: 0.08689721, y: 0, z: 0}
        tangentMode: 0
      - time: 0.15
        value: {x: 1.0431954, y: 1, z: 1}
        inSlope: {x: 0.049924195, y: 0, z: 0}
        outSlope: {x: 0.049924195, y: 0, z: 0}
        tangentMode: 0
      - time: 0.43333334
        value: {x: 1.0468649, y: 1, z: 1}
        inSlope: {x: -0.015541419, y: 0, z: 0}
        outSlope: {x: -0.015541419, y: 0, z: 0}
        tangentMode: 0
      - time: 0.51666665
        value: {x: 1.0431954, y: 1, z: 1}
        inSlope: {x: -0.048086174, y: 0, z: 0}
        outSlope: {x: -0.048086174, y: 0, z: 0}
        tangentMode: 0
      - time: 0.76666665
        value: {x: 1.0301608, y: 1, z: 1}
        inSlope: {x: -0.05213833, y: 0, z: 0}
        outSlope: {x: -0.05213833, y: 0, z: 0}
        tangentMode: 0
      m_PreInfinity: 2
      m_PostInfinity: 2
      m_RotationOrder: 4
    path: "\u043D\u0430\u0440\u0432\u0430\u043B-\u0432\u043E\u0441\u0441\u0442\u0430\u043D\u043E\u0432\u043B\u0435\u043D\u043E_4"
  - curve:
      serializedVersion: 2
      m_Curve:
      - time: 0
        value: {x: 1.0134692, y: 0.8514257, z: 1}
        inSlope: {x: 0, y: -0.5354667, z: 0}
        outSlope: {x: 0, y: -0.5354667, z: 0}
        tangentMode: 0
      - time: 0.15
        value: {x: 1.0134692, y: 0.7711057, z: 1}
        inSlope: {x: 0, y: -0.12599216, z: 0}
        outSlope: {x: 0, y: -0.12599216, z: 0}
        tangentMode: 0
      - time: 0.43333334
        value: {x: 1.0134692, y: 0.8514257, z: 1}
        inSlope: {x: 0, y: 0.14174117, z: 0}
        outSlope: {x: 0, y: 0.14174117, z: 0}
        tangentMode: 0
      - time: 0.51666665
        value: {x: 1.0134692, y: 0.8514257, z: 1}
        inSlope: {x: 0, y: 0, z: 0}
        outSlope: {x: 0, y: 0, z: 0}
        tangentMode: 0
      - time: 0.76666665
        value: {x: 1.0134692, y: 0.8514257, z: 1}
        inSlope: {x: 0, y: 0, z: 0}
        outSlope: {x: 0, y: 0, z: 0}
        tangentMode: 0
      m_PreInfinity: 2
      m_PostInfinity: 2
      m_RotationOrder: 4
    path: "\u043D\u0430\u0440\u0432\u0430\u043B-\u0432\u043E\u0441\u0441\u0442\u0430\u043D\u043E\u0432\u043B\u0435\u043D\u043E_5
      (1)"
  - curve:
      serializedVersion: 2
      m_Curve:
      - time: 0
        value: {x: 1, y: 1, z: 1}
        inSlope: {x: 0, y: 0.66717386, z: 0}
        outSlope: {x: 0, y: 0.66717386, z: 0}
        tangentMode: 0
      - time: 0.15
        value: {x: 1, y: 1.1000761, z: 1}
        inSlope: {x: 0, y: 0.15698208, z: 0}
        outSlope: {x: 0, y: 0.15698208, z: 0}
        tangentMode: 0
      - time: 0.43333334
        value: {x: 1, y: 1, z: 1}
        inSlope: {x: 0, y: -0.17660485, z: 0}
        outSlope: {x: 0, y: -0.17660485, z: 0}
        tangentMode: 0
      - time: 0.51666665
        value: {x: 1, y: 1, z: 1}
        inSlope: {x: 0, y: 0, z: 0}
        outSlope: {x: 0, y: 0, z: 0}
        tangentMode: 0
      - time: 0.76666665
        value: {x: 1, y: 1, z: 1}
        inSlope: {x: 0, y: 0, z: 0}
        outSlope: {x: 0, y: 0, z: 0}
        tangentMode: 0
      m_PreInfinity: 2
      m_PostInfinity: 2
      m_RotationOrder: 4
    path: "\u043D\u0430\u0440\u0432\u0430\u043B-\u0432\u043E\u0441\u0441\u0442\u0430\u043D\u043E\u0432\u043B\u0435\u043D\u043E_5"
  - curve:
      serializedVersion: 2
      m_Curve:
      - time: 0
        value: {x: 0.6538142, y: 0.6538142, z: 0.6538142}
        inSlope: {x: 0, y: 0, z: 0}
        outSlope: {x: 0, y: 0, z: 0}
        tangentMode: 0
      - time: 0.15
        value: {x: 0.6538142, y: 0.6538142, z: 0.6538142}
        inSlope: {x: 0, y: 0, z: 0}
        outSlope: {x: 0, y: 0, z: 0}
        tangentMode: 0
      - time: 0.43333334
        value: {x: 0.6538142, y: 0.6538142, z: 0.6538142}
        inSlope: {x: 0, y: 0, z: 0}
        outSlope: {x: 0, y: 0, z: 0}
        tangentMode: 0
      - time: 0.51666665
        value: {x: 0.6538142, y: 0.6538142, z: 0.6538142}
        inSlope: {x: 0, y: 0, z: 0}
        outSlope: {x: 0, y: 0, z: 0}
        tangentMode: 0
      - time: 0.76666665
        value: {x: 0.6538142, y: 0.6538142, z: 0.6538142}
        inSlope: {x: 0, y: 0, z: 0}
        outSlope: {x: 0, y: 0, z: 0}
        tangentMode: 0
      m_PreInfinity: 2
      m_PostInfinity: 2
      m_RotationOrder: 4
    path: "\u043D\u0430\u0440\u0432\u0430\u043B-\u0432\u043E\u0441\u0441\u0442\u0430\u043D\u043E\u0432\u043B\u0435\u043D\u043E_4/\u043D\u0430\u0440\u0432\u0430\u043B-\u0432\u043E\u0441\u0441\u0442\u0430\u043D\u043E\u0432\u043B\u0435\u043D\u043E_6"
  m_FloatCurves: []
  m_PPtrCurves: []
  m_SampleRate: 60
  m_WrapMode: 0
  m_Bounds:
    m_Center: {x: 0, y: 0, z: 0}
    m_Extent: {x: 0, y: 0, z: 0}
  m_ClipBindingConstant:
    genericBindings:
    - path: 1648128681
      attribute: 1
      script: {fileID: 0}
      classID: 4
      customType: 0
      isPPtrCurve: 0
    - path: 2352092037
      attribute: 1
      script: {fileID: 0}
      classID: 4
      customType: 0
      isPPtrCurve: 0
    - path: 4214563603
      attribute: 1
      script: {fileID: 0}
      classID: 4
      customType: 0
      isPPtrCurve: 0
    - path: 1699854000
      attribute: 1
      script: {fileID: 0}
      classID: 4
      customType: 0
      isPPtrCurve: 0
    - path: 1283384558
      attribute: 1
      script: {fileID: 0}
      classID: 4
      customType: 0
      isPPtrCurve: 0
    - path: 307660326
      attribute: 1
      script: {fileID: 0}
      classID: 4
      customType: 0
      isPPtrCurve: 0
    - path: 2352092037
      attribute: 4
      script: {fileID: 0}
      classID: 4
      customType: 14
      isPPtrCurve: 0
    - path: 4214563603
      attribute: 4
      script: {fileID: 0}
      classID: 4
      customType: 14
      isPPtrCurve: 0
    - path: 1699854000
      attribute: 4
      script: {fileID: 0}
      classID: 4
      customType: 14
      isPPtrCurve: 0
    - path: 1283384558
      attribute: 4
      script: {fileID: 0}
      classID: 4
      customType: 14
      isPPtrCurve: 0
    - path: 307660326
      attribute: 4
      script: {fileID: 0}
      classID: 4
      customType: 14
      isPPtrCurve: 0
    - path: 1648128681
      attribute: 3
      script: {fileID: 0}
      classID: 4
      customType: 0
      isPPtrCurve: 0
    - path: 2352092037
      attribute: 3
      script: {fileID: 0}
      classID: 4
      customType: 0
      isPPtrCurve: 0
    - path: 4214563603
      attribute: 3
      script: {fileID: 0}
      classID: 4
      customType: 0
      isPPtrCurve: 0
    - path: 1699854000
      attribute: 3
      script: {fileID: 0}
      classID: 4
      customType: 0
      isPPtrCurve: 0
    - path: 1283384558
      attribute: 3
      script: {fileID: 0}
      classID: 4
      customType: 0
      isPPtrCurve: 0
    - path: 307660326
      attribute: 3
      script: {fileID: 0}
      classID: 4
      customType: 0
      isPPtrCurve: 0
    - path: 598754233
      attribute: 1
      script: {fileID: 0}
      classID: 4
      customType: 0
      isPPtrCurve: 0
    - path: 1648128681
      attribute: 4
      script: {fileID: 0}
      classID: 4
      customType: 14
      isPPtrCurve: 0
    - path: 598754233
      attribute: 4
      script: {fileID: 0}
      classID: 4
      customType: 14
      isPPtrCurve: 0
    - path: 598754233
      attribute: 3
      script: {fileID: 0}
      classID: 4
      customType: 0
      isPPtrCurve: 0
    pptrCurveMapping: []
  m_AnimationClipSettings:
    serializedVersion: 2
    m_AdditiveReferencePoseClip: {fileID: 0}
    m_AdditiveReferencePoseTime: 0
    m_StartTime: 0
    m_StopTime: 0.76666665
    m_OrientationOffsetY: 0
    m_Level: 0
    m_CycleOffset: 0
    m_HasAdditiveReferencePose: 0
    m_LoopTime: 1
    m_LoopBlend: 0
    m_LoopBlendOrientation: 0
    m_LoopBlendPositionY: 0
    m_LoopBlendPositionXZ: 0
    m_KeepOriginalOrientation: 0
    m_KeepOriginalPositionY: 1
    m_KeepOriginalPositionXZ: 0
    m_HeightFromFeet: 0
    m_Mirror: 0
  m_EditorCurves:
  - curve:
      serializedVersion: 2
      m_Curve:
      - time: 0
        value: 3.6354291
        inSlope: 0.16380627
        outSlope: 0.16380627
        tangentMode: 10
      - time: 0.15
        value: 3.66
        inSlope: -0.055234946
        outSlope: -0.055234946
        tangentMode: 10
      - time: 0.43333334
        value: 3.5822885
        inSlope: -0.15086956
        outSlope: -0.15086956
        tangentMode: 10
      - time: 0.51666665
        value: 3.58
        inSlope: 0.09712696
        outSlope: 0.09712696
        tangentMode: 10
      - time: 0.76666665
        value: 3.6354291
        inSlope: 0.22171688
        outSlope: 0.22171688
        tangentMode: 10
      m_PreInfinity: 2
      m_PostInfinity: 2
      m_RotationOrder: 4
    attribute: m_LocalPosition.x
    path: "\u043D\u0430\u0440\u0432\u0430\u043B-\u0432\u043E\u0441\u0441\u0442\u0430\u043D\u043E\u0432\u043B\u0435\u043D\u043E_0"
    classID: 4
    script: {fileID: 0}
  - curve:
      serializedVersion: 2
      m_Curve:
      - time: 0
        value: -0.20092502
        inSlope: 0.9395001
        outSlope: 0.9395001
        tangentMode: 10
      - time: 0.15
        value: -0.06
        inSlope: 0.25259286
        outSlope: 0.25259286
        tangentMode: 10
      - time: 0.43333334
        value: -0.18305574
        inSlope: -0.6188228
        outSlope: -0.6188228
        tangentMode: 10
      - time: 0.51666665
        value: -0.25
        inSlope: -0.30351567
        outSlope: -0.30351567
        tangentMode: 10
      - time: 0.76666665
        value: -0.20092502
        inSlope: 0.19629991
        outSlope: 0.19629991
        tangentMode: 10
      m_PreInfinity: 2
      m_PostInfinity: 2
      m_RotationOrder: 4
    attribute: m_LocalPosition.y
    path: "\u043D\u0430\u0440\u0432\u0430\u043B-\u0432\u043E\u0441\u0441\u0442\u0430\u043D\u043E\u0432\u043B\u0435\u043D\u043E_0"
    classID: 4
    script: {fileID: 0}
  - curve:
      serializedVersion: 2
      m_Curve:
      - time: 0
        value: 0
        inSlope: 0
        outSlope: 0
        tangentMode: 10
      - time: 0.15
        value: 0
        inSlope: 0
        outSlope: 0
        tangentMode: 10
      - time: 0.43333334
        value: 0
        inSlope: 0
        outSlope: 0
        tangentMode: 10
      - time: 0.51666665
        value: 0
        inSlope: 0
        outSlope: 0
        tangentMode: 10
      - time: 0.76666665
        value: 0
        inSlope: 0
        outSlope: 0
        tangentMode: 10
      m_PreInfinity: 2
      m_PostInfinity: 2
      m_RotationOrder: 4
    attribute: m_LocalPosition.z
    path: "\u043D\u0430\u0440\u0432\u0430\u043B-\u0432\u043E\u0441\u0441\u0442\u0430\u043D\u043E\u0432\u043B\u0435\u043D\u043E_0"
    classID: 4
    script: {fileID: 0}
  - curve:
      serializedVersion: 2
      m_Curve:
      - time: 0
        value: 0
        inSlope: -0
        outSlope: -0
        tangentMode: 10
      - time: 0.15
        value: -0
        inSlope: 0
        outSlope: 0
        tangentMode: 10
      - time: 0.43333334
        value: 0
        inSlope: 0
        outSlope: 0
        tangentMode: 10
      - time: 0.51666665
        value: 0
        inSlope: 0
        outSlope: 0
        tangentMode: 10
      - time: 0.76666665
        value: 0
        inSlope: 0
        outSlope: 0
        tangentMode: 10
      m_PreInfinity: 2
      m_PostInfinity: 2
      m_RotationOrder: 4
    attribute: localEulerAnglesRaw.x
    path: "\u043D\u0430\u0440\u0432\u0430\u043B-\u0432\u043E\u0441\u0441\u0442\u0430\u043D\u043E\u0432\u043B\u0435\u043D\u043E_0"
    classID: 4
    script: {fileID: 0}
  - curve:
      serializedVersion: 2
      m_Curve:
      - time: 0
        value: 0
        inSlope: -0
        outSlope: -0
        tangentMode: 10
      - time: 0.15
        value: -0
        inSlope: 0
        outSlope: 0
        tangentMode: 10
      - time: 0.43333334
        value: 0
        inSlope: 0
        outSlope: 0
        tangentMode: 10
      - time: 0.51666665
        value: 0
        inSlope: 0
        outSlope: 0
        tangentMode: 10
      - time: 0.76666665
        value: 0
        inSlope: 0
        outSlope: 0
        tangentMode: 10
      m_PreInfinity: 2
      m_PostInfinity: 2
      m_RotationOrder: 4
    attribute: localEulerAnglesRaw.y
    path: "\u043D\u0430\u0440\u0432\u0430\u043B-\u0432\u043E\u0441\u0441\u0442\u0430\u043D\u043E\u0432\u043B\u0435\u043D\u043E_0"
    classID: 4
    script: {fileID: 0}
  - curve:
      serializedVersion: 2
      m_Curve:
      - time: 0
        value: 0.17
        inSlope: 0
        outSlope: 0
        tangentMode: 10
      - time: 0.15
        value: 0.17
        inSlope: 0
        outSlope: 0
        tangentMode: 10
      - time: 0.43333334
        value: 0.17
        inSlope: 0
        outSlope: 0
        tangentMode: 10
      - time: 0.51666665
        value: 0.17
        inSlope: 0
        outSlope: 0
        tangentMode: 10
      - time: 0.76666665
        value: 0.17
        inSlope: 0
        outSlope: 0
        tangentMode: 10
      m_PreInfinity: 2
      m_PostInfinity: 2
      m_RotationOrder: 4
    attribute: localEulerAnglesRaw.z
    path: "\u043D\u0430\u0440\u0432\u0430\u043B-\u0432\u043E\u0441\u0441\u0442\u0430\u043D\u043E\u0432\u043B\u0435\u043D\u043E_0"
    classID: 4
    script: {fileID: 0}
  - curve:
      serializedVersion: 2
      m_Curve:
      - time: 0
        value: 1.0448883
        inSlope: 0.2776106
        outSlope: 0.2776106
        tangentMode: 10
      - time: 0.15
        value: 1.0865299
        inSlope: 0.034587696
        outSlope: 0.034587696
        tangentMode: 10
      - time: 0.43333334
        value: 1.0274732
        inSlope: -0.17212471
        outSlope: -0.17212471
        tangentMode: 10
      - time: 0.51666665
        value: 1.0161554
        inSlope: -0.010441318
        outSlope: -0.010441318
        tangentMode: 10
      - time: 0.76666665
        value: 1.0448883
        inSlope: 0.11493158
        outSlope: 0.11493158
        tangentMode: 10
      m_PreInfinity: 2
      m_PostInfinity: 2
      m_RotationOrder: 4
    attribute: m_LocalScale.x
    path: "\u043D\u0430\u0440\u0432\u0430\u043B-\u0432\u043E\u0441\u0441\u0442\u0430\u043D\u043E\u0432\u043B\u0435\u043D\u043E_0"
    classID: 4
    script: {fileID: 0}
  - curve:
      serializedVersion: 2
      m_Curve:
      - time: 0
        value: 1
        inSlope: 0
        outSlope: 0
        tangentMode: 10
      - time: 0.15
        value: 1
        inSlope: 0
        outSlope: 0
        tangentMode: 10
      - time: 0.43333334
        value: 1
        inSlope: 0
        outSlope: 0
        tangentMode: 10
      - time: 0.51666665
        value: 1
        inSlope: 0
        outSlope: 0
        tangentMode: 10
      - time: 0.76666665
        value: 1
        inSlope: 0
        outSlope: 0
        tangentMode: 10
      m_PreInfinity: 2
      m_PostInfinity: 2
      m_RotationOrder: 4
    attribute: m_LocalScale.y
    path: "\u043D\u0430\u0440\u0432\u0430\u043B-\u0432\u043E\u0441\u0441\u0442\u0430\u043D\u043E\u0432\u043B\u0435\u043D\u043E_0"
    classID: 4
    script: {fileID: 0}
  - curve:
      serializedVersion: 2
      m_Curve:
      - time: 0
        value: 1
        inSlope: 0
        outSlope: 0
        tangentMode: 10
      - time: 0.15
        value: 1
        inSlope: 0
        outSlope: 0
        tangentMode: 10
      - time: 0.43333334
        value: 1
        inSlope: 0
        outSlope: 0
        tangentMode: 10
      - time: 0.51666665
        value: 1
        inSlope: 0
        outSlope: 0
        tangentMode: 10
      - time: 0.76666665
        value: 1
        inSlope: 0
        outSlope: 0
        tangentMode: 10
      m_PreInfinity: 2
      m_PostInfinity: 2
      m_RotationOrder: 4
    attribute: m_LocalScale.z
    path: "\u043D\u0430\u0440\u0432\u0430\u043B-\u0432\u043E\u0441\u0441\u0442\u0430\u043D\u043E\u0432\u043B\u0435\u043D\u043E_0"
    classID: 4
    script: {fileID: 0}
  - curve:
      serializedVersion: 2
      m_Curve:
      - time: 0
        value: 6.98
        inSlope: 0.2666664
        outSlope: 0.2666664
        tangentMode: 10
      - time: 0.15
        value: 7.02
        inSlope: -0.18431357
        outSlope: -0.18431357
        tangentMode: 10
      - time: 0.43333334
        value: 6.84
        inSlope: 0.16235289
        outSlope: 0.16235289
        tangentMode: 10
      - time: 0.51666665
        value: 6.92
        inSlope: 0.59999955
        outSlope: 0.59999955
        tangentMode: 10
      - time: 0.76666665
        value: 6.98
        inSlope: 0.23999977
        outSlope: 0.23999977
        tangentMode: 10
      m_PreInfinity: 2
      m_PostInfinity: 2
      m_RotationOrder: 4
    attribute: m_LocalPosition.x
    path: "\u043D\u0430\u0440\u0432\u0430\u043B-\u0432\u043E\u0441\u0441\u0442\u0430\u043D\u043E\u0432\u043B\u0435\u043D\u043E_2"
    classID: 4
    script: {fileID: 0}
  - curve:
      serializedVersion: 2
      m_Curve:
      - time: 0
        value: -0.39
        inSlope: 0.2666666
        outSlope: 0.2666666
        tangentMode: 10
      - time: 0.15
        value: -0.35
        inSlope: 0.62745094
        outSlope: 0.62745094
        tangentMode: 10
      - time: 0.43333334
        value: -0.07
        inSlope: 1.0341178
        outSlope: 1.0341178
        tangentMode: 10
      - time: 0.51666665
        value: 0.02
        inSlope: -0.27999985
        outSlope: -0.27999985
        tangentMode: 10
      - time: 0.76666665
        value: -0.39
        inSlope: -1.64
        outSlope: -1.64
        tangentMode: 10
      m_PreInfinity: 2
      m_PostInfinity: 2
      m_RotationOrder: 4
    attribute: m_LocalPosition.y
    path: "\u043D\u0430\u0440\u0432\u0430\u043B-\u0432\u043E\u0441\u0441\u0442\u0430\u043D\u043E\u0432\u043B\u0435\u043D\u043E_2"
    classID: 4
    script: {fileID: 0}
  - curve:
      serializedVersion: 2
      m_Curve:
      - time: 0
        value: 0
        inSlope: 0
        outSlope: 0
        tangentMode: 10
      - time: 0.15
        value: 0
        inSlope: 0
        outSlope: 0
        tangentMode: 10
      - time: 0.43333334
        value: 0
        inSlope: 0
        outSlope: 0
        tangentMode: 10
      - time: 0.51666665
        value: 0
        inSlope: 0
        outSlope: 0
        tangentMode: 10
      - time: 0.76666665
        value: 0
        inSlope: 0
        outSlope: 0
        tangentMode: 10
      m_PreInfinity: 2
      m_PostInfinity: 2
      m_RotationOrder: 4
    attribute: m_LocalPosition.z
    path: "\u043D\u0430\u0440\u0432\u0430\u043B-\u0432\u043E\u0441\u0441\u0442\u0430\u043D\u043E\u0432\u043B\u0435\u043D\u043E_2"
    classID: 4
    script: {fileID: 0}
  - curve:
      serializedVersion: 2
      m_Curve:
      - time: 0
        value: 0
        inSlope: 0
        outSlope: 0
        tangentMode: 10
      - time: 0.15
        value: 0
        inSlope: 0
        outSlope: 0
        tangentMode: 10
      - time: 0.43333334
        value: 0
        inSlope: 0
        outSlope: 0
        tangentMode: 10
      - time: 0.51666665
        value: 0
        inSlope: 0
        outSlope: 0
        tangentMode: 10
      - time: 0.76666665
        value: 0
        inSlope: 0
        outSlope: 0
        tangentMode: 10
      m_PreInfinity: 2
      m_PostInfinity: 2
      m_RotationOrder: 4
    attribute: localEulerAnglesRaw.x
    path: "\u043D\u0430\u0440\u0432\u0430\u043B-\u0432\u043E\u0441\u0441\u0442\u0430\u043D\u043E\u0432\u043B\u0435\u043D\u043E_2"
    classID: 4
    script: {fileID: 0}
  - curve:
      serializedVersion: 2
      m_Curve:
      - time: 0
        value: 0
        inSlope: 0
        outSlope: 0
        tangentMode: 10
      - time: 0.15
        value: 0
        inSlope: 0
        outSlope: 0
        tangentMode: 10
      - time: 0.43333334
        value: 0
        inSlope: 0
        outSlope: 0
        tangentMode: 10
      - time: 0.51666665
        value: 0
        inSlope: 0
        outSlope: 0
        tangentMode: 10
      - time: 0.76666665
        value: 0
        inSlope: 0
        outSlope: 0
        tangentMode: 10
      m_PreInfinity: 2
      m_PostInfinity: 2
      m_RotationOrder: 4
    attribute: localEulerAnglesRaw.y
    path: "\u043D\u0430\u0440\u0432\u0430\u043B-\u0432\u043E\u0441\u0441\u0442\u0430\u043D\u043E\u0432\u043B\u0435\u043D\u043E_2"
    classID: 4
    script: {fileID: 0}
  - curve:
      serializedVersion: 2
      m_Curve:
      - time: 0
        value: 131.3611
        inSlope: -249.86266
        outSlope: -249.86266
        tangentMode: 10
      - time: 0.15
        value: 93.8817
        inSlope: -109.06892
        outSlope: -109.06892
        tangentMode: 10
      - time: 0.43333334
        value: 102.8704
        inSlope: 191.94743
        outSlope: 191.94743
        tangentMode: 10
      - time: 0.51666665
        value: 132.2179
        inSlope: 174.37143
        outSlope: 174.37143
        tangentMode: 10
      - time: 0.76666665
        value: 131.3611
        inSlope: -3.427185
        outSlope: -3.427185
        tangentMode: 10
      m_PreInfinity: 2
      m_PostInfinity: 2
      m_RotationOrder: 4
    attribute: localEulerAnglesRaw.z
    path: "\u043D\u0430\u0440\u0432\u0430\u043B-\u0432\u043E\u0441\u0441\u0442\u0430\u043D\u043E\u0432\u043B\u0435\u043D\u043E_2"
    classID: 4
    script: {fileID: 0}
  - curve:
      serializedVersion: 2
      m_Curve:
      - time: 0
        value: 1
        inSlope: 0
        outSlope: 0
        tangentMode: 10
      - time: 0.15
        value: 1
        inSlope: 0
        outSlope: 0
        tangentMode: 10
      - time: 0.43333334
        value: 1
        inSlope: 0
        outSlope: 0
        tangentMode: 10
      - time: 0.51666665
        value: 1
        inSlope: 0
        outSlope: 0
        tangentMode: 10
      - time: 0.76666665
        value: 1
        inSlope: 0
        outSlope: 0
        tangentMode: 10
      m_PreInfinity: 2
      m_PostInfinity: 2
      m_RotationOrder: 4
    attribute: m_LocalScale.x
    path: "\u043D\u0430\u0440\u0432\u0430\u043B-\u0432\u043E\u0441\u0441\u0442\u0430\u043D\u043E\u0432\u043B\u0435\u043D\u043E_2"
    classID: 4
    script: {fileID: 0}
  - curve:
      serializedVersion: 2
      m_Curve:
      - time: 0
        value: 1.2259566
        inSlope: -0.839506
        outSlope: -0.839506
        tangentMode: 10
      - time: 0.15
        value: 1.1000307
        inSlope: -0.5314679
        outSlope: -0.5314679
        tangentMode: 10
      - time: 0.43333334
        value: 1.0367255
        inSlope: 0.26811597
        outSlope: 0.26811597
        tangentMode: 10
      - time: 0.51666665
        value: 1.1000307
        inSlope: 0.63168275
        outSlope: 0.63168275
        tangentMode: 10
      - time: 0.76666665
        value: 1.2259566
        inSlope: 0.5037036
        outSlope: 0.5037036
        tangentMode: 10
      m_PreInfinity: 2
      m_PostInfinity: 2
      m_RotationOrder: 4
    attribute: m_LocalScale.y
    path: "\u043D\u0430\u0440\u0432\u0430\u043B-\u0432\u043E\u0441\u0441\u0442\u0430\u043D\u043E\u0432\u043B\u0435\u043D\u043E_2"
    classID: 4
    script: {fileID: 0}
  - curve:
      serializedVersion: 2
      m_Curve:
      - time: 0
        value: 1
        inSlope: 0
        outSlope: 0
        tangentMode: 10
      - time: 0.15
        value: 1
        inSlope: 0
        outSlope: 0
        tangentMode: 10
      - time: 0.43333334
        value: 1
        inSlope: 0
        outSlope: 0
        tangentMode: 10
      - time: 0.51666665
        value: 1
        inSlope: 0
        outSlope: 0
        tangentMode: 10
      - time: 0.76666665
        value: 1
        inSlope: 0
        outSlope: 0
        tangentMode: 10
      m_PreInfinity: 2
      m_PostInfinity: 2
      m_RotationOrder: 4
    attribute: m_LocalScale.z
    path: "\u043D\u0430\u0440\u0432\u0430\u043B-\u0432\u043E\u0441\u0441\u0442\u0430\u043D\u043E\u0432\u043B\u0435\u043D\u043E_2"
    classID: 4
    script: {fileID: 0}
  - curve:
      serializedVersion: 2
      m_Curve:
      - time: 0
        value: 5.0680456
        inSlope: 0.479695
        outSlope: 0.479695
        tangentMode: 10
      - time: 0.15
        value: 5.14
        inSlope: 0.021069273
        outSlope: 0.021069273
        tangentMode: 10
      - time: 0.43333334
        value: 5.0160255
        inSlope: -0.2549301
        outSlope: -0.2549301
        tangentMode: 10
      - time: 0.51666665
        value: 5.01
        inSlope: 0.07993888
        outSlope: 0.07993888
        tangentMode: 10
      - time: 0.76666665
        value: 5.0680456
        inSlope: 0.23218155
        outSlope: 0.23218155
        tangentMode: 10
      m_PreInfinity: 2
      m_PostInfinity: 2
      m_RotationOrder: 4
    attribute: m_LocalPosition.x
    path: "\u043D\u0430\u0440\u0432\u0430\u043B-\u0432\u043E\u0441\u0441\u0442\u0430\u043D\u043E\u0432\u043B\u0435\u043D\u043E_3"
    classID: 4
    script: {fileID: 0}
  - curve:
      serializedVersion: 2
      m_Curve:
      - time: 0
        value: -0.3034403
        inSlope: 0.88960195
        outSlope: 0.88960195
        tangentMode: 10
      - time: 0.15
        value: -0.17
        inSlope: 0.3122516
        outSlope: 0.3122516
        tangentMode: 10
      - time: 0.43333334
        value: -0.24511132
        inSlope: -0.46188164
        outSlope: -0.46188164
        tangentMode: 10
      - time: 0.51666665
        value: -0.3
        inSlope: -0.33621284
        outSlope: -0.33621284
        tangentMode: 10
      - time: 0.76666665
        value: -0.3034403
        inSlope: -0.013761163
        outSlope: -0.013761163
        tangentMode: 10
      m_PreInfinity: 2
      m_PostInfinity: 2
      m_RotationOrder: 4
    attribute: m_LocalPosition.y
    path: "\u043D\u0430\u0440\u0432\u0430\u043B-\u0432\u043E\u0441\u0441\u0442\u0430\u043D\u043E\u0432\u043B\u0435\u043D\u043E_3"
    classID: 4
    script: {fileID: 0}
  - curve:
      serializedVersion: 2
      m_Curve:
      - time: 0
        value: 0
        inSlope: 0
        outSlope: 0
        tangentMode: 10
      - time: 0.15
        value: 0
        inSlope: 0
        outSlope: 0
        tangentMode: 10
      - time: 0.43333334
        value: 0
        inSlope: 0
        outSlope: 0
        tangentMode: 10
      - time: 0.51666665
        value: 0
        inSlope: 0
        outSlope: 0
        tangentMode: 10
      - time: 0.76666665
        value: 0
        inSlope: 0
        outSlope: 0
        tangentMode: 10
      m_PreInfinity: 2
      m_PostInfinity: 2
      m_RotationOrder: 4
    attribute: m_LocalPosition.z
    path: "\u043D\u0430\u0440\u0432\u0430\u043B-\u0432\u043E\u0441\u0441\u0442\u0430\u043D\u043E\u0432\u043B\u0435\u043D\u043E_3"
    classID: 4
    script: {fileID: 0}
  - curve:
      serializedVersion: 2
      m_Curve:
      - time: 0
        value: 0
        inSlope: 0
        outSlope: 0
        tangentMode: 10
      - time: 0.15
        value: 0
        inSlope: 0
        outSlope: 0
        tangentMode: 10
      - time: 0.43333334
        value: 0
        inSlope: 0
        outSlope: 0
        tangentMode: 10
      - time: 0.51666665
        value: 0
        inSlope: 0
        outSlope: 0
        tangentMode: 10
      - time: 0.76666665
        value: 0
        inSlope: 0
        outSlope: 0
        tangentMode: 10
      m_PreInfinity: 2
      m_PostInfinity: 2
      m_RotationOrder: 4
    attribute: localEulerAnglesRaw.x
    path: "\u043D\u0430\u0440\u0432\u0430\u043B-\u0432\u043E\u0441\u0441\u0442\u0430\u043D\u043E\u0432\u043B\u0435\u043D\u043E_3"
    classID: 4
    script: {fileID: 0}
  - curve:
      serializedVersion: 2
      m_Curve:
      - time: 0
        value: 0
        inSlope: 0
        outSlope: 0
        tangentMode: 10
      - time: 0.15
        value: 0
        inSlope: 0
        outSlope: 0
        tangentMode: 10
      - time: 0.43333334
        value: 0
        inSlope: 0
        outSlope: 0
        tangentMode: 10
      - time: 0.51666665
        value: 0
        inSlope: 0
        outSlope: 0
        tangentMode: 10
      - time: 0.76666665
        value: 0
        inSlope: 0
        outSlope: 0
        tangentMode: 10
      m_PreInfinity: 2
      m_PostInfinity: 2
      m_RotationOrder: 4
    attribute: localEulerAnglesRaw.y
    path: "\u043D\u0430\u0440\u0432\u0430\u043B-\u0432\u043E\u0441\u0441\u0442\u0430\u043D\u043E\u0432\u043B\u0435\u043D\u043E_3"
    classID: 4
    script: {fileID: 0}
  - curve:
      serializedVersion: 2
      m_Curve:
      - time: 0
        value: -6.9298553
        inSlope: -9.990965
        outSlope: -9.990965
        tangentMode: 10
      - time: 0.15
        value: -8.4285
        inSlope: 15.371137
        outSlope: 15.371137
        tangentMode: 10
      - time: 0.43333334
        value: 3.112584
        inSlope: 37.164917
        outSlope: 37.164917
        tangentMode: 10
      - time: 0.51666665
        value: 5.9122996
        inSlope: -8.886013
        outSlope: -8.886013
        tangentMode: 10
      - time: 0.76666665
        value: -6.9298553
        inSlope: -51.36862
        outSlope: -51.36862
        tangentMode: 10
      m_PreInfinity: 2
      m_PostInfinity: 2
      m_RotationOrder: 4
    attribute: localEulerAnglesRaw.z
    path: "\u043D\u0430\u0440\u0432\u0430\u043B-\u0432\u043E\u0441\u0441\u0442\u0430\u043D\u043E\u0432\u043B\u0435\u043D\u043E_3"
    classID: 4
    script: {fileID: 0}
  - curve:
      serializedVersion: 2
      m_Curve:
      - time: 0
        value: 1.0434327
        inSlope: 0.12513478
        outSlope: 0.12513478
        tangentMode: 10
      - time: 0.15
        value: 1.0622029
        inSlope: 0.07189264
        outSlope: 0.07189264
        tangentMode: 10
      - time: 0.43333334
        value: 1.0674872
        inSlope: -0.022380613
        outSlope: -0.022380613
        tangentMode: 10
      - time: 0.51666665
        value: 1.0622029
        inSlope: -0.0692463
        outSlope: -0.0692463
        tangentMode: 10
      - time: 0.76666665
        value: 1.0434327
        inSlope: -0.07508087
        outSlope: -0.07508087
        tangentMode: 10
      m_PreInfinity: 2
      m_PostInfinity: 2
      m_RotationOrder: 4
    attribute: m_LocalScale.x
    path: "\u043D\u0430\u0440\u0432\u0430\u043B-\u0432\u043E\u0441\u0441\u0442\u0430\u043D\u043E\u0432\u043B\u0435\u043D\u043E_3"
    classID: 4
    script: {fileID: 0}
  - curve:
      serializedVersion: 2
      m_Curve:
      - time: 0
        value: 1.009888
        inSlope: 0.0069260593
        outSlope: 0.0069260593
        tangentMode: 10
      - time: 0.15
        value: 1.010927
        inSlope: -0.039521
        outSlope: -0.039521
        tangentMode: 10
      - time: 0.43333334
        value: 0.98656934
        inSlope: -0.07413629
        outSlope: -0.07413629
        tangentMode: 10
      - time: 0.51666665
        value: 0.9813773
        inSlope: 0.025869243
        outSlope: 0.025869243
        tangentMode: 10
      - time: 0.76666665
        value: 1.009888
        inSlope: 0.114043
        outSlope: 0.114043
        tangentMode: 10
      m_PreInfinity: 2
      m_PostInfinity: 2
      m_RotationOrder: 4
    attribute: m_LocalScale.y
    path: "\u043D\u0430\u0440\u0432\u0430\u043B-\u0432\u043E\u0441\u0441\u0442\u0430\u043D\u043E\u0432\u043B\u0435\u043D\u043E_3"
    classID: 4
    script: {fileID: 0}
  - curve:
      serializedVersion: 2
      m_Curve:
      - time: 0
        value: 1
        inSlope: 0
        outSlope: 0
        tangentMode: 10
      - time: 0.15
        value: 1
        inSlope: 0
        outSlope: 0
        tangentMode: 10
      - time: 0.43333334
        value: 1
        inSlope: 0
        outSlope: 0
        tangentMode: 10
      - time: 0.51666665
        value: 1
        inSlope: 0
        outSlope: 0
        tangentMode: 10
      - time: 0.76666665
        value: 1
        inSlope: 0
        outSlope: 0
        tangentMode: 10
      m_PreInfinity: 2
      m_PostInfinity: 2
      m_RotationOrder: 4
    attribute: m_LocalScale.z
    path: "\u043D\u0430\u0440\u0432\u0430\u043B-\u0432\u043E\u0441\u0441\u0442\u0430\u043D\u043E\u0432\u043B\u0435\u043D\u043E_3"
    classID: 4
    script: {fileID: 0}
  - curve:
      serializedVersion: 2
      m_Curve:
      - time: 0
        value: 2.333579
        inSlope: -0.090527534
        outSlope: -0.090527534
        tangentMode: 10
      - time: 0.15
        value: 2.32
        inSlope: -0.05200947
        outSlope: -0.05200947
        tangentMode: 10
      - time: 0.43333334
        value: 2.3161774
        inSlope: 0.016188262
        outSlope: 0.016188262
        tangentMode: 10
      - time: 0.51666665
        value: 2.3199997
        inSlope: 0.050092705
        outSlope: 0.050092705
        tangentMode: 10
      - time: 0.76666665
        value: 2.333579
        inSlope: 0.054317474
        outSlope: 0.054317474
        tangentMode: 10
      m_PreInfinity: 2
      m_PostInfinity: 2
      m_RotationOrder: 4
    attribute: m_LocalPosition.x
    path: "\u043D\u0430\u0440\u0432\u0430\u043B-\u0432\u043E\u0441\u0441\u0442\u0430\u043D\u043E\u0432\u043B\u0435\u043D\u043E_4"
    classID: 4
    script: {fileID: 0}
  - curve:
      serializedVersion: 2
      m_Curve:
      - time: 0
        value: -0.02362106
        inSlope: 0.9574737
        outSlope: 0.9574737
        tangentMode: 10
      - time: 0.15
        value: 0.12
        inSlope: 0.23347628
        outSlope: 0.23347628
        tangentMode: 10
      - time: 0.43333334
        value: -0.01898098
        inSlope: -0.6713757
        outSlope: -0.6713757
        tangentMode: 10
      - time: 0.51666665
        value: -0.09000015
        inSlope: -0.29335696
        outSlope: -0.29335696
        tangentMode: 10
      - time: 0.76666665
        value: -0.02362106
        inSlope: 0.26551637
        outSlope: 0.26551637
        tangentMode: 10
      m_PreInfinity: 2
      m_PostInfinity: 2
      m_RotationOrder: 4
    attribute: m_LocalPosition.y
    path: "\u043D\u0430\u0440\u0432\u0430\u043B-\u0432\u043E\u0441\u0441\u0442\u0430\u043D\u043E\u0432\u043B\u0435\u043D\u043E_4"
    classID: 4
    script: {fileID: 0}
  - curve:
      serializedVersion: 2
      m_Curve:
      - time: 0
        value: 0
        inSlope: 0
        outSlope: 0
        tangentMode: 10
      - time: 0.15
        value: 0
        inSlope: 0
        outSlope: 0
        tangentMode: 10
      - time: 0.43333334
        value: 0
        inSlope: 0
        outSlope: 0
        tangentMode: 10
      - time: 0.51666665
        value: 0
        inSlope: 0
        outSlope: 0
        tangentMode: 10
      - time: 0.76666665
        value: 0
        inSlope: 0
        outSlope: 0
        tangentMode: 10
      m_PreInfinity: 2
      m_PostInfinity: 2
      m_RotationOrder: 4
    attribute: m_LocalPosition.z
    path: "\u043D\u0430\u0440\u0432\u0430\u043B-\u0432\u043E\u0441\u0441\u0442\u0430\u043D\u043E\u0432\u043B\u0435\u043D\u043E_4"
    classID: 4
    script: {fileID: 0}
  - curve:
      serializedVersion: 2
      m_Curve:
      - time: 0
        value: 0
        inSlope: 0
        outSlope: 0
        tangentMode: 10
      - time: 0.15
        value: 0
        inSlope: 0
        outSlope: 0
        tangentMode: 10
      - time: 0.43333334
        value: 0
        inSlope: 0
        outSlope: 0
        tangentMode: 10
      - time: 0.51666665
        value: 0
        inSlope: 0
        outSlope: 0
        tangentMode: 10
      - time: 0.76666665
        value: 0
        inSlope: 0
        outSlope: 0
        tangentMode: 10
      m_PreInfinity: 2
      m_PostInfinity: 2
      m_RotationOrder: 4
    attribute: localEulerAnglesRaw.x
    path: "\u043D\u0430\u0440\u0432\u0430\u043B-\u0432\u043E\u0441\u0441\u0442\u0430\u043D\u043E\u0432\u043B\u0435\u043D\u043E_4"
    classID: 4
    script: {fileID: 0}
  - curve:
      serializedVersion: 2
      m_Curve:
      - time: 0
        value: 0
        inSlope: 0
        outSlope: 0
        tangentMode: 10
      - time: 0.15
        value: 0
        inSlope: 0
        outSlope: 0
        tangentMode: 10
      - time: 0.43333334
        value: 0
        inSlope: 0
        outSlope: 0
        tangentMode: 10
      - time: 0.51666665
        value: 0
        inSlope: 0
        outSlope: 0
        tangentMode: 10
      - time: 0.76666665
        value: 0
        inSlope: 0
        outSlope: 0
        tangentMode: 10
      m_PreInfinity: 2
      m_PostInfinity: 2
      m_RotationOrder: 4
    attribute: localEulerAnglesRaw.y
    path: "\u043D\u0430\u0440\u0432\u0430\u043B-\u0432\u043E\u0441\u0441\u0442\u0430\u043D\u043E\u0432\u043B\u0435\u043D\u043E_4"
    classID: 4
    script: {fileID: 0}
  - curve:
      serializedVersion: 2
      m_Curve:
      - time: 0
        value: 9.556051
        inSlope: 13.068987
        outSlope: 13.068987
        tangentMode: 10
      - time: 0.15
        value: 11.516399
        inSlope: -15.128329
        outSlope: -15.128329
        tangentMode: 10
      - time: 0.43333334
        value: -0.7592
        inSlope: -36.308228
        outSlope: -36.308228
        tangentMode: 10
      - time: 0.51666665
        value: -3.2001
        inSlope: 10.8668995
        outSlope: 10.8668995
        tangentMode: 10
      - time: 0.76666665
        value: 9.556051
        inSlope: 51.024605
        outSlope: 51.024605
        tangentMode: 10
      m_PreInfinity: 2
      m_PostInfinity: 2
      m_RotationOrder: 4
    attribute: localEulerAnglesRaw.z
    path: "\u043D\u0430\u0440\u0432\u0430\u043B-\u0432\u043E\u0441\u0441\u0442\u0430\u043D\u043E\u0432\u043B\u0435\u043D\u043E_4"
    classID: 4
    script: {fileID: 0}
  - curve:
      serializedVersion: 2
      m_Curve:
      - time: 0
        value: 1.0301608
        inSlope: 0.08689721
        outSlope: 0.08689721
        tangentMode: 10
      - time: 0.15
        value: 1.0431954
        inSlope: 0.049924195
        outSlope: 0.049924195
        tangentMode: 10
      - time: 0.43333334
        value: 1.0468649
        inSlope: -0.015541419
        outSlope: -0.015541419
        tangentMode: 10
      - time: 0.51666665
        value: 1.0431954
        inSlope: -0.048086174
        outSlope: -0.048086174
        tangentMode: 10
      - time: 0.76666665
        value: 1.0301608
        inSlope: -0.05213833
        outSlope: -0.05213833
        tangentMode: 10
      m_PreInfinity: 2
      m_PostInfinity: 2
      m_RotationOrder: 4
    attribute: m_LocalScale.x
    path: "\u043D\u0430\u0440\u0432\u0430\u043B-\u0432\u043E\u0441\u0441\u0442\u0430\u043D\u043E\u0432\u043B\u0435\u043D\u043E_4"
    classID: 4
    script: {fileID: 0}
  - curve:
      serializedVersion: 2
      m_Curve:
      - time: 0
        value: 1
        inSlope: 0
        outSlope: 0
        tangentMode: 10
      - time: 0.15
        value: 1
        inSlope: 0
        outSlope: 0
        tangentMode: 10
      - time: 0.43333334
        value: 1
        inSlope: 0
        outSlope: 0
        tangentMode: 10
      - time: 0.51666665
        value: 1
        inSlope: 0
        outSlope: 0
        tangentMode: 10
      - time: 0.76666665
        value: 1
        inSlope: 0
        outSlope: 0
        tangentMode: 10
      m_PreInfinity: 2
      m_PostInfinity: 2
      m_RotationOrder: 4
    attribute: m_LocalScale.y
    path: "\u043D\u0430\u0440\u0432\u0430\u043B-\u0432\u043E\u0441\u0441\u0442\u0430\u043D\u043E\u0432\u043B\u0435\u043D\u043E_4"
    classID: 4
    script: {fileID: 0}
  - curve:
      serializedVersion: 2
      m_Curve:
      - time: 0
        value: 1
        inSlope: 0
        outSlope: 0
        tangentMode: 10
      - time: 0.15
        value: 1
        inSlope: 0
        outSlope: 0
        tangentMode: 10
      - time: 0.43333334
        value: 1
        inSlope: 0
        outSlope: 0
        tangentMode: 10
      - time: 0.51666665
        value: 1
        inSlope: 0
        outSlope: 0
        tangentMode: 10
      - time: 0.76666665
        value: 1
        inSlope: 0
        outSlope: 0
        tangentMode: 10
      m_PreInfinity: 2
      m_PostInfinity: 2
      m_RotationOrder: 4
    attribute: m_LocalScale.z
    path: "\u043D\u0430\u0440\u0432\u0430\u043B-\u0432\u043E\u0441\u0441\u0442\u0430\u043D\u043E\u0432\u043B\u0435\u043D\u043E_4"
    classID: 4
    script: {fileID: 0}
  - curve:
      serializedVersion: 2
      m_Curve:
      - time: 0
        value: 2.885
        inSlope: -0.8333333
        outSlope: -0.8333333
        tangentMode: 10
      - time: 0.15
        value: 2.76
        inSlope: -0.39901876
        outSlope: -0.39901876
        tangentMode: 10
      - time: 0.43333334
        value: 2.7700005
        inSlope: 0.70764667
        outSlope: 0.70764667
        tangentMode: 10
      - time: 0.51666665
        value: 2.8850002
        inSlope: 0.6899983
        outSlope: 0.6899983
        tangentMode: 10
      - time: 0.76666665
        value: 2.885
        inSlope: -0.0000009536743
        outSlope: -0.0000009536743
        tangentMode: 10
      m_PreInfinity: 2
      m_PostInfinity: 2
      m_RotationOrder: 4
    attribute: m_LocalPosition.x
    path: "\u043D\u0430\u0440\u0432\u0430\u043B-\u0432\u043E\u0441\u0441\u0442\u0430\u043D\u043E\u0432\u043B\u0435\u043D\u043E_5
      (1)"
    classID: 4
    script: {fileID: 0}
  - curve:
      serializedVersion: 2
      m_Curve:
      - time: 0
        value: -0.684
        inSlope: 1.4266667
        outSlope: 1.4266667
        tangentMode: 10
      - time: 0.15
        value: -0.47
        inSlope: 0.57215655
        outSlope: 0.57215655
        tangentMode: 10
      - time: 0.43333334
        value: -0.5500002
        inSlope: -1.3411759
        outSlope: -1.3411759
        tangentMode: 10
      - time: 0.51666665
        value: -0.75
        inSlope: -1.0679991
        outSlope: -1.0679991
        tangentMode: 10
      - time: 0.76666665
        value: -0.684
        inSlope: 0.26399994
        outSlope: 0.26399994
        tangentMode: 10
      m_PreInfinity: 2
      m_PostInfinity: 2
      m_RotationOrder: 4
    attribute: m_LocalPosition.y
    path: "\u043D\u0430\u0440\u0432\u0430\u043B-\u0432\u043E\u0441\u0441\u0442\u0430\u043D\u043E\u0432\u043B\u0435\u043D\u043E_5
      (1)"
    classID: 4
    script: {fileID: 0}
  - curve:
      serializedVersion: 2
      m_Curve:
      - time: 0
        value: 0
        inSlope: 0
        outSlope: 0
        tangentMode: 10
      - time: 0.15
        value: 0
        inSlope: 0
        outSlope: 0
        tangentMode: 10
      - time: 0.43333334
        value: 0
        inSlope: 0
        outSlope: 0
        tangentMode: 10
      - time: 0.51666665
        value: 0
        inSlope: 0
        outSlope: 0
        tangentMode: 10
      - time: 0.76666665
        value: 0
        inSlope: 0
        outSlope: 0
        tangentMode: 10
      m_PreInfinity: 2
      m_PostInfinity: 2
      m_RotationOrder: 4
    attribute: m_LocalPosition.z
    path: "\u043D\u0430\u0440\u0432\u0430\u043B-\u0432\u043E\u0441\u0441\u0442\u0430\u043D\u043E\u0432\u043B\u0435\u043D\u043E_5
      (1)"
    classID: 4
    script: {fileID: 0}
  - curve:
      serializedVersion: 2
      m_Curve:
      - time: 0
        value: 0
        inSlope: 0
        outSlope: 0
        tangentMode: 10
      - time: 0.15
        value: 0
        inSlope: 0
        outSlope: 0
        tangentMode: 10
      - time: 0.43333334
        value: 0
        inSlope: 0
        outSlope: 0
        tangentMode: 10
      - time: 0.51666665
        value: 0
        inSlope: 0
        outSlope: 0
        tangentMode: 10
      - time: 0.76666665
        value: 0
        inSlope: 0
        outSlope: 0
        tangentMode: 10
      m_PreInfinity: 2
      m_PostInfinity: 2
      m_RotationOrder: 4
    attribute: localEulerAnglesRaw.x
    path: "\u043D\u0430\u0440\u0432\u0430\u043B-\u0432\u043E\u0441\u0441\u0442\u0430\u043D\u043E\u0432\u043B\u0435\u043D\u043E_5
      (1)"
    classID: 4
    script: {fileID: 0}
  - curve:
      serializedVersion: 2
      m_Curve:
      - time: 0
        value: 0
        inSlope: 0
        outSlope: 0
        tangentMode: 10
      - time: 0.15
        value: 0
        inSlope: 0
        outSlope: 0
        tangentMode: 10
      - time: 0.43333334
        value: 0
        inSlope: 0
        outSlope: 0
        tangentMode: 10
      - time: 0.51666665
        value: 0
        inSlope: 0
        outSlope: 0
        tangentMode: 10
      - time: 0.76666665
        value: 0
        inSlope: 0
        outSlope: 0
        tangentMode: 10
      m_PreInfinity: 2
      m_PostInfinity: 2
      m_RotationOrder: 4
    attribute: localEulerAnglesRaw.y
    path: "\u043D\u0430\u0440\u0432\u0430\u043B-\u0432\u043E\u0441\u0441\u0442\u0430\u043D\u043E\u0432\u043B\u0435\u043D\u043E_5
      (1)"
    classID: 4
    script: {fileID: 0}
  - curve:
      serializedVersion: 2
      m_Curve:
      - time: 0
        value: -46.4841
        inSlope: -64.10532
        outSlope: -64.10532
        tangentMode: 10
      - time: 0.15
        value: -56.0999
        inSlope: 18.65281
        outSlope: 18.65281
        tangentMode: 10
      - time: 0.43333334
        value: -27.366798
        inSlope: 96.72188
        outSlope: 96.72188
        tangentMode: 10
      - time: 0.51666665
        value: -19.6974
        inSlope: -7.5569954
        outSlope: -7.5569954
        tangentMode: 10
      - time: 0.76666665
        value: -46.4841
        inSlope: -107.146805
        outSlope: -107.146805
        tangentMode: 10
      m_PreInfinity: 2
      m_PostInfinity: 2
      m_RotationOrder: 4
    attribute: localEulerAnglesRaw.z
    path: "\u043D\u0430\u0440\u0432\u0430\u043B-\u0432\u043E\u0441\u0441\u0442\u0430\u043D\u043E\u0432\u043B\u0435\u043D\u043E_5
      (1)"
    classID: 4
    script: {fileID: 0}
  - curve:
      serializedVersion: 2
      m_Curve:
      - time: 0
        value: 1.0134692
        inSlope: 0
        outSlope: 0
        tangentMode: 10
      - time: 0.15
        value: 1.0134692
        inSlope: 0
        outSlope: 0
        tangentMode: 10
      - time: 0.43333334
        value: 1.0134692
        inSlope: 0
        outSlope: 0
        tangentMode: 10
      - time: 0.51666665
        value: 1.0134692
        inSlope: 0
        outSlope: 0
        tangentMode: 10
      - time: 0.76666665
        value: 1.0134692
        inSlope: 0
        outSlope: 0
        tangentMode: 10
      m_PreInfinity: 2
      m_PostInfinity: 2
      m_RotationOrder: 4
    attribute: m_LocalScale.x
    path: "\u043D\u0430\u0440\u0432\u0430\u043B-\u0432\u043E\u0441\u0441\u0442\u0430\u043D\u043E\u0432\u043B\u0435\u043D\u043E_5
      (1)"
    classID: 4
    script: {fileID: 0}
  - curve:
      serializedVersion: 2
      m_Curve:
      - time: 0
        value: 0.8514257
        inSlope: -0.5354667
        outSlope: -0.5354667
        tangentMode: 10
      - time: 0.15
        value: 0.7711057
        inSlope: -0.12599216
        outSlope: -0.12599216
        tangentMode: 10
      - time: 0.43333334
        value: 0.8514257
        inSlope: 0.14174117
        outSlope: 0.14174117
        tangentMode: 10
      - time: 0.51666665
        value: 0.8514257
        inSlope: 0
        outSlope: 0
        tangentMode: 10
      - time: 0.76666665
        value: 0.8514257
        inSlope: 0
        outSlope: 0
        tangentMode: 10
      m_PreInfinity: 2
      m_PostInfinity: 2
      m_RotationOrder: 4
    attribute: m_LocalScale.y
    path: "\u043D\u0430\u0440\u0432\u0430\u043B-\u0432\u043E\u0441\u0441\u0442\u0430\u043D\u043E\u0432\u043B\u0435\u043D\u043E_5
      (1)"
    classID: 4
    script: {fileID: 0}
  - curve:
      serializedVersion: 2
      m_Curve:
      - time: 0
        value: 1
        inSlope: 0
        outSlope: 0
        tangentMode: 10
      - time: 0.15
        value: 1
        inSlope: 0
        outSlope: 0
        tangentMode: 10
      - time: 0.43333334
        value: 1
        inSlope: 0
        outSlope: 0
        tangentMode: 10
      - time: 0.51666665
        value: 1
        inSlope: 0
        outSlope: 0
        tangentMode: 10
      - time: 0.76666665
        value: 1
        inSlope: 0
        outSlope: 0
        tangentMode: 10
      m_PreInfinity: 2
      m_PostInfinity: 2
      m_RotationOrder: 4
    attribute: m_LocalScale.z
    path: "\u043D\u0430\u0440\u0432\u0430\u043B-\u0432\u043E\u0441\u0441\u0442\u0430\u043D\u043E\u0432\u043B\u0435\u043D\u043E_5
      (1)"
    classID: 4
    script: {fileID: 0}
  - curve:
      serializedVersion: 2
      m_Curve:
      - time: 0
        value: 3.159
        inSlope: 0.07333437
        outSlope: 0.07333437
        tangentMode: 10
      - time: 0.15
        value: 3.17
        inSlope: 0.017255988
        outSlope: 0.017255988
        tangentMode: 10
      - time: 0.43333334
        value: 3.1590004
        inSlope: -0.01941406
        outSlope: -0.01941406
        tangentMode: 10
      - time: 0.51666665
        value: 3.159
        inSlope: -0.0000028610236
        outSlope: -0.0000028610236
        tangentMode: 10
      - time: 0.76666665
        value: 3.159
        inSlope: 0
        outSlope: 0
        tangentMode: 10
      m_PreInfinity: 2
      m_PostInfinity: 2
      m_RotationOrder: 4
    attribute: m_LocalPosition.x
    path: "\u043D\u0430\u0440\u0432\u0430\u043B-\u0432\u043E\u0441\u0441\u0442\u0430\u043D\u043E\u0432\u043B\u0435\u043D\u043E_5"
    classID: 4
    script: {fileID: 0}
  - curve:
      serializedVersion: 2
      m_Curve:
      - time: 0
        value: -0.596
        inSlope: 0.77333647
        outSlope: 0.77333647
        tangentMode: 10
      - time: 0.15
        value: -0.47999954
        inSlope: 0.18196204
        outSlope: 0.18196204
        tangentMode: 10
      - time: 0.43333334
        value: -0.5959997
        inSlope: -0.58870816
        outSlope: -0.58870816
        tangentMode: 10
      - time: 0.51666665
        value: -0.66
        inSlope: -0.25600192
        outSlope: -0.25600192
        tangentMode: 10
      - time: 0.76666665
        value: -0.596
        inSlope: 0.25600004
        outSlope: 0.25600004
        tangentMode: 10
      m_PreInfinity: 2
      m_PostInfinity: 2
      m_RotationOrder: 4
    attribute: m_LocalPosition.y
    path: "\u043D\u0430\u0440\u0432\u0430\u043B-\u0432\u043E\u0441\u0441\u0442\u0430\u043D\u043E\u0432\u043B\u0435\u043D\u043E_5"
    classID: 4
    script: {fileID: 0}
  - curve:
      serializedVersion: 2
      m_Curve:
      - time: 0
        value: 0
        inSlope: 0
        outSlope: 0
        tangentMode: 10
      - time: 0.15
        value: 0
        inSlope: 0
        outSlope: 0
        tangentMode: 10
      - time: 0.43333334
        value: 0
        inSlope: 0
        outSlope: 0
        tangentMode: 10
      - time: 0.51666665
        value: 0
        inSlope: 0
        outSlope: 0
        tangentMode: 10
      - time: 0.76666665
        value: 0
        inSlope: 0
        outSlope: 0
        tangentMode: 10
      m_PreInfinity: 2
      m_PostInfinity: 2
      m_RotationOrder: 4
    attribute: m_LocalPosition.z
    path: "\u043D\u0430\u0440\u0432\u0430\u043B-\u0432\u043E\u0441\u0441\u0442\u0430\u043D\u043E\u0432\u043B\u0435\u043D\u043E_5"
    classID: 4
    script: {fileID: 0}
  - curve:
      serializedVersion: 2
      m_Curve:
      - time: 0
        value: 0
        inSlope: 0
        outSlope: 0
        tangentMode: 10
      - time: 0.15
        value: 0
        inSlope: 0
        outSlope: 0
        tangentMode: 10
      - time: 0.43333334
        value: 0
        inSlope: 0
        outSlope: 0
        tangentMode: 10
      - time: 0.51666665
        value: 0
        inSlope: 0
        outSlope: 0
        tangentMode: 10
      - time: 0.76666665
        value: 0
        inSlope: 0
        outSlope: 0
        tangentMode: 10
      m_PreInfinity: 2
      m_PostInfinity: 2
      m_RotationOrder: 4
    attribute: localEulerAnglesRaw.x
    path: "\u043D\u0430\u0440\u0432\u0430\u043B-\u0432\u043E\u0441\u0441\u0442\u0430\u043D\u043E\u0432\u043B\u0435\u043D\u043E_5"
    classID: 4
    script: {fileID: 0}
  - curve:
      serializedVersion: 2
      m_Curve:
      - time: 0
        value: 0
        inSlope: 0
        outSlope: 0
        tangentMode: 10
      - time: 0.15
        value: 0
        inSlope: 0
        outSlope: 0
        tangentMode: 10
      - time: 0.43333334
        value: 0
        inSlope: 0
        outSlope: 0
        tangentMode: 10
      - time: 0.51666665
        value: 0
        inSlope: 0
        outSlope: 0
        tangentMode: 10
      - time: 0.76666665
        value: 0
        inSlope: 0
        outSlope: 0
        tangentMode: 10
      m_PreInfinity: 2
      m_PostInfinity: 2
      m_RotationOrder: 4
    attribute: localEulerAnglesRaw.y
    path: "\u043D\u0430\u0440\u0432\u0430\u043B-\u0432\u043E\u0441\u0441\u0442\u0430\u043D\u043E\u0432\u043B\u0435\u043D\u043E_5"
    classID: 4
    script: {fileID: 0}
  - curve:
      serializedVersion: 2
      m_Curve:
      - time: 0
        value: 19.2232
        inSlope: 112.543976
        outSlope: 112.543976
        tangentMode: 10
      - time: 0.15
        value: 36.104797
        inSlope: 43.56717
        outSlope: 43.56717
        tangentMode: 10
      - time: 0.43333334
        value: 28.9054
        inSlope: -70.798035
        outSlope: -70.798035
        tangentMode: 10
      - time: 0.51666665
        value: 19.2232
        inSlope: -58.093212
        outSlope: -58.093212
        tangentMode: 10
      - time: 0.76666665
        value: 19.2232
        inSlope: 0
        outSlope: 0
        tangentMode: 10
      m_PreInfinity: 2
      m_PostInfinity: 2
      m_RotationOrder: 4
    attribute: localEulerAnglesRaw.z
    path: "\u043D\u0430\u0440\u0432\u0430\u043B-\u0432\u043E\u0441\u0441\u0442\u0430\u043D\u043E\u0432\u043B\u0435\u043D\u043E_5"
    classID: 4
    script: {fileID: 0}
  - curve:
      serializedVersion: 2
      m_Curve:
      - time: 0
        value: 1
        inSlope: 0
        outSlope: 0
        tangentMode: 10
      - time: 0.15
        value: 1
        inSlope: 0
        outSlope: 0
        tangentMode: 10
      - time: 0.43333334
        value: 1
        inSlope: 0
        outSlope: 0
        tangentMode: 10
      - time: 0.51666665
        value: 1
        inSlope: 0
        outSlope: 0
        tangentMode: 10
      - time: 0.76666665
        value: 1
        inSlope: 0
        outSlope: 0
        tangentMode: 10
      m_PreInfinity: 2
      m_PostInfinity: 2
      m_RotationOrder: 4
    attribute: m_LocalScale.x
    path: "\u043D\u0430\u0440\u0432\u0430\u043B-\u0432\u043E\u0441\u0441\u0442\u0430\u043D\u043E\u0432\u043B\u0435\u043D\u043E_5"
    classID: 4
    script: {fileID: 0}
  - curve:
      serializedVersion: 2
      m_Curve:
      - time: 0
        value: 1
        inSlope: 0.66717386
        outSlope: 0.66717386
        tangentMode: 10
      - time: 0.15
        value: 1.1000761
        inSlope: 0.15698208
        outSlope: 0.15698208
        tangentMode: 10
      - time: 0.43333334
        value: 1
        inSlope: -0.17660485
        outSlope: -0.17660485
        tangentMode: 10
      - time: 0.51666665
        value: 1
        inSlope: 0
        outSlope: 0
        tangentMode: 10
      - time: 0.76666665
        value: 1
        inSlope: 0
        outSlope: 0
        tangentMode: 10
      m_PreInfinity: 2
      m_PostInfinity: 2
      m_RotationOrder: 4
    attribute: m_LocalScale.y
    path: "\u043D\u0430\u0440\u0432\u0430\u043B-\u0432\u043E\u0441\u0441\u0442\u0430\u043D\u043E\u0432\u043B\u0435\u043D\u043E_5"
    classID: 4
    script: {fileID: 0}
  - curve:
      serializedVersion: 2
      m_Curve:
      - time: 0
        value: 1
        inSlope: 0
        outSlope: 0
        tangentMode: 10
      - time: 0.15
        value: 1
        inSlope: 0
        outSlope: 0
        tangentMode: 10
      - time: 0.43333334
        value: 1
        inSlope: 0
        outSlope: 0
        tangentMode: 10
      - time: 0.51666665
        value: 1
        inSlope: 0
        outSlope: 0
        tangentMode: 10
      - time: 0.76666665
        value: 1
        inSlope: 0
        outSlope: 0
        tangentMode: 10
      m_PreInfinity: 2
      m_PostInfinity: 2
      m_RotationOrder: 4
    attribute: m_LocalScale.z
    path: "\u043D\u0430\u0440\u0432\u0430\u043B-\u0432\u043E\u0441\u0441\u0442\u0430\u043D\u043E\u0432\u043B\u0435\u043D\u043E_5"
    classID: 4
    script: {fileID: 0}
  - curve:
      serializedVersion: 2
      m_Curve:
      - time: 0
        value: -0.28999996
        inSlope: 0
        outSlope: 0
        tangentMode: 10
      - time: 0.15
        value: -0.28999996
        inSlope: 0
        outSlope: 0
        tangentMode: 10
      - time: 0.43333334
        value: -0.28999996
        inSlope: 0
        outSlope: 0
        tangentMode: 10
      - time: 0.51666665
        value: -0.28999996
        inSlope: 0
        outSlope: 0
        tangentMode: 10
      - time: 0.76666665
        value: -0.28999996
        inSlope: 0
        outSlope: 0
        tangentMode: 10
      m_PreInfinity: 2
      m_PostInfinity: 2
      m_RotationOrder: 4
    attribute: m_LocalPosition.x
    path: "\u043D\u0430\u0440\u0432\u0430\u043B-\u0432\u043E\u0441\u0441\u0442\u0430\u043D\u043E\u0432\u043B\u0435\u043D\u043E_4/\u043D\u0430\u0440\u0432\u0430\u043B-\u0432\u043E\u0441\u0441\u0442\u0430\u043D\u043E\u0432\u043B\u0435\u043D\u043E_6"
    classID: 4
    script: {fileID: 0}
  - curve:
      serializedVersion: 2
      m_Curve:
      - time: 0
        value: 0.015000001
        inSlope: 0
        outSlope: 0
        tangentMode: 10
      - time: 0.15
        value: 0.015000001
        inSlope: 0
        outSlope: 0
        tangentMode: 10
      - time: 0.43333334
        value: 0.015000001
        inSlope: 0
        outSlope: 0
        tangentMode: 10
      - time: 0.51666665
        value: 0.015000001
        inSlope: 0
        outSlope: 0
        tangentMode: 10
      - time: 0.76666665
        value: 0.015000001
        inSlope: 0
        outSlope: 0
        tangentMode: 10
      m_PreInfinity: 2
      m_PostInfinity: 2
      m_RotationOrder: 4
    attribute: m_LocalPosition.y
    path: "\u043D\u0430\u0440\u0432\u0430\u043B-\u0432\u043E\u0441\u0441\u0442\u0430\u043D\u043E\u0432\u043B\u0435\u043D\u043E_4/\u043D\u0430\u0440\u0432\u0430\u043B-\u0432\u043E\u0441\u0441\u0442\u0430\u043D\u043E\u0432\u043B\u0435\u043D\u043E_6"
    classID: 4
    script: {fileID: 0}
  - curve:
      serializedVersion: 2
      m_Curve:
      - time: 0
        value: 0
        inSlope: 0
        outSlope: 0
        tangentMode: 10
      - time: 0.15
        value: 0
        inSlope: 0
        outSlope: 0
        tangentMode: 10
      - time: 0.43333334
        value: 0
        inSlope: 0
        outSlope: 0
        tangentMode: 10
      - time: 0.51666665
        value: 0
        inSlope: 0
        outSlope: 0
        tangentMode: 10
      - time: 0.76666665
        value: 0
        inSlope: 0
        outSlope: 0
        tangentMode: 10
      m_PreInfinity: 2
      m_PostInfinity: 2
      m_RotationOrder: 4
    attribute: m_LocalPosition.z
    path: "\u043D\u0430\u0440\u0432\u0430\u043B-\u0432\u043E\u0441\u0441\u0442\u0430\u043D\u043E\u0432\u043B\u0435\u043D\u043E_4/\u043D\u0430\u0440\u0432\u0430\u043B-\u0432\u043E\u0441\u0441\u0442\u0430\u043D\u043E\u0432\u043B\u0435\u043D\u043E_6"
    classID: 4
    script: {fileID: 0}
  - curve:
      serializedVersion: 2
      m_Curve:
      - time: 0
        value: 0
        inSlope: -0
        outSlope: -0
        tangentMode: 10
      - time: 0.15
        value: -0
        inSlope: 0
        outSlope: 0
        tangentMode: 10
      - time: 0.43333334
        value: 0
        inSlope: 0
        outSlope: 0
        tangentMode: 10
      - time: 0.51666665
        value: 0
        inSlope: 0
        outSlope: 0
        tangentMode: 10
      - time: 0.76666665
        value: 0
        inSlope: 0
        outSlope: 0
        tangentMode: 10
      m_PreInfinity: 2
      m_PostInfinity: 2
      m_RotationOrder: 4
    attribute: localEulerAnglesRaw.x
    path: "\u043D\u0430\u0440\u0432\u0430\u043B-\u0432\u043E\u0441\u0441\u0442\u0430\u043D\u043E\u0432\u043B\u0435\u043D\u043E_4/\u043D\u0430\u0440\u0432\u0430\u043B-\u0432\u043E\u0441\u0441\u0442\u0430\u043D\u043E\u0432\u043B\u0435\u043D\u043E_6"
    classID: 4
    script: {fileID: 0}
  - curve:
      serializedVersion: 2
      m_Curve:
      - time: 0
        value: 0
        inSlope: 0
        outSlope: 0
        tangentMode: 10
      - time: 0.15
        value: 0
        inSlope: 0
        outSlope: 0
        tangentMode: 10
      - time: 0.43333334
        value: 0
        inSlope: 0
        outSlope: 0
        tangentMode: 10
      - time: 0.51666665
        value: 0
        inSlope: 0
        outSlope: 0
        tangentMode: 10
      - time: 0.76666665
        value: 0
        inSlope: 0
        outSlope: 0
        tangentMode: 10
      m_PreInfinity: 2
      m_PostInfinity: 2
      m_RotationOrder: 4
    attribute: localEulerAnglesRaw.y
    path: "\u043D\u0430\u0440\u0432\u0430\u043B-\u0432\u043E\u0441\u0441\u0442\u0430\u043D\u043E\u0432\u043B\u0435\u043D\u043E_4/\u043D\u0430\u0440\u0432\u0430\u043B-\u0432\u043E\u0441\u0441\u0442\u0430\u043D\u043E\u0432\u043B\u0435\u043D\u043E_6"
    classID: 4
    script: {fileID: 0}
  - curve:
      serializedVersion: 2
      m_Curve:
      - time: 0
        value: 0
        inSlope: 0
        outSlope: 0
        tangentMode: 10
      - time: 0.15
        value: 0
        inSlope: 0
        outSlope: 0
        tangentMode: 10
      - time: 0.43333334
        value: 0
        inSlope: 0
        outSlope: 0
        tangentMode: 10
      - time: 0.51666665
        value: 0
        inSlope: 0
        outSlope: 0
        tangentMode: 10
      - time: 0.76666665
        value: 0
        inSlope: 0
        outSlope: 0
        tangentMode: 10
      m_PreInfinity: 2
      m_PostInfinity: 2
      m_RotationOrder: 4
    attribute: localEulerAnglesRaw.z
    path: "\u043D\u0430\u0440\u0432\u0430\u043B-\u0432\u043E\u0441\u0441\u0442\u0430\u043D\u043E\u0432\u043B\u0435\u043D\u043E_4/\u043D\u0430\u0440\u0432\u0430\u043B-\u0432\u043E\u0441\u0441\u0442\u0430\u043D\u043E\u0432\u043B\u0435\u043D\u043E_6"
    classID: 4
    script: {fileID: 0}
  - curve:
      serializedVersion: 2
      m_Curve:
      - time: 0
        value: 0.6538142
        inSlope: 0
        outSlope: 0
        tangentMode: 10
      - time: 0.15
        value: 0.6538142
        inSlope: 0
        outSlope: 0
        tangentMode: 10
      - time: 0.43333334
        value: 0.6538142
        inSlope: 0
        outSlope: 0
        tangentMode: 10
      - time: 0.51666665
        value: 0.6538142
        inSlope: 0
        outSlope: 0
        tangentMode: 10
      - time: 0.76666665
        value: 0.6538142
        inSlope: 0
        outSlope: 0
        tangentMode: 10
      m_PreInfinity: 2
      m_PostInfinity: 2
      m_RotationOrder: 4
    attribute: m_LocalScale.x
    path: "\u043D\u0430\u0440\u0432\u0430\u043B-\u0432\u043E\u0441\u0441\u0442\u0430\u043D\u043E\u0432\u043B\u0435\u043D\u043E_4/\u043D\u0430\u0440\u0432\u0430\u043B-\u0432\u043E\u0441\u0441\u0442\u0430\u043D\u043E\u0432\u043B\u0435\u043D\u043E_6"
    classID: 4
    script: {fileID: 0}
  - curve:
      serializedVersion: 2
      m_Curve:
      - time: 0
        value: 0.6538142
        inSlope: 0
        outSlope: 0
        tangentMode: 10
      - time: 0.15
        value: 0.6538142
        inSlope: 0
        outSlope: 0
        tangentMode: 10
      - time: 0.43333334
        value: 0.6538142
        inSlope: 0
        outSlope: 0
        tangentMode: 10
      - time: 0.51666665
        value: 0.6538142
        inSlope: 0
        outSlope: 0
        tangentMode: 10
      - time: 0.76666665
        value: 0.6538142
        inSlope: 0
        outSlope: 0
        tangentMode: 10
      m_PreInfinity: 2
      m_PostInfinity: 2
      m_RotationOrder: 4
    attribute: m_LocalScale.y
    path: "\u043D\u0430\u0440\u0432\u0430\u043B-\u0432\u043E\u0441\u0441\u0442\u0430\u043D\u043E\u0432\u043B\u0435\u043D\u043E_4/\u043D\u0430\u0440\u0432\u0430\u043B-\u0432\u043E\u0441\u0441\u0442\u0430\u043D\u043E\u0432\u043B\u0435\u043D\u043E_6"
    classID: 4
    script: {fileID: 0}
  - curve:
      serializedVersion: 2
      m_Curve:
      - time: 0
        value: 0.6538142
        inSlope: 0
        outSlope: 0
        tangentMode: 10
      - time: 0.15
        value: 0.6538142
        inSlope: 0
        outSlope: 0
        tangentMode: 10
      - time: 0.43333334
        value: 0.6538142
        inSlope: 0
        outSlope: 0
        tangentMode: 10
      - time: 0.51666665
        value: 0.6538142
        inSlope: 0
        outSlope: 0
        tangentMode: 10
      - time: 0.76666665
        value: 0.6538142
        inSlope: 0
        outSlope: 0
        tangentMode: 10
      m_PreInfinity: 2
      m_PostInfinity: 2
      m_RotationOrder: 4
    attribute: m_LocalScale.z
    path: "\u043D\u0430\u0440\u0432\u0430\u043B-\u0432\u043E\u0441\u0441\u0442\u0430\u043D\u043E\u0432\u043B\u0435\u043D\u043E_4/\u043D\u0430\u0440\u0432\u0430\u043B-\u0432\u043E\u0441\u0441\u0442\u0430\u043D\u043E\u0432\u043B\u0435\u043D\u043E_6"
    classID: 4
    script: {fileID: 0}
  m_EulerEditorCurves:
  - curve:
      serializedVersion: 2
      m_Curve: []
      m_PreInfinity: 2
      m_PostInfinity: 2
      m_RotationOrder: 4
    attribute: m_LocalEulerAngles.z
    path: "\u043D\u0430\u0440\u0432\u0430\u043B-\u0432\u043E\u0441\u0441\u0442\u0430\u043D\u043E\u0432\u043B\u0435\u043D\u043E_0"
    classID: 4
    script: {fileID: 0}
  - curve:
      serializedVersion: 2
      m_Curve: []
      m_PreInfinity: 2
      m_PostInfinity: 2
      m_RotationOrder: 4
    attribute: m_LocalEulerAngles.y
    path: "\u043D\u0430\u0440\u0432\u0430\u043B-\u0432\u043E\u0441\u0441\u0442\u0430\u043D\u043E\u0432\u043B\u0435\u043D\u043E_0"
    classID: 4
    script: {fileID: 0}
  - curve:
      serializedVersion: 2
      m_Curve: []
      m_PreInfinity: 2
      m_PostInfinity: 2
      m_RotationOrder: 4
    attribute: m_LocalEulerAngles.x
    path: "\u043D\u0430\u0440\u0432\u0430\u043B-\u0432\u043E\u0441\u0441\u0442\u0430\u043D\u043E\u0432\u043B\u0435\u043D\u043E_0"
    classID: 4
    script: {fileID: 0}
  - curve:
      serializedVersion: 2
      m_Curve: []
      m_PreInfinity: 2
      m_PostInfinity: 2
      m_RotationOrder: 4
    attribute: m_LocalEulerAngles.z
    path: "\u043D\u0430\u0440\u0432\u0430\u043B-\u0432\u043E\u0441\u0441\u0442\u0430\u043D\u043E\u0432\u043B\u0435\u043D\u043E_2"
    classID: 4
    script: {fileID: 0}
  - curve:
      serializedVersion: 2
      m_Curve: []
      m_PreInfinity: 2
      m_PostInfinity: 2
      m_RotationOrder: 4
    attribute: m_LocalEulerAngles.y
    path: "\u043D\u0430\u0440\u0432\u0430\u043B-\u0432\u043E\u0441\u0441\u0442\u0430\u043D\u043E\u0432\u043B\u0435\u043D\u043E_2"
    classID: 4
    script: {fileID: 0}
  - curve:
      serializedVersion: 2
      m_Curve: []
      m_PreInfinity: 2
      m_PostInfinity: 2
      m_RotationOrder: 4
    attribute: m_LocalEulerAngles.x
    path: "\u043D\u0430\u0440\u0432\u0430\u043B-\u0432\u043E\u0441\u0441\u0442\u0430\u043D\u043E\u0432\u043B\u0435\u043D\u043E_2"
    classID: 4
    script: {fileID: 0}
  - curve:
      serializedVersion: 2
      m_Curve: []
      m_PreInfinity: 2
      m_PostInfinity: 2
      m_RotationOrder: 4
    attribute: m_LocalEulerAngles.z
    path: "\u043D\u0430\u0440\u0432\u0430\u043B-\u0432\u043E\u0441\u0441\u0442\u0430\u043D\u043E\u0432\u043B\u0435\u043D\u043E_4/\u043D\u0430\u0440\u0432\u0430\u043B-\u0432\u043E\u0441\u0441\u0442\u0430\u043D\u043E\u0432\u043B\u0435\u043D\u043E_6"
    classID: 4
    script: {fileID: 0}
  - curve:
      serializedVersion: 2
      m_Curve: []
      m_PreInfinity: 2
      m_PostInfinity: 2
      m_RotationOrder: 4
    attribute: m_LocalEulerAngles.y
    path: "\u043D\u0430\u0440\u0432\u0430\u043B-\u0432\u043E\u0441\u0441\u0442\u0430\u043D\u043E\u0432\u043B\u0435\u043D\u043E_4/\u043D\u0430\u0440\u0432\u0430\u043B-\u0432\u043E\u0441\u0441\u0442\u0430\u043D\u043E\u0432\u043B\u0435\u043D\u043E_6"
    classID: 4
    script: {fileID: 0}
  - curve:
      serializedVersion: 2
      m_Curve: []
      m_PreInfinity: 2
      m_PostInfinity: 2
      m_RotationOrder: 4
    attribute: m_LocalEulerAngles.x
    path: "\u043D\u0430\u0440\u0432\u0430\u043B-\u0432\u043E\u0441\u0441\u0442\u0430\u043D\u043E\u0432\u043B\u0435\u043D\u043E_4/\u043D\u0430\u0440\u0432\u0430\u043B-\u0432\u043E\u0441\u0441\u0442\u0430\u043D\u043E\u0432\u043B\u0435\u043D\u043E_6"
    classID: 4
    script: {fileID: 0}
  - curve:
      serializedVersion: 2
      m_Curve: []
      m_PreInfinity: 2
      m_PostInfinity: 2
      m_RotationOrder: 4
    attribute: m_LocalEulerAngles.z
    path: "\u043D\u0430\u0440\u0432\u0430\u043B-\u0432\u043E\u0441\u0441\u0442\u0430\u043D\u043E\u0432\u043B\u0435\u043D\u043E_4"
    classID: 4
    script: {fileID: 0}
  - curve:
      serializedVersion: 2
      m_Curve: []
      m_PreInfinity: 2
      m_PostInfinity: 2
      m_RotationOrder: 4
    attribute: m_LocalEulerAngles.y
    path: "\u043D\u0430\u0440\u0432\u0430\u043B-\u0432\u043E\u0441\u0441\u0442\u0430\u043D\u043E\u0432\u043B\u0435\u043D\u043E_4"
    classID: 4
    script: {fileID: 0}
  - curve:
      serializedVersion: 2
      m_Curve: []
      m_PreInfinity: 2
      m_PostInfinity: 2
      m_RotationOrder: 4
    attribute: m_LocalEulerAngles.x
    path: "\u043D\u0430\u0440\u0432\u0430\u043B-\u0432\u043E\u0441\u0441\u0442\u0430\u043D\u043E\u0432\u043B\u0435\u043D\u043E_4"
    classID: 4
    script: {fileID: 0}
  - curve:
      serializedVersion: 2
      m_Curve: []
      m_PreInfinity: 2
      m_PostInfinity: 2
      m_RotationOrder: 4
    attribute: m_LocalEulerAngles.z
    path: "\u043D\u0430\u0440\u0432\u0430\u043B-\u0432\u043E\u0441\u0441\u0442\u0430\u043D\u043E\u0432\u043B\u0435\u043D\u043E_5
      (1)"
    classID: 4
    script: {fileID: 0}
  - curve:
      serializedVersion: 2
      m_Curve: []
      m_PreInfinity: 2
      m_PostInfinity: 2
      m_RotationOrder: 4
    attribute: m_LocalEulerAngles.y
    path: "\u043D\u0430\u0440\u0432\u0430\u043B-\u0432\u043E\u0441\u0441\u0442\u0430\u043D\u043E\u0432\u043B\u0435\u043D\u043E_5
      (1)"
    classID: 4
    script: {fileID: 0}
  - curve:
      serializedVersion: 2
      m_Curve: []
      m_PreInfinity: 2
      m_PostInfinity: 2
      m_RotationOrder: 4
    attribute: m_LocalEulerAngles.x
    path: "\u043D\u0430\u0440\u0432\u0430\u043B-\u0432\u043E\u0441\u0441\u0442\u0430\u043D\u043E\u0432\u043B\u0435\u043D\u043E_5
      (1)"
    classID: 4
    script: {fileID: 0}
  - curve:
      serializedVersion: 2
      m_Curve: []
      m_PreInfinity: 2
      m_PostInfinity: 2
      m_RotationOrder: 4
    attribute: m_LocalEulerAngles.z
    path: "\u043D\u0430\u0440\u0432\u0430\u043B-\u0432\u043E\u0441\u0441\u0442\u0430\u043D\u043E\u0432\u043B\u0435\u043D\u043E_3"
    classID: 4
    script: {fileID: 0}
  - curve:
      serializedVersion: 2
      m_Curve: []
      m_PreInfinity: 2
      m_PostInfinity: 2
      m_RotationOrder: 4
    attribute: m_LocalEulerAngles.y
    path: "\u043D\u0430\u0440\u0432\u0430\u043B-\u0432\u043E\u0441\u0441\u0442\u0430\u043D\u043E\u0432\u043B\u0435\u043D\u043E_3"
    classID: 4
    script: {fileID: 0}
  - curve:
      serializedVersion: 2
      m_Curve: []
      m_PreInfinity: 2
      m_PostInfinity: 2
      m_RotationOrder: 4
    attribute: m_LocalEulerAngles.x
    path: "\u043D\u0430\u0440\u0432\u0430\u043B-\u0432\u043E\u0441\u0441\u0442\u0430\u043D\u043E\u0432\u043B\u0435\u043D\u043E_3"
    classID: 4
    script: {fileID: 0}
  - curve:
      serializedVersion: 2
      m_Curve: []
      m_PreInfinity: 2
      m_PostInfinity: 2
      m_RotationOrder: 4
    attribute: m_LocalEulerAngles.x
    path: "\u043D\u0430\u0440\u0432\u0430\u043B-\u0432\u043E\u0441\u0441\u0442\u0430\u043D\u043E\u0432\u043B\u0435\u043D\u043E_5"
    classID: 4
    script: {fileID: 0}
  - curve:
      serializedVersion: 2
      m_Curve: []
      m_PreInfinity: 2
      m_PostInfinity: 2
      m_RotationOrder: 4
    attribute: m_LocalEulerAngles.y
    path: "\u043D\u0430\u0440\u0432\u0430\u043B-\u0432\u043E\u0441\u0441\u0442\u0430\u043D\u043E\u0432\u043B\u0435\u043D\u043E_5"
    classID: 4
    script: {fileID: 0}
  - curve:
      serializedVersion: 2
      m_Curve: []
      m_PreInfinity: 2
      m_PostInfinity: 2
      m_RotationOrder: 4
    attribute: m_LocalEulerAngles.z
    path: "\u043D\u0430\u0440\u0432\u0430\u043B-\u0432\u043E\u0441\u0441\u0442\u0430\u043D\u043E\u0432\u043B\u0435\u043D\u043E_5"
    classID: 4
    script: {fileID: 0}
  m_HasGenericRootTransform: 0
  m_HasMotionFloatCurves: 0
  m_GenerateMotionCurves: 0
  m_Events: []
